Name & AUCEC & AUCEC20 &  AUHDC & AUHDC20 & Max. HD & Max. HD Index \\ 
0.488742 & 0.048536 & 3.644798 & 1.584176 & 97.805316 & 0.0023856917195743 & Bugspots \\ 
0.488742 & 0.048536 & 3.644798 & 1.584176 & 97.805316 & 0.0023856917195743 & Bugspots with tracking \\ 
0.481519 & 0.041313 & 3.258410 & 1.197788 & 108.906507 & 0.0003060729271159 & Average \\ 
0.464619 & 0.024413 & 2.410641 & 0.350019 & 4.695910 & 0.0567870099295508 & Top ten percent \\ 
