Name & AUCEC & AUCEC20 &  AUHDC & AUHDC20 & Max. HD & Max. HD Index \\ 
0.445993 & 0.039970 & 1.332362 & 0.442823 & 5.251876 & 0.0010204081632653 & Average \\ 
0.366940 & 0.038027 & 1.221132 & 0.466493 & 10.375880 & 0.0016527737855706 & Top ten percent \\ 
0.390209 & 0.033254 & 1.143699 & 0.364668 & 7.609861 & 0.0007042253521127 & Bugspots with tracking \\ 
0.390714 & 0.033178 & 1.145697 & 0.364541 & 7.609861 & 0.0007042253521127 & Bugspots \\ 
