Name & AUCEC & AUCEC20 &  AUHDC & AUHDC20 & Max. HD & Max. HD Index \\ 
0.556568 & 0.078474 & 2.200355 & 1.152977 & 20.371499 & 0.0085743560245187 & Bugspots \\ 
0.556533 & 0.078035 & 2.200178 & 1.150759 & 20.371499 & 0.0085743560245187 & Bugspots with tracking \\ 
0.552277 & 0.076390 & 2.198731 & 1.159351 & 27.195377 & 0.0011240030156694 & Average \\ 
0.529945 & 0.061248 & 2.079549 & 1.068660 & 36.140741 & 0.0044706347603484 & Top ten percent \\ 
