Name & AUCEC & AUCEC20 &  AUHDC & AUHDC20 & Max. HD & Max. HD Index \\ 
0.390804 & 0.027034 & 0.947735 & 0.300914 & 4.758778 & 0.0131336235519811 & Average \\ 
0.383289 & 0.026281 & 0.857046 & 0.253963 & 1.966483 & 0.0635652623035490 & Bugspots \\ 
0.384636 & 0.026281 & 0.858824 & 0.253963 & 1.966483 & 0.0635652623035490 & Bugspots with tracking \\ 
0.388498 & 0.026003 & 0.962769 & 0.343902 & 9.359807 & 0.0066774883789567 & Top ten percent \\ 
