Name & AUCEC & AUCEC20 &  AUHDC & AUHDC20 & Max. HD & Max. HD Index \\ 
0.609198 & 0.067304 & 1.948061 & 0.927050 & 39.853554 & 0.0015441147931862 & Bugspots with tracking \\ 
0.611185 & 0.067270 & 1.954792 & 0.926936 & 39.853554 & 0.0015441147931862 & Bugspots \\ 
0.611419 & 0.066778 & 1.936555 & 0.908293 & 27.847040 & 0.0016574058242080 & Average \\ 
0.592923 & 0.061225 & 1.777369 & 0.791703 & 15.175324 & 0.0045620619806839 & Top ten percent \\ 
