Name & AUCEC & AUCEC20 &  AUHDC & AUHDC20 & Max. HD & Max. HD Index \\ 
0.510384 & 0.057435 & 1.664199 & 0.792004 & 14.874349 & 0.0010343051535880 & Bugspots \\ 
0.510384 & 0.057435 & 1.664199 & 0.792004 & 14.874349 & 0.0010343051535880 & Bugspots with tracking \\ 
0.507107 & 0.056763 & 1.643013 & 0.781818 & 27.988755 & 0.0016490138959841 & Average \\ 
0.479580 & 0.044043 & 1.488236 & 0.672726 & 15.175324 & 0.0045620619806839 & Top ten percent \\ 
