Name & AUCEC & AUCEC20 &  AUHDC & AUHDC20 & Max. HD & Max. HD Index \\ 
0.628921 & 0.083494 & 2.409768 & 1.356669 & 126.912487 & 0.0005010051947445 & Bugspots with tracking \\ 
0.628243 & 0.083225 & 2.409842 & 1.355526 & 126.912487 & 0.0005010051947445 & Bugspots \\ 
0.626897 & 0.083128 & 2.249742 & 1.202405 & 22.766302 & 0.0025389924276037 & Average \\ 
0.591254 & 0.073858 & 2.185472 & 1.209646 & 47.331043 & 0.0021982664371100 & Top ten percent \\ 
