Name & AUCEC & AUCEC20 &  AUHDC & AUHDC20 & Max. HD & Max. HD Index \\ 
0.484392 & 0.020815 & 0.974860 & 0.189741 & 1.212434 & 0.1268903123555438 & Top ten percent \\ 
0.484338 & 0.020464 & 0.970143 & 0.189319 & 1.293997 & 0.1545598626428052 & Bugspots with tracking \\ 
0.469498 & 0.020447 & 0.945645 & 0.189221 & 1.293997 & 0.1545598626428052 & Bugspots \\ 
0.473377 & 0.019091 & 0.957708 & 0.193783 & 1.551060 & 0.0247969358779634 & Average \\ 
