Name & AUCEC & AUCEC20 &  AUHDC & AUHDC20 & Max. HD & Max. HD Index \\ 
0.410075 & 0.057552 & 1.564814 & 0.712338 & 16.237955 & 0.0001458187256064 & Average \\ 
0.409695 & 0.057513 & 1.557253 & 0.706573 & 8.375460 & 0.0039578925160866 & Bugspots with tracking \\ 
0.409695 & 0.057513 & 1.557252 & 0.706572 & 8.375460 & 0.0039578925160866 & Bugspots \\ 
0.401873 & 0.053485 & 1.473754 & 0.640883 & 5.256194 & 0.0459487214490038 & Top ten percent \\ 
