Name & AUCEC & AUCEC20 &  AUHDC & AUHDC20 & Max. HD & Max. HD Index \\ 
0.645201 & 0.086606 & 2.436212 & 1.355370 & 125.478306 & 0.0004817836844434 & Bugspots \\ 
0.645745 & 0.086240 & 2.435966 & 1.353318 & 125.478306 & 0.0004817836844434 & Bugspots with tracking \\ 
0.635280 & 0.084098 & 2.228195 & 1.169968 & 21.088520 & 0.0015527686076983 & Average \\ 
0.596930 & 0.072060 & 1.950214 & 0.966393 & 14.686927 & 0.0092613075587925 & Top ten percent \\ 
