Name & AUCEC & AUCEC20 &  AUHDC & AUHDC20 & Max. HD & Max. HD Index \\ 
0.279653 & 0.038107 & 1.011517 & 0.473683 & 6.228922 & 0.0002516323313080 & Bugspots with tracking \\ 
0.279652 & 0.038107 & 1.011515 & 0.473681 & 6.228922 & 0.0002516323313080 & Bugspots \\ 
0.280240 & 0.037862 & 1.026057 & 0.484314 & 6.228922 & 0.0002516323313080 & Average \\ 
0.271953 & 0.032893 & 0.953777 & 0.426255 & 6.228922 & 0.0002516323313080 & Top ten percent \\ 
