Name & AUCEC & AUCEC20 &  AUHDC & AUHDC20 & Max. HD & Max. HD Index \\ 
0.876666 & 0.123348 & 3.807372 & 2.341923 & 225.870754 & 0.0005208600793761 & Bugspots \\ 
0.876666 & 0.123348 & 3.807372 & 2.341923 & 225.870754 & 0.0005208600793761 & Bugspots with tracking \\ 
0.841706 & 0.109758 & 3.339874 & 1.938130 & 225.870754 & 0.0005208600793761 & Average \\ 
0.831551 & 0.100926 & 3.532863 & 2.136721 & 225.870754 & 0.0005208600793761 & Top ten percent \\ 
