Name & AUCEC & AUCEC20 &  AUHDC & AUHDC20 & Max. HD & Max. HD Index \\ 
0.111079 & 0.006114 & 0.888260 & 0.183391 & 4.351755 & 0.0051721752212271 & Average \\ 
0.110216 & 0.005251 & 0.873786 & 0.168917 & 5.977279 & 0.0010758855940443 & Bugspots \\ 
0.110216 & 0.005251 & 0.873786 & 0.168917 & 5.977279 & 0.0010758855940443 & Bugspots with tracking \\ 
0.110045 & 0.005080 & 0.839234 & 0.134365 & 3.878639 & 0.0004145054979887 & Top ten percent \\ 
