Name & AUCEC & AUCEC20 &  AUHDC & AUHDC20 & Max. HD & Max. HD Index \\ 
0.547524 & 0.073576 & 2.277969 & 1.343251 & 139.416590 & 0.0004593385103071 & Bugspots \\ 
0.547526 & 0.073480 & 2.277949 & 1.342771 & 139.416590 & 0.0004593385103071 & Bugspots with tracking \\ 
0.546970 & 0.070021 & 1.914294 & 0.966382 & 15.008344 & 0.0019693478660294 & Average \\ 
0.509864 & 0.049893 & 1.678385 & 0.788544 & 22.464335 & 0.0019735716684231 & Top ten percent \\ 
