Name & AUCEC & AUCEC20 &  AUHDC & AUHDC20 & Max. HD & Max. HD Index \\ 
0.223576 & 0.023662 & 1.095294 & 0.351059 & 3.695087 & 0.0233877449459087 & Bugspots \\ 
0.223576 & 0.023662 & 1.095294 & 0.351059 & 3.695087 & 0.0233877449459087 & Bugspots with tracking \\ 
0.223304 & 0.023390 & 1.105558 & 0.361323 & 4.223537 & 0.0214358221237615 & Average \\ 
0.220294 & 0.020379 & 1.039787 & 0.295552 & 3.104349 & 0.0192216734395658 & Top ten percent \\ 
