Name & AUCEC & AUCEC20 &  AUHDC & AUHDC20 & Max. HD & Max. HD Index \\ 
0.549933 & 0.036429 & 1.272456 & 0.375346 & 2.747380 & 0.0139993533785968 & Top ten percent \\ 
0.519655 & 0.026770 & 1.148903 & 0.289300 & 2.344070 & 0.0328160362107986 & Bugspots \\ 
0.524502 & 0.026770 & 1.155274 & 0.289300 & 2.344070 & 0.0328160362107986 & Bugspots with tracking \\ 
0.506468 & 0.013306 & 0.998048 & 0.141930 & 1.326990 & 0.3043323634012286 & Average \\ 
