Name & AUCEC & AUCEC20 &  AUHDC & AUHDC20 & Max. HD & Max. HD Index \\ 
0.528219 & 0.064411 & 1.602889 & 0.659458 & 5.957402 & 0.0024288193481413 & Average \\ 
0.532664 & 0.063469 & 1.594612 & 0.632747 & 3.985605 & 0.0080676180380601 & Bugspots \\ 
0.532698 & 0.063453 & 1.594879 & 0.632770 & 3.985605 & 0.0080676180380601 & Bugspots with tracking \\ 
0.497930 & 0.053148 & 1.442962 & 0.564383 & 3.686783 & 0.0095936687942584 & Top ten percent \\ 
