Name & AUCEC & AUCEC20 &  AUHDC & AUHDC20 & Max. HD & Max. HD Index \\ 
0.539095 & 0.064883 & 1.610076 & 0.646823 & 3.960343 & 0.1290221140592931 & Bugspots \\ 
0.539129 & 0.064867 & 1.610349 & 0.646855 & 3.964391 & 0.1288903502203537 & Bugspots with tracking \\ 
0.538010 & 0.064655 & 1.643220 & 0.679808 & 7.865603 & 0.0011956348348209 & Average \\ 
0.506478 & 0.054987 & 1.487929 & 0.601363 & 6.701041 & 0.0018712295182720 & Top ten percent \\ 
