Name & AUCEC & AUCEC20 &  AUHDC & AUHDC20 & Max. HD & Max. HD Index \\ 
0.882857 & 0.138669 & 3.434591 & 1.974508 & 67.965406 & 0.0007743877676389 & Top ten percent \\ 
0.881090 & 0.133713 & 3.306937 & 1.828222 & 24.057885 & 0.0175016477301269 & Average \\ 
0.877018 & 0.133370 & 3.287731 & 1.832061 & 27.162810 & 0.0135634365507395 & Bugspots \\ 
0.877036 & 0.133285 & 3.287837 & 1.831660 & 27.162810 & 0.0135634365507395 & Bugspots with tracking \\ 
