Name & AUCEC & AUCEC20 &  AUHDC & AUHDC20 & Max. HD & Max. HD Index \\ 
0.834555 & 0.132885 & 3.396077 & 1.981615 & 32.992488 & 0.0060619859149308 & Bugspots \\ 
0.834556 & 0.132880 & 3.396096 & 1.981607 & 32.992488 & 0.0060619859149308 & Bugspots with tracking \\ 
0.838325 & 0.131545 & 3.378910 & 1.942666 & 33.775858 & 0.0014803473010874 & Top ten percent \\ 
0.836629 & 0.130238 & 3.308889 & 1.872158 & 25.283756 & 0.0138428800011611 & Average \\ 
