Name & AUCEC & AUCEC20 &  AUHDC & AUHDC20 & Max. HD & Max. HD Index \\ 
0.110871 & 0.004634 & 0.617667 & 0.070929 & 1.449647 & 0.0054747855708985 & Bugspots \\ 
0.110871 & 0.004634 & 0.617667 & 0.070929 & 1.449647 & 0.0054747855708985 & Bugspots with tracking \\ 
0.109807 & 0.003570 & 0.589609 & 0.042870 & 1.107227 & 0.1075187055173672 & Top ten percent \\ 
0.109807 & 0.003570 & 0.589609 & 0.042870 & 1.107227 & 0.1075187055173672 & Average \\ 
