Name & AUCEC & AUCEC20 &  AUHDC & AUHDC20 & Max. HD & Max. HD Index \\ 
0.843832 & 0.133003 & 3.325976 & 1.931242 & 29.032961 & 0.0129163540630420 & Average \\ 
0.843446 & 0.132198 & 3.165184 & 1.771986 & 24.568560 & 0.0178073113773630 & Top ten percent \\ 
0.841280 & 0.129438 & 3.316770 & 1.919987 & 33.501859 & 0.0093278405668680 & Bugspots \\ 
0.841282 & 0.129434 & 3.316794 & 1.919983 & 33.501859 & 0.0093278405668680 & Bugspots with tracking \\ 
