Name & AUCEC & AUCEC20 &  AUHDC & AUHDC20 & Max. HD & Max. HD Index \\ 
0.407755 & 0.060103 & 1.440660 & 0.688799 & 5.397612 & 0.0189048077446674 & Bugspots with tracking \\ 
0.407778 & 0.058775 & 1.475614 & 0.715999 & 8.153340 & 0.0008343478104369 & Average \\ 
0.407899 & 0.057393 & 1.441453 & 0.675088 & 5.397612 & 0.0189048077446674 & Bugspots \\ 
0.394897 & 0.048524 & 1.356731 & 0.606065 & 6.986369 & 0.0003894853716863 & Top ten percent \\ 
