Name & AUCEC & AUCEC20 &  AUHDC & AUHDC20 & Max. HD & Max. HD Index \\ 
0.837398 & 0.134878 & 3.330942 & 1.954625 & 51.563437 & 0.0010207150997444 & Top ten percent \\ 
0.833271 & 0.130263 & 3.186775 & 1.814304 & 27.162810 & 0.0135634365507395 & Bugspots with tracking \\ 
0.835220 & 0.129589 & 3.202537 & 1.807584 & 24.057885 & 0.0175016477301269 & Average \\ 
0.831997 & 0.126147 & 3.184274 & 1.793250 & 27.162810 & 0.0135634365507395 & Bugspots \\ 
