Name & AUCEC & AUCEC20 &  AUHDC & AUHDC20 & Max. HD & Max. HD Index \\ 
0.481712 & 0.024158 & 1.036762 & 0.269816 & 2.801420 & 0.0132208067259250 & Top ten percent \\ 
0.465657 & 0.019589 & 0.979282 & 0.225191 & 1.858591 & 0.0398549561980554 & Bugspots with tracking \\ 
0.448371 & 0.019589 & 0.958000 & 0.225192 & 1.858591 & 0.0398549561980554 & Bugspots \\ 
0.419007 & 0.016076 & 0.783081 & 0.138764 & 1.069350 & 0.1039052722780220 & Average \\ 
