Name & AUCEC & AUCEC20 &  AUHDC & AUHDC20 & Max. HD & Max. HD Index \\ 
0.495634 & 0.033507 & 1.311881 & 0.404562 & 4.331956 & 0.0260628766900147 & Bugspots \\ 
0.495634 & 0.033507 & 1.311881 & 0.404562 & 4.331956 & 0.0260628766900147 & Bugspots with tracking \\ 
0.481335 & 0.028795 & 1.195486 & 0.327386 & 3.578896 & 0.0135201172829451 & Top ten percent \\ 
0.484527 & 0.024764 & 1.160711 & 0.271141 & 3.257110 & 0.0049519465711028 & Average \\ 
