Name & AUCEC & AUCEC20 &  AUHDC & AUHDC20 & Max. HD & Max. HD Index \\ 
0.548235 & 0.061194 & 1.784290 & 0.833163 & 17.040404 & 0.0040627422513655 & Bugspots \\ 
0.548255 & 0.061118 & 1.784386 & 0.832779 & 17.040404 & 0.0040627422513655 & Bugspots with tracking \\ 
0.545754 & 0.059938 & 1.761510 & 0.815673 & 27.847040 & 0.0016574058242080 & Average \\ 
0.520753 & 0.047897 & 1.601513 & 0.703463 & 15.175324 & 0.0045620619806839 & Top ten percent \\ 
