Name & AUCEC & AUCEC20 &  AUHDC & AUHDC20 & Max. HD & Max. HD Index \\ 
0.576100 & 0.075888 & 2.102142 & 1.137064 & 22.660908 & 0.0081625634482744 & Average \\ 
0.570241 & 0.074125 & 1.976477 & 1.024995 & 18.128161 & 0.0015943004290388 & Bugspots with tracking \\ 
0.570277 & 0.074021 & 1.976641 & 1.024504 & 18.128161 & 0.0015943004290388 & Bugspots \\ 
0.555266 & 0.066006 & 1.986430 & 1.059608 & 27.801202 & 0.0051979288954746 & Top ten percent \\ 
