Name & AUCEC & AUCEC20 &  AUHDC & AUHDC20 & Max. HD & Max. HD Index \\ 
0.613944 & 0.084328 & 2.175168 & 1.136317 & 21.450246 & 0.0034054555355137 & Bugspots \\ 
0.613863 & 0.084272 & 2.174735 & 1.135914 & 21.450246 & 0.0034054555355137 & Bugspots with tracking \\ 
0.600359 & 0.079678 & 2.097380 & 1.085269 & 21.088520 & 0.0015527686076983 & Average \\ 
0.581791 & 0.070542 & 2.079306 & 1.100186 & 39.039610 & 0.0025163359765851 & Top ten percent \\ 
