Name & AUCEC & AUCEC20 &  AUHDC & AUHDC20 & Max. HD & Max. HD Index \\ 
0.612549 & 0.067516 & 2.042934 & 1.017551 & 95.108846 & 0.0005075854067619 & Bugspots \\ 
0.613015 & 0.067516 & 2.044393 & 1.017551 & 95.108846 & 0.0005075854067619 & Bugspots with tracking \\ 
0.610218 & 0.066646 & 1.988839 & 0.966655 & 47.456170 & 0.0010172726164504 & Average \\ 
0.592299 & 0.060388 & 1.729410 & 0.744559 & 13.979785 & 0.0034532622083223 & Top ten percent \\ 
