Name & AUCEC & AUCEC20 &  AUHDC & AUHDC20 & Max. HD & Max. HD Index \\ 
0.336093 & 0.037232 & 1.175804 & 0.537835 & 14.552691 & 0.0050359106871440 & Average \\ 
0.326631 & 0.033482 & 1.067504 & 0.449980 & 7.012702 & 0.0013484481662277 & Bugspots \\ 
0.326631 & 0.033482 & 1.067504 & 0.449980 & 7.012702 & 0.0013484481662277 & Bugspots with tracking \\ 
0.322534 & 0.025536 & 0.898940 & 0.268999 & 7.693311 & 0.0006145770868194 & Top ten percent \\ 
