Name & AUCEC & AUCEC20 &  AUHDC & AUHDC20 & Max. HD & Max. HD Index \\ 
0.440083 & 0.022132 & 0.991807 & 0.261653 & 2.253592 & 0.0350977587029089 & Bugspots with tracking \\ 
0.438223 & 0.021872 & 0.987051 & 0.260349 & 2.253592 & 0.0350977587029089 & Bugspots \\ 
0.428411 & 0.017570 & 0.921165 & 0.215486 & 3.384988 & 0.0033381020505484 & Top ten percent \\ 
0.427727 & 0.015057 & 0.909619 & 0.188566 & 2.538741 & 0.0089016054681291 & Average \\ 
