Name & AUCEC & AUCEC20 &  AUHDC & AUHDC20 & Max. HD & Max. HD Index \\ 
0.156203 & 0.026639 & 0.690487 & 0.359742 & 3.999034 & 0.0007248126826589 & Average \\ 
0.156084 & 0.026508 & 0.679095 & 0.348317 & 3.617262 & 0.0396648760371104 & Bugspots \\ 
0.156084 & 0.026508 & 0.679095 & 0.348317 & 3.617262 & 0.0396648760371104 & Bugspots with tracking \\ 
0.150966 & 0.021666 & 0.652297 & 0.322633 & 14.731645 & 0.0000983783810290 & Top ten percent \\ 
