Name & AUCEC & AUCEC20 &  AUHDC & AUHDC20 & Max. HD & Max. HD Index \\ 
0.163243 & 0.026685 & 0.632090 & 0.327287 & 3.306002 & 0.0452616237996170 & Bugspots \\ 
0.163243 & 0.026685 & 0.632090 & 0.327287 & 3.306002 & 0.0452616237996170 & Bugspots with tracking \\ 
0.144088 & 0.012116 & 0.450039 & 0.163480 & 3.302625 & 0.0110507096327839 & Average \\ 
0.141739 & 0.010046 & 0.400216 & 0.114244 & 1.299669 & 0.0112325027893221 & Top ten percent \\ 
