Name & AUCEC & AUCEC20 &  AUHDC & AUHDC20 & Max. HD & Max. HD Index \\ 
0.824020 & 0.144952 & 3.544647 & 2.173013 & 63.665396 & 0.0009519466522806 & Top ten percent \\ 
0.821003 & 0.138280 & 3.468366 & 2.078222 & 63.665396 & 0.0009519466522806 & Average \\ 
0.816001 & 0.134837 & 3.460184 & 2.077982 & 63.665396 & 0.0009519466522806 & Bugspots \\ 
0.816017 & 0.134736 & 3.460355 & 2.077559 & 63.665396 & 0.0009519466522806 & Bugspots with tracking \\ 
