Name & AUCEC & AUCEC20 &  AUHDC & AUHDC20 & Max. HD & Max. HD Index \\ 
0.424396 & 0.060968 & 1.583204 & 0.730199 & 8.375460 & 0.0039578925160866 & Bugspots with tracking \\ 
0.424396 & 0.060968 & 1.583203 & 0.730198 & 8.375460 & 0.0039578925160866 & Bugspots \\ 
0.424418 & 0.060271 & 1.594199 & 0.737189 & 16.237955 & 0.0001458187256064 & Average \\ 
0.415803 & 0.054807 & 1.487318 & 0.644878 & 5.252093 & 0.0461348730136077 & Top ten percent \\ 
