Name & AUCEC & AUCEC20 &  AUHDC & AUHDC20 & Max. HD & Max. HD Index \\ 
0.586953 & 0.074369 & 1.888373 & 0.822998 & 5.961090 & 0.0102238470437680 & Average \\ 
0.587544 & 0.071629 & 1.852329 & 0.773480 & 5.227333 & 0.0045208221662854 & Bugspots \\ 
0.587585 & 0.071615 & 1.852713 & 0.773596 & 5.227333 & 0.0045208221662854 & Bugspots with tracking \\ 
0.558134 & 0.061657 & 1.684166 & 0.674037 & 4.559202 & 0.0523788936545246 & Top ten percent \\ 
