Name & AUCEC & AUCEC20 &  AUHDC & AUHDC20 & Max. HD & Max. HD Index \\ 
0.554456 & 0.036455 & 1.338611 & 0.415355 & 3.168318 & 0.0332236734959773 & Bugspots \\ 
0.561992 & 0.036455 & 1.351798 & 0.415355 & 3.168318 & 0.0332236734959773 & Bugspots with tracking \\ 
0.550590 & 0.031478 & 1.220404 & 0.298760 & 3.543513 & 0.0049509787954790 & Top ten percent \\ 
0.532089 & 0.015434 & 1.032471 & 0.144321 & 1.771757 & 0.0099019575909579 & Average \\ 
