Name & AUCEC & AUCEC20 &  AUHDC & AUHDC20 & Max. HD & Max. HD Index \\ 
0.472568 & 0.023034 & 1.111376 & 0.333450 & 5.673347 & 0.0083367543499542 & Bugspots \\ 
0.478305 & 0.023034 & 1.120345 & 0.333450 & 5.673347 & 0.0083367543499542 & Bugspots with tracking \\ 
0.464856 & 0.019996 & 1.005755 & 0.260325 & 4.566352 & 0.0103577857075189 & Average \\ 
0.472050 & 0.019659 & 1.054612 & 0.264899 & 5.673347 & 0.0083367543499542 & Top ten percent \\ 
