Name & AUCEC & AUCEC20 &  AUHDC & AUHDC20 & Max. HD & Max. HD Index \\ 
0.402057 & 0.044260 & 1.313010 & 0.465020 & 29.544992 & 0.0000574646592346 & Average \\ 
0.385288 & 0.032083 & 1.187953 & 0.356322 & 8.150342 & 0.0008332375589013 & Bugspots \\ 
0.385026 & 0.031827 & 1.184473 & 0.352869 & 8.150342 & 0.0008332375589013 & Bugspots with tracking \\ 
0.312635 & 0.020898 & 1.063312 & 0.300352 & 3.350463 & 0.0027870359728767 & Top ten percent \\ 
