Name & AUCEC & AUCEC20 &  AUHDC & AUHDC20 & Max. HD & Max. HD Index \\ 
0.609639 & 0.066342 & 1.979486 & 0.956021 & 83.384131 & 0.0005067333638283 & Bugspots with tracking \\ 
0.610587 & 0.066318 & 1.981170 & 0.955904 & 83.384131 & 0.0005067333638283 & Bugspots \\ 
0.604944 & 0.065401 & 1.954884 & 0.941688 & 82.025530 & 0.0005151264630221 & Average \\ 
0.587160 & 0.059526 & 1.757239 & 0.784665 & 35.328540 & 0.0011960166351226 & Top ten percent \\ 
