Name & AUCEC & AUCEC20 &  AUHDC & AUHDC20 & Max. HD & Max. HD Index \\ 
0.461440 & 0.051129 & 1.906630 & 0.820036 & 76.022317 & 0.0007892419283986 & Bugspots \\ 
0.461440 & 0.051129 & 1.906630 & 0.820036 & 76.022317 & 0.0007892419283986 & Bugspots with tracking \\ 
0.458787 & 0.048270 & 1.639757 & 0.552111 & 6.781015 & 0.0176964644904187 & Average \\ 
0.455303 & 0.044644 & 1.525399 & 0.437035 & 3.146940 & 0.0338953660674313 & Top ten percent \\ 
