Name & AUCEC & AUCEC20 &  AUHDC & AUHDC20 & Max. HD & Max. HD Index \\ 
0.477378 & 0.063133 & 1.516481 & 0.662278 & 4.763886 & 0.0012239804652963 & Average \\ 
0.481371 & 0.062135 & 1.509388 & 0.637416 & 3.890149 & 0.1165386763131920 & Bugspots with tracking \\ 
0.479624 & 0.061012 & 1.502789 & 0.631277 & 3.885739 & 0.1166709323314532 & Bugspots \\ 
0.451862 & 0.049325 & 1.373932 & 0.562316 & 10.538965 & 0.0006915887621571 & Top ten percent \\ 
