Name & AUCEC & AUCEC20 &  AUHDC & AUHDC20 & Max. HD & Max. HD Index \\ 
0.529788 & 0.025642 & 1.158787 & 0.273740 & 2.236119 & 0.0258001939864210 & Bugspots \\ 
0.532628 & 0.025642 & 1.163482 & 0.273740 & 2.236119 & 0.0258001939864210 & Bugspots with tracking \\ 
0.513514 & 0.023929 & 1.067927 & 0.207018 & 1.736665 & 0.0221467830585192 & Average \\ 
0.476470 & 0.023589 & 0.974632 & 0.208265 & 1.765008 & 0.0871645651471064 & Top ten percent \\ 
