Name & AUCEC & AUCEC20 &  AUHDC & AUHDC20 & Max. HD & Max. HD Index \\ 
0.466579 & 0.022818 & 1.003904 & 0.232543 & 2.279743 & 0.0047506774114087 & Bugspots \\ 
0.468605 & 0.021938 & 0.985417 & 0.218384 & 2.279743 & 0.0047506774114087 & Bugspots with tracking \\ 
0.475878 & 0.020373 & 0.980109 & 0.195207 & 1.283200 & 0.0534539184291093 & Average \\ 
0.441834 & 0.016876 & 0.892112 & 0.174987 & 1.314113 & 0.0412077277685892 & Top ten percent \\ 
