Name & AUCEC & AUCEC20 &  AUHDC & AUHDC20 & Max. HD & Max. HD Index \\ 
0.861104 & 0.149343 & 3.482458 & 2.037573 & 23.045101 & 0.0266276278537756 & Top ten percent \\ 
0.861992 & 0.146524 & 3.589075 & 2.125163 & 29.272317 & 0.0147517596651155 & Average \\ 
0.836791 & 0.122827 & 2.974617 & 1.518475 & 27.128758 & 0.0016755114922244 & Bugspots \\ 
0.836824 & 0.122607 & 2.975072 & 1.517629 & 27.128758 & 0.0016755114922244 & Bugspots with tracking \\ 
