Name & AUCEC & AUCEC20 &  AUHDC & AUHDC20 & Max. HD & Max. HD Index \\ 
0.509826 & 0.023780 & 1.115097 & 0.262017 & 2.205436 & 0.0291904514789829 & Bugspots \\ 
0.485753 & 0.023438 & 1.001012 & 0.204321 & 1.376804 & 0.1683316035288012 & Top ten percent \\ 
0.506642 & 0.022710 & 1.100714 & 0.253462 & 2.205436 & 0.0291904514789829 & Bugspots with tracking \\ 
0.507338 & 0.019127 & 1.017718 & 0.173340 & 1.251171 & 0.0720355474831344 & Average \\ 
