Name & AUCEC & AUCEC20 &  AUHDC & AUHDC20 & Max. HD & Max. HD Index \\ 
0.536449 & 0.062053 & 1.686164 & 0.765029 & 7.439384 & 0.0279313713402316 & Bugspots \\ 
0.536426 & 0.061992 & 1.686040 & 0.764704 & 7.439384 & 0.0279313713402316 & Bugspots with tracking \\ 
0.525045 & 0.058360 & 1.688820 & 0.795824 & 16.409860 & 0.0039570760000970 & Average \\ 
0.502678 & 0.046929 & 1.504976 & 0.646070 & 9.012097 & 0.0136901130006017 & Top ten percent \\ 
