Name & AUCEC & AUCEC20 &  AUHDC & AUHDC20 & Max. HD & Max. HD Index \\ 
0.794676 & 0.098860 & 2.691933 & 1.254436 & 18.963523 & 0.0067606177241840 & Top ten percent \\ 
0.770295 & 0.077899 & 2.212697 & 0.794828 & 7.922475 & 0.0194189517477686 & Bugspots \\ 
0.770295 & 0.077899 & 2.212697 & 0.794828 & 7.922475 & 0.0194189517477686 & Bugspots with tracking \\ 
0.769228 & 0.073925 & 2.701165 & 1.273478 & 248.025953 & 0.0005169020685519 & Average \\ 
