Name & AUCEC & AUCEC20 &  AUHDC & AUHDC20 & Max. HD & Max. HD Index \\ 
0.558482 & 0.073468 & 2.294571 & 1.343747 & 139.416590 & 0.0004593385103071 & Bugspots with tracking \\ 
0.558488 & 0.073315 & 2.294631 & 1.342991 & 139.416590 & 0.0004593385103071 & Bugspots \\ 
0.555290 & 0.069848 & 1.931487 & 0.975991 & 20.029676 & 0.0027053454331193 & Average \\ 
0.521835 & 0.051347 & 1.700882 & 0.795052 & 19.614970 & 0.0015068415039271 & Top ten percent \\ 
