Name & AUCEC & AUCEC20 &  AUHDC & AUHDC20 & Max. HD & Max. HD Index \\ 
0.405296 & 0.022091 & 3.091813 & 0.597097 & 34.391758 & 0.0003920458490677 & Bugspots \\ 
0.405296 & 0.022091 & 3.091813 & 0.597097 & 34.391758 & 0.0003920458490677 & Bugspots with tracking \\ 
0.401805 & 0.018600 & 3.006516 & 0.511799 & 12.484446 & 0.0014399940178290 & Average \\ 
0.401121 & 0.017916 & 2.966795 & 0.472079 & 10.666016 & 0.0046351142754897 & Top ten percent \\ 
