Name & AUCEC & AUCEC20 &  AUHDC & AUHDC20 & Max. HD & Max. HD Index \\ 
0.247715 & 0.030922 & 1.230529 & 0.452525 & 5.251324 & 0.0005078084046930 & Bugspots with tracking \\ 
0.247688 & 0.030894 & 1.229553 & 0.451549 & 5.251324 & 0.0005078084046930 & Bugspots \\ 
0.247022 & 0.030228 & 1.205912 & 0.427908 & 7.853073 & 0.0003395698102027 & Average \\ 
0.244741 & 0.027947 & 1.182695 & 0.404692 & 4.253172 & 0.0154655802082138 & Top ten percent \\ 
