Name & AUCEC & AUCEC20 &  AUHDC & AUHDC20 & Max. HD & Max. HD Index \\ 
0.481575 & 0.027603 & 1.083270 & 0.314130 & 3.660200 & 0.0066636377404210 & Bugspots \\ 
0.487192 & 0.027339 & 1.091060 & 0.312804 & 3.660200 & 0.0066636377404210 & Bugspots with tracking \\ 
0.473525 & 0.023062 & 0.974681 & 0.231675 & 1.844774 & 0.0352567014993185 & Average \\ 
0.467625 & 0.022075 & 0.991726 & 0.238791 & 2.556330 & 0.0063607451158564 & Top ten percent \\ 
