Name & AUCEC & AUCEC20 &  AUHDC & AUHDC20 & Max. HD & Max. HD Index \\ 
0.722780 & 0.061749 & 2.616078 & 1.074117 & 210.263471 & 0.0005169497656949 & Average \\ 
0.723630 & 0.061333 & 2.229540 & 0.680315 & 10.066022 & 0.0107982731990382 & Bugspots \\ 
0.723630 & 0.061333 & 2.229540 & 0.680315 & 10.066022 & 0.0107982731990382 & Bugspots with tracking \\ 
0.715903 & 0.056668 & 2.359378 & 0.825168 & 36.929067 & 0.0029433630675568 & Top ten percent \\ 
