Name & AUCEC & AUCEC20 &  AUHDC & AUHDC20 & Max. HD & Max. HD Index \\ 
0.282079 & 0.018329 & 0.686195 & 0.214799 & 2.412478 & 0.0057471264367816 & Bugspots with tracking \\ 
0.281691 & 0.018298 & 0.685158 & 0.214422 & 2.412478 & 0.0057471264367816 & Bugspots \\ 
0.272473 & 0.016424 & 0.662870 & 0.201133 & 2.707530 & 0.0051208370173887 & Top ten percent \\ 
0.264208 & 0.013302 & 0.617522 & 0.163228 & 2.707530 & 0.0051208370173887 & Average \\ 
