Name & AUCEC & AUCEC20 &  AUHDC & AUHDC20 & Max. HD & Max. HD Index \\ 
0.218934 & 0.034051 & 0.859485 & 0.440153 & 4.269917 & 0.0030121748798696 & Average \\ 
0.218451 & 0.033554 & 0.854593 & 0.434866 & 5.024102 & 0.0044800119962768 & Bugspots \\ 
0.218451 & 0.033554 & 0.854593 & 0.434866 & 5.024102 & 0.0044800119962768 & Bugspots with tracking \\ 
0.213398 & 0.028759 & 0.792069 & 0.373026 & 3.878639 & 0.0004145054979887 & Top ten percent \\ 
