Name & AUCEC & AUCEC20 &  AUHDC & AUHDC20 & Max. HD & Max. HD Index \\ 
0.537815 & 0.065540 & 2.135250 & 1.212269 & 132.830931 & 0.0004786822951867 & Bugspots \\ 
0.537811 & 0.065469 & 2.135366 & 1.211986 & 132.830931 & 0.0004786822951867 & Bugspots with tracking \\ 
0.531993 & 0.063324 & 1.913656 & 1.000774 & 36.186764 & 0.0019168379133248 & Average \\ 
0.505816 & 0.045906 & 1.531283 & 0.647330 & 9.999626 & 0.0023122252716838 & Top ten percent \\ 
