Name & AUCEC & AUCEC20 &  AUHDC & AUHDC20 & Max. HD & Max. HD Index \\ 
0.447233 & 0.019663 & 0.941258 & 0.236579 & 2.279743 & 0.0047506774114087 & Bugspots with tracking \\ 
0.430992 & 0.019643 & 0.913496 & 0.236433 & 2.279743 & 0.0047506774114087 & Bugspots \\ 
0.436048 & 0.017459 & 0.920526 & 0.226694 & 3.378661 & 0.0117535278178555 & Top ten percent \\ 
0.434177 & 0.013540 & 0.854672 & 0.148257 & 1.298588 & 0.0111201041630010 & Average \\ 
