Name & AUCEC & AUCEC20 &  AUHDC & AUHDC20 & Max. HD & Max. HD Index \\ 
0.868595 & 0.134999 & 3.142119 & 1.712629 & 22.979249 & 0.0190389166931893 & Top ten percent \\ 
0.871105 & 0.134590 & 3.380942 & 1.933762 & 29.756655 & 0.0126022228274950 & Average \\ 
0.865127 & 0.131765 & 3.278590 & 1.852303 & 29.355023 & 0.0127746450548037 & Bugspots \\ 
0.865140 & 0.131677 & 3.278654 & 1.851876 & 29.355023 & 0.0127746450548037 & Bugspots with tracking \\ 
