Name & AUCEC & AUCEC20 &  AUHDC & AUHDC20 & Max. HD & Max. HD Index \\ 
0.239165 & 0.041417 & 1.195759 & 0.613892 & 7.683165 & 0.0133460594222471 & Bugspots with tracking \\ 
0.239160 & 0.041412 & 1.195643 & 0.613776 & 7.683165 & 0.0133460594222471 & Bugspots \\ 
0.237152 & 0.039408 & 1.200777 & 0.618934 & 11.243497 & 0.0034304349943201 & Average \\ 
0.231578 & 0.033829 & 1.081397 & 0.499529 & 8.026267 & 0.0033989998699449 & Top ten percent \\ 
