Name & AUCEC & AUCEC20 &  AUHDC & AUHDC20 & Max. HD & Max. HD Index \\ 
0.065963 & 0.000292 & 4.409329 & 0.078807 & 18.018297 & 0.0012242457303512 & Top ten percent \\ 
0.065910 & 0.000239 & 4.382089 & 0.051567 & 10.283330 & 0.0035751751919768 & Average \\ 
0.065897 & 0.000226 & 4.380225 & 0.049703 & 10.283330 & 0.0035751751919768 & Bugspots \\ 
0.065897 & 0.000226 & 4.380225 & 0.049703 & 10.283330 & 0.0035751751919768 & Bugspots with tracking \\ 
