Name & AUCEC & AUCEC20 &  AUHDC & AUHDC20 & Max. HD & Max. HD Index \\ 
0.443872 & 0.057006 & 1.392135 & 0.591831 & 4.094133 & 0.0094245139770644 & Bugspots \\ 
0.443894 & 0.056977 & 1.392306 & 0.591752 & 4.094133 & 0.0094245139770644 & Bugspots with tracking \\ 
0.440738 & 0.055780 & 1.396549 & 0.600390 & 3.971851 & 0.0048573339128283 & Average \\ 
0.420727 & 0.044437 & 1.261305 & 0.495179 & 3.797659 & 0.0004233442181664 & Top ten percent \\ 
