Name & AUCEC & AUCEC20 &  AUHDC & AUHDC20 & Max. HD & Max. HD Index \\ 
0.621454 & 0.083104 & 2.390871 & 1.349708 & 126.912487 & 0.0005010051947445 & Bugspots \\ 
0.620580 & 0.082840 & 2.388828 & 1.348314 & 126.912487 & 0.0005010051947445 & Bugspots with tracking \\ 
0.614101 & 0.082386 & 2.218264 & 1.195780 & 20.375066 & 0.0093620038509467 & Average \\ 
0.589472 & 0.073808 & 2.147329 & 1.172284 & 34.373875 & 0.0039517846187159 & Top ten percent \\ 
