Name & AUCEC & AUCEC20 &  AUHDC & AUHDC20 & Max. HD & Max. HD Index \\ 
0.660654 & 0.081085 & 2.465680 & 1.357011 & 125.409843 & 0.0004774763949584 & Bugspots with tracking \\ 
0.660698 & 0.081040 & 2.465864 & 1.356812 & 125.409843 & 0.0004774763949584 & Bugspots \\ 
0.655101 & 0.078208 & 2.082158 & 0.981591 & 12.318706 & 0.0111801150581088 & Average \\ 
0.621368 & 0.070997 & 2.231066 & 1.207548 & 125.409843 & 0.0004774763949584 & Top ten percent \\ 
