Name & AUCEC & AUCEC20 &  AUHDC & AUHDC20 & Max. HD & Max. HD Index \\ 
0.383197 & 0.054651 & 1.403608 & 0.685979 & 8.153340 & 0.0008343478104369 & Average \\ 
0.381763 & 0.053715 & 1.363045 & 0.647055 & 5.397612 & 0.0189048077446674 & Bugspots \\ 
0.381770 & 0.053694 & 1.363119 & 0.646986 & 5.397612 & 0.0189048077446674 & Bugspots with tracking \\ 
0.373167 & 0.047917 & 1.295402 & 0.592600 & 6.986369 & 0.0003894853716863 & Top ten percent \\ 
