Name & AUCEC & AUCEC20 &  AUHDC & AUHDC20 & Max. HD & Max. HD Index \\ 
0.555396 & 0.072136 & 1.738294 & 0.741145 & 4.631541 & 0.0373786434378375 & Average \\ 
0.554636 & 0.070763 & 1.737602 & 0.734726 & 5.087877 & 0.0273104419483321 & Bugspots \\ 
0.554662 & 0.070731 & 1.737819 & 0.734647 & 5.087877 & 0.0273104419483321 & Bugspots with tracking \\ 
0.528837 & 0.060448 & 1.621803 & 0.674474 & 10.616767 & 0.0004291144892076 & Top ten percent \\ 
