Name & AUCEC & AUCEC20 &  AUHDC & AUHDC20 & Max. HD & Max. HD Index \\ 
0.348724 & 0.023290 & 0.899081 & 0.217082 & 1.529239 & 0.0986069712269603 & Top ten percent \\ 
0.343793 & 0.017154 & 0.872562 & 0.189300 & 1.839740 & 0.0258835695601922 & Bugspots \\ 
0.343793 & 0.017154 & 0.872562 & 0.189300 & 1.839740 & 0.0258835695601922 & Bugspots with tracking \\ 
0.340561 & 0.016960 & 0.878106 & 0.204322 & 2.095876 & 0.0075734533730762 & Average \\ 
