Name & AUCEC & AUCEC20 &  AUHDC & AUHDC20 & Max. HD & Max. HD Index \\ 
0.476387 & 0.024980 & 1.035185 & 0.229339 & 1.523681 & 0.1446806984832730 & Bugspots \\ 
0.485952 & 0.023547 & 1.029827 & 0.223609 & 1.782045 & 0.0340636093083294 & Average \\ 
0.473296 & 0.021360 & 0.978210 & 0.185635 & 1.239533 & 0.1108322277600488 & Bugspots with tracking \\ 
0.443285 & 0.014993 & 0.878503 & 0.151239 & 1.123137 & 0.0426691527125390 & Top ten percent \\ 
