Name & AUCEC & AUCEC20 &  AUHDC & AUHDC20 & Max. HD & Max. HD Index \\ 
0.397228 & 0.053864 & 1.406198 & 0.673615 & 9.398194 & 0.0072335661800597 & Bugspots with tracking \\ 
0.397228 & 0.053864 & 1.406195 & 0.673612 & 9.398194 & 0.0072335661800597 & Bugspots \\ 
0.401077 & 0.052357 & 1.404045 & 0.647813 & 5.747566 & 0.0232745352011759 & Average \\ 
0.388249 & 0.043881 & 1.288025 & 0.550883 & 12.586804 & 0.0015680583234975 & Top ten percent \\ 
