Name & AUCEC & AUCEC20 &  AUHDC & AUHDC20 & Max. HD & Max. HD Index \\ 
0.237111 & 0.030944 & 0.928314 & 0.401705 & 4.031533 & 0.0273882594467254 & Average \\ 
0.236086 & 0.029964 & 0.905218 & 0.378722 & 3.690982 & 0.0299152510679132 & Bugspots \\ 
0.236086 & 0.029964 & 0.905218 & 0.378722 & 3.690982 & 0.0299152510679132 & Bugspots with tracking \\ 
0.231045 & 0.024861 & 0.838120 & 0.311036 & 3.431457 & 0.0054641518980106 & Top ten percent \\ 
