Name & AUCEC & AUCEC20 &  AUHDC & AUHDC20 & Max. HD & Max. HD Index \\ 
0.858929 & 0.136885 & 3.158063 & 1.752767 & 22.726927 & 0.0192502924534626 & Top ten percent \\ 
0.860587 & 0.135882 & 3.352709 & 1.931352 & 29.756655 & 0.0126022228274950 & Average \\ 
0.852406 & 0.126566 & 3.252341 & 1.822232 & 29.355023 & 0.0127746450548037 & Bugspots \\ 
0.852415 & 0.126463 & 3.252421 & 1.821731 & 29.355023 & 0.0127746450548037 & Bugspots with tracking \\ 
