Name & AUCEC & AUCEC20 &  AUHDC & AUHDC20 & Max. HD & Max. HD Index \\ 
0.478865 & 0.025663 & 1.079243 & 0.308551 & 3.660200 & 0.0066636377404210 & Bugspots \\ 
0.478354 & 0.025606 & 1.078702 & 0.308746 & 3.660200 & 0.0066636377404210 & Bugspots with tracking \\ 
0.479799 & 0.018916 & 0.966941 & 0.197248 & 1.684290 & 0.0530970770861730 & Top ten percent \\ 
0.474362 & 0.012803 & 0.882972 & 0.120463 & 1.151994 & 0.0070573981523550 & Average \\ 
