Name & AUCEC & AUCEC20 &  AUHDC & AUHDC20 & Max. HD & Max. HD Index \\ 
0.510296 & 0.060131 & 1.879700 & 0.999770 & 120.703510 & 0.0004970857951166 & Bugspots \\ 
0.510296 & 0.060131 & 1.879700 & 0.999770 & 120.703510 & 0.0004970857951166 & Bugspots with tracking \\ 
0.499703 & 0.055760 & 1.567828 & 0.712078 & 9.251784 & 0.0064852356060558 & Average \\ 
0.476106 & 0.044532 & 1.386196 & 0.570469 & 7.570258 & 0.0281804558056048 & Top ten percent \\ 
