Name & AUCEC & AUCEC20 &  AUHDC & AUHDC20 & Max. HD & Max. HD Index \\ 
0.485856 & 0.019438 & 1.047959 & 0.222095 & 1.739896 & 0.0452424867093414 & Average \\ 
0.481142 & 0.017576 & 0.982985 & 0.174063 & 1.218778 & 0.2487794293153955 & Bugspots with tracking \\ 
0.473804 & 0.017523 & 0.963621 & 0.166526 & 1.426817 & 0.0081733029546852 & Top ten percent \\ 
0.446551 & 0.017479 & 0.911455 & 0.170789 & 1.218778 & 0.2487794293153955 & Bugspots \\ 
