Name & AUCEC & AUCEC20 &  AUHDC & AUHDC20 & Max. HD & Max. HD Index \\ 
0.419226 & 0.039555 & 1.299283 & 0.439859 & 5.251876 & 0.0010204081632653 & Average \\ 
0.340206 & 0.032809 & 1.191785 & 0.424933 & 5.326902 & 0.0010060362173038 & Top ten percent \\ 
0.382741 & 0.032043 & 1.125631 & 0.356693 & 7.609861 & 0.0007042253521127 & Bugspots \\ 
0.383977 & 0.032038 & 1.126196 & 0.356554 & 7.609861 & 0.0007042253521127 & Bugspots with tracking \\ 
