Name & AUCEC & AUCEC20 &  AUHDC & AUHDC20 & Max. HD & Max. HD Index \\ 
0.428787 & 0.062927 & 1.601664 & 0.748139 & 16.237955 & 0.0001458187256064 & Average \\ 
0.428958 & 0.061081 & 1.594541 & 0.731342 & 8.375460 & 0.0039578925160866 & Bugspots \\ 
0.428915 & 0.061038 & 1.594231 & 0.731032 & 8.375460 & 0.0039578925160866 & Bugspots with tracking \\ 
0.419648 & 0.055168 & 1.494782 & 0.646691 & 5.249173 & 0.0464612587568798 & Top ten percent \\ 
