Name & AUCEC & AUCEC20 &  AUHDC & AUHDC20 & Max. HD & Max. HD Index \\ 
0.525163 & 0.030371 & 1.107073 & 0.254453 & 1.987661 & 0.1161008729388943 & Top ten percent \\ 
0.522272 & 0.026926 & 1.157671 & 0.290471 & 2.344070 & 0.0328160362107986 & Bugspots \\ 
0.524014 & 0.026926 & 1.159605 & 0.290471 & 2.344070 & 0.0328160362107986 & Bugspots with tracking \\ 
0.524620 & 0.025856 & 1.069694 & 0.194642 & 1.737933 & 0.1770449401875202 & Average \\ 
