Name & AUCEC & AUCEC20 &  AUHDC & AUHDC20 & Max. HD & Max. HD Index \\ 
0.843129 & 0.110793 & 2.784129 & 1.375188 & 36.929067 & 0.0029433630675568 & Top ten percent \\ 
0.822851 & 0.087406 & 2.544253 & 1.122167 & 43.646270 & 0.0024903766602948 & Average \\ 
0.826677 & 0.081237 & 2.629390 & 1.181055 & 84.677923 & 0.0015403635006202 & Bugspots with tracking \\ 
0.826757 & 0.081237 & 2.629585 & 1.181055 & 84.677923 & 0.0015403635006202 & Bugspots \\ 
