Name & AUCEC & AUCEC20 &  AUHDC & AUHDC20 & Max. HD & Max. HD Index \\ 
0.415413 & 0.061697 & 1.949586 & 1.200918 & 145.501211 & 0.0004659522066165 & Average \\ 
0.417089 & 0.061627 & 1.847638 & 1.090922 & 47.918757 & 0.0020043340951282 & Bugspots \\ 
0.417089 & 0.061627 & 1.847638 & 1.090922 & 47.918757 & 0.0020043340951282 & Bugspots with tracking \\ 
0.392782 & 0.045151 & 1.394585 & 0.669585 & 18.720944 & 0.0024142875104734 & Top ten percent \\ 
