Name & AUCEC & AUCEC20 &  AUHDC & AUHDC20 & Max. HD & Max. HD Index \\ 
0.577005 & 0.062722 & 1.939081 & 0.977776 & 95.108846 & 0.0005075854067619 & Bugspots with tracking \\ 
0.576500 & 0.062424 & 1.937477 & 0.976282 & 95.108846 & 0.0005075854067619 & Bugspots \\ 
0.571029 & 0.061421 & 1.820308 & 0.870828 & 29.733057 & 0.0016236427607602 & Average \\ 
0.559726 & 0.053271 & 1.617160 & 0.681447 & 13.979785 & 0.0034532622083223 & Top ten percent \\ 
