Name & AUCEC & AUCEC20 &  AUHDC & AUHDC20 & Max. HD & Max. HD Index \\ 
0.863049 & 0.135959 & 3.369814 & 1.910610 & 27.401318 & 0.0205282099070007 & Top ten percent \\ 
0.857055 & 0.131618 & 3.382979 & 1.928519 & 33.974160 & 0.0091981671909792 & Bugspots \\ 
0.857057 & 0.131614 & 3.383003 & 1.928516 & 33.974160 & 0.0091981671909792 & Bugspots with tracking \\ 
0.861090 & 0.130387 & 3.411956 & 1.931802 & 29.756655 & 0.0126022228274950 & Average \\ 
