Name & AUCEC & AUCEC20 &  AUHDC & AUHDC20 & Max. HD & Max. HD Index \\ 
0.847048 & 0.109901 & 2.741653 & 1.315446 & 46.628592 & 0.0007148689599076 & Top ten percent \\ 
0.864535 & 0.106299 & 4.164175 & 2.670142 & 31800.700000 & 0.0000010481949559 & Average \\ 
0.875708 & 0.106265 & 3.397460 & 1.870328 & 259.597551 & 0.0005136155283794 & Bugspots \\ 
0.875849 & 0.106265 & 3.397910 & 1.870328 & 259.597551 & 0.0005136155283794 & Bugspots with tracking \\ 
