Name & AUCEC & AUCEC20 &  AUHDC & AUHDC20 & Max. HD & Max. HD Index \\ 
0.381536 & 0.052634 & 1.343460 & 0.618795 & 5.227333 & 0.0045208221662854 & Bugspots \\ 
0.381545 & 0.052632 & 1.343569 & 0.618850 & 5.227333 & 0.0045208221662854 & Bugspots with tracking \\ 
0.382828 & 0.051093 & 1.359605 & 0.621833 & 7.691886 & 0.0001617003969374 & Average \\ 
0.375005 & 0.047367 & 1.260794 & 0.541961 & 4.272992 & 0.0512300185060550 & Top ten percent \\ 
