Name & AUCEC & AUCEC20 &  AUHDC & AUHDC20 & Max. HD & Max. HD Index \\ 
0.969614 & 0.165755 & 3.925107 & 2.291313 & 27.772144 & 0.0261871292774975 & Average \\ 
0.968570 & 0.161252 & 4.137777 & 2.486189 & 462.765653 & 0.0001964473599775 & Top ten percent \\ 
0.959272 & 0.157164 & 3.805080 & 2.180173 & 34.957893 & 0.0078015936148857 & Bugspots \\ 
0.959286 & 0.157040 & 3.805197 & 2.179592 & 34.957893 & 0.0078015936148857 & Bugspots with tracking \\ 
