Name & AUCEC & AUCEC20 &  AUHDC & AUHDC20 & Max. HD & Max. HD Index \\ 
0.339695 & 0.017231 & 0.755540 & 0.203435 & 3.999676 & 0.0032283819904884 & Average \\ 
0.345870 & 0.016037 & 0.719145 & 0.152903 & 1.015791 & 0.0225986739334190 & Bugspots with tracking \\ 
0.344888 & 0.015884 & 0.717138 & 0.152135 & 1.015791 & 0.0225986739334190 & Bugspots \\ 
0.335708 & 0.014697 & 0.692758 & 0.151378 & 1.072240 & 0.0073593223869198 & Top ten percent \\ 
