Name & AUCEC & AUCEC20 &  AUHDC & AUHDC20 & Max. HD & Max. HD Index \\ 
0.329816 & 0.044505 & 1.139343 & 0.524013 & 5.781118 & 0.0025028817275614 & Average \\ 
0.329133 & 0.043393 & 1.144715 & 0.527009 & 9.118321 & 0.0003526344567448 & Bugspots with tracking \\ 
0.329132 & 0.043393 & 1.144709 & 0.527004 & 9.118321 & 0.0003526344567448 & Bugspots \\ 
0.319282 & 0.038499 & 1.034032 & 0.436995 & 3.221343 & 0.0239559795161136 & Top ten percent \\ 
