Name & AUCEC & AUCEC20 &  AUHDC & AUHDC20 & Max. HD & Max. HD Index \\ 
0.479294 & 0.027222 & 1.071808 & 0.306161 & 3.660200 & 0.0066636377404210 & Bugspots \\ 
0.480610 & 0.027136 & 1.069618 & 0.302783 & 3.660200 & 0.0066636377404210 & Bugspots with tracking \\ 
0.471262 & 0.019520 & 0.965380 & 0.212859 & 1.717854 & 0.0378615780705740 & Average \\ 
0.472794 & 0.017987 & 0.970078 & 0.202609 & 1.490158 & 0.0436468271997577 & Top ten percent \\ 
