Name & AUCEC & AUCEC20 &  AUHDC & AUHDC20 & Max. HD & Max. HD Index \\ 
0.468146 & 0.018519 & 0.928460 & 0.175903 & 1.454101 & 0.0543951676998887 & Bugspots with tracking \\ 
0.459331 & 0.018518 & 0.914263 & 0.175910 & 1.454101 & 0.0543951676998887 & Bugspots \\ 
0.454210 & 0.018248 & 0.938336 & 0.209676 & 2.176064 & 0.0077889047846129 & Top ten percent \\ 
0.451729 & 0.008257 & 0.828600 & 0.088021 & 1.269370 & 0.0044508027340645 & Average \\ 
