Name & AUCEC & AUCEC20 &  AUHDC & AUHDC20 & Max. HD & Max. HD Index \\ 
0.458957 & 0.061886 & 1.652704 & 0.751667 & 16.237955 & 0.0001458187256064 & Average \\ 
0.459776 & 0.061810 & 1.644928 & 0.740058 & 8.375460 & 0.0039578925160866 & Bugspots with tracking \\ 
0.459776 & 0.061809 & 1.644927 & 0.740057 & 8.375460 & 0.0039578925160866 & Bugspots \\ 
0.449253 & 0.056205 & 1.530356 & 0.648338 & 5.236993 & 0.0461171886149703 & Top ten percent \\ 
