Name & AUCEC & AUCEC20 &  AUHDC & AUHDC20 & Max. HD & Max. HD Index \\ 
0.854495 & 0.133081 & 3.196778 & 1.770055 & 25.169724 & 0.0198651363807218 & Top ten percent \\ 
0.854169 & 0.132220 & 3.351566 & 1.918515 & 29.032961 & 0.0129163540630420 & Average \\ 
0.849071 & 0.129940 & 3.298200 & 1.875382 & 31.299469 & 0.0099841949620121 & Bugspots \\ 
0.849072 & 0.129936 & 3.298224 & 1.875378 & 31.299469 & 0.0099841949620121 & Bugspots with tracking \\ 
