Name & AUCEC & AUCEC20 &  AUHDC & AUHDC20 & Max. HD & Max. HD Index \\ 
0.568757 & 0.072590 & 2.283811 & 1.321698 & 145.501211 & 0.0004659522066165 & Bugspots with tracking \\ 
0.568712 & 0.072563 & 2.283727 & 1.321571 & 145.501211 & 0.0004659522066165 & Bugspots \\ 
0.571834 & 0.071134 & 2.103064 & 1.123923 & 49.973547 & 0.0013566499621216 & Average \\ 
0.553036 & 0.065113 & 2.140398 & 1.203046 & 145.501211 & 0.0004659522066165 & Top ten percent \\ 
