Name & AUCEC & AUCEC20 &  AUHDC & AUHDC20 & Max. HD & Max. HD Index \\ 
0.473429 & 0.024458 & 1.115246 & 0.340892 & 5.673347 & 0.0083367543499542 & Bugspots \\ 
0.480064 & 0.024455 & 1.125055 & 0.340871 & 5.673347 & 0.0083367543499542 & Bugspots with tracking \\ 
0.461826 & 0.021888 & 1.009900 & 0.277372 & 5.673347 & 0.0083367543499542 & Top ten percent \\ 
0.469782 & 0.019797 & 1.035158 & 0.272158 & 4.566352 & 0.0103577857075189 & Average \\ 
