Name & AUCEC & AUCEC20 &  AUHDC & AUHDC20 & Max. HD & Max. HD Index \\ 
0.323080 & 0.020405 & 0.785334 & 0.246261 & 2.119686 & 0.0141036743783249 & Top ten percent \\ 
0.299199 & 0.018637 & 0.693069 & 0.200252 & 2.491178 & 0.0030001237164419 & Bugspots \\ 
0.300330 & 0.017933 & 0.680203 & 0.182823 & 1.972606 & 0.0015155264134603 & Bugspots with tracking \\ 
0.298491 & 0.012047 & 0.623200 & 0.127336 & 1.597648 & 0.0037424223679327 & Average \\ 
