Name & AUCEC & AUCEC20 &  AUHDC & AUHDC20 & Max. HD & Max. HD Index \\ 
0.549843 & 0.065296 & 1.783569 & 0.853501 & 12.356488 & 0.0015366293224287 & Bugspots \\ 
0.549999 & 0.065243 & 1.784339 & 0.853277 & 12.356488 & 0.0015366293224287 & Bugspots with tracking \\ 
0.539481 & 0.062506 & 1.895729 & 0.988700 & 73.324214 & 0.0008631683230927 & Average \\ 
0.529824 & 0.057956 & 1.672678 & 0.784541 & 9.726982 & 0.0136641969583592 & Top ten percent \\ 
