Name & AUCEC & AUCEC20 &  AUHDC & AUHDC20 & Max. HD & Max. HD Index \\ 
0.394550 & 0.015754 & 0.802323 & 0.182397 & 1.933072 & 0.0258655614073358 & Bugspots \\ 
0.400136 & 0.015754 & 0.808817 & 0.182397 & 1.933072 & 0.0258655614073358 & Bugspots with tracking \\ 
0.376740 & 0.013611 & 0.678246 & 0.098907 & 1.093446 & 0.1371809654398704 & Average \\ 
0.366776 & 0.012669 & 0.682054 & 0.095351 & 1.006556 & 0.0993486864657671 & Top ten percent \\ 
