Name & AUCEC & AUCEC20 &  AUHDC & AUHDC20 & Max. HD & Max. HD Index \\ 
0.142185 & 0.021026 & 0.619411 & 0.327001 & 7.075884 & 0.0017721016301810 & Average \\ 
0.141982 & 0.020855 & 0.603060 & 0.310785 & 6.228922 & 0.0002516323313080 & Bugspots \\ 
0.141982 & 0.020855 & 0.603060 & 0.310785 & 6.228922 & 0.0002516323313080 & Bugspots with tracking \\ 
0.139779 & 0.018601 & 0.576412 & 0.283879 & 6.438330 & 0.0014606875571320 & Top ten percent \\ 
