Name & AUCEC & AUCEC20 &  AUHDC & AUHDC20 & Max. HD & Max. HD Index \\ 
0.144100 & 0.013279 & 0.860883 & 0.272372 & 4.956288 & 0.0055144470405222 & Average \\ 
0.143355 & 0.012534 & 0.844672 & 0.256160 & 4.674301 & 0.0041273775395319 & Bugspots \\ 
0.143355 & 0.012534 & 0.844672 & 0.256160 & 4.674301 & 0.0041273775395319 & Bugspots with tracking \\ 
0.142860 & 0.012039 & 0.814474 & 0.225962 & 3.274243 & 0.0112934461194666 & Top ten percent \\ 
