Name & AUCEC & AUCEC20 &  AUHDC & AUHDC20 & Max. HD & Max. HD Index \\ 
0.149178 & 0.021970 & 0.748709 & 0.324983 & 6.394796 & 0.0006588924943497 & Average \\ 
0.148996 & 0.021788 & 0.739208 & 0.315483 & 3.736765 & 0.0338272513750265 & Bugspots \\ 
0.148996 & 0.021788 & 0.739208 & 0.315483 & 3.736765 & 0.0338272513750265 & Bugspots with tracking \\ 
0.146943 & 0.019735 & 0.694798 & 0.271072 & 3.992785 & 0.0007035162270357 & Top ten percent \\ 
