Name & AUCEC & AUCEC20 &  AUHDC & AUHDC20 & Max. HD & Max. HD Index \\ 
0.470837 & 0.025697 & 1.035874 & 0.263628 & 2.449677 & 0.0232318643041042 & Bugspots \\ 
0.471111 & 0.025429 & 1.036186 & 0.262281 & 2.449677 & 0.0232318643041042 & Bugspots with tracking \\ 
0.461069 & 0.023213 & 0.990569 & 0.230614 & 2.556330 & 0.0063607451158564 & Top ten percent \\ 
0.452275 & 0.020113 & 0.962176 & 0.217815 & 1.722447 & 0.0566409207935787 & Average \\ 
