Name & AUCEC & AUCEC20 &  AUHDC & AUHDC20 & Max. HD & Max. HD Index \\ 
0.624158 & 0.078978 & 2.429389 & 1.381030 & 145.501211 & 0.0004659522066165 & Bugspots \\ 
0.624504 & 0.078978 & 2.430520 & 1.381030 & 145.501211 & 0.0004659522066165 & Bugspots with tracking \\ 
0.621290 & 0.076234 & 2.125324 & 1.078499 & 23.291964 & 0.0050937768437602 & Average \\ 
0.599035 & 0.071913 & 2.243560 & 1.251688 & 145.501211 & 0.0004659522066165 & Top ten percent \\ 
