Name & AUCEC & AUCEC20 &  AUHDC & AUHDC20 & Max. HD & Max. HD Index \\ 
0.845051 & 0.130772 & 3.315354 & 1.907271 & 29.032961 & 0.0129163540630420 & Average \\ 
0.843548 & 0.129301 & 3.155489 & 1.751010 & 26.178827 & 0.0167119784677114 & Top ten percent \\ 
0.841999 & 0.127701 & 3.303506 & 1.895797 & 33.501859 & 0.0093278405668680 & Bugspots \\ 
0.842000 & 0.127697 & 3.303530 & 1.895793 & 33.501859 & 0.0093278405668680 & Bugspots with tracking \\ 
