Name & AUCEC & AUCEC20 &  AUHDC & AUHDC20 & Max. HD & Max. HD Index \\ 
0.768723 & 0.137571 & 3.415341 & 2.092590 & 63.665396 & 0.0009519466522806 & Average \\ 
0.768137 & 0.137534 & 3.490618 & 2.170623 & 63.665396 & 0.0009519466522806 & Bugspots \\ 
0.768138 & 0.137529 & 3.490636 & 2.170612 & 63.665396 & 0.0009519466522806 & Bugspots with tracking \\ 
0.766050 & 0.131601 & 3.467056 & 2.127550 & 63.665396 & 0.0009519466522806 & Top ten percent \\ 
