Name & AUCEC & AUCEC20 &  AUHDC & AUHDC20 & Max. HD & Max. HD Index \\ 
0.418681 & 0.015732 & 0.821310 & 0.135825 & 1.055991 & 0.1201748465271751 & Bugspots \\ 
0.421048 & 0.015080 & 0.827670 & 0.132580 & 1.055991 & 0.1201748465271751 & Bugspots with tracking \\ 
0.412365 & 0.011875 & 0.804685 & 0.124125 & 1.191955 & 0.0425867000932086 & Average \\ 
0.418855 & 0.011304 & 0.795327 & 0.105045 & 1.057892 & 0.4942307074213351 & Top ten percent \\ 
