Name & AUCEC & AUCEC20 &  AUHDC & AUHDC20 & Max. HD & Max. HD Index \\ 
0.550253 & 0.074019 & 1.821108 & 0.848381 & 7.308756 & 0.0038682715707939 & Average \\ 
0.550047 & 0.072241 & 1.807068 & 0.828152 & 7.925636 & 0.0076628529689894 & Bugspots \\ 
0.550083 & 0.072230 & 1.807416 & 0.828273 & 7.925636 & 0.0076628529689894 & Bugspots with tracking \\ 
0.525813 & 0.063518 & 1.684327 & 0.758017 & 12.100244 & 0.0002596114030455 & Top ten percent \\ 
