Name & AUCEC & AUCEC20 &  AUHDC & AUHDC20 & Max. HD & Max. HD Index \\ 
0.481995 & 0.027627 & 1.075439 & 0.307772 & 3.660200 & 0.0066636377404210 & Bugspots with tracking \\ 
0.478435 & 0.027277 & 1.070750 & 0.306004 & 3.660200 & 0.0066636377404210 & Bugspots \\ 
0.468248 & 0.019943 & 0.958331 & 0.211396 & 1.844774 & 0.0352567014993185 & Average \\ 
0.458259 & 0.018704 & 0.975374 & 0.222206 & 2.556330 & 0.0063607451158564 & Top ten percent \\ 
