Name & AUCEC & AUCEC20 &  AUHDC & AUHDC20 & Max. HD & Max. HD Index \\ 
0.581742 & 0.071702 & 1.790216 & 0.741778 & 5.087877 & 0.0273104419483321 & Bugspots with tracking \\ 
0.581727 & 0.071641 & 1.790019 & 0.741371 & 5.087877 & 0.0273104419483321 & Bugspots \\ 
0.580535 & 0.070791 & 1.794003 & 0.744675 & 4.675041 & 0.0370308444692959 & Average \\ 
0.552903 & 0.061635 & 1.674887 & 0.690566 & 65.039239 & 0.0000350235388636 & Top ten percent \\ 
