Name & AUCEC & AUCEC20 &  AUHDC & AUHDC20 & Max. HD & Max. HD Index \\ 
0.393659 & 0.018872 & 0.765185 & 0.154839 & 1.265672 & 0.1185141325687930 & Average \\ 
0.417150 & 0.018664 & 0.788071 & 0.154016 & 1.376816 & 0.1089469911807785 & Top ten percent \\ 
0.416765 & 0.015239 & 0.805204 & 0.153522 & 1.302842 & 0.0767552743930942 & Bugspots \\ 
0.422591 & 0.015239 & 0.812581 & 0.153522 & 1.302842 & 0.0767552743930942 & Bugspots with tracking \\ 
