Name & AUCEC & AUCEC20 &  AUHDC & AUHDC20 & Max. HD & Max. HD Index \\ 
0.432038 & 0.022403 & 0.961285 & 0.219720 & 1.560604 & 0.1151397296364834 & Top ten percent \\ 
0.428648 & 0.020223 & 0.994650 & 0.254447 & 3.201619 & 0.0122008593921526 & Bugspots \\ 
0.429565 & 0.020223 & 0.996782 & 0.254447 & 3.201619 & 0.0122008593921526 & Bugspots with tracking \\ 
0.419966 & 0.019756 & 0.929462 & 0.220507 & 1.831514 & 0.0127967882570649 & Average \\ 
