Name & AUCEC & AUCEC20 &  AUHDC & AUHDC20 & Max. HD & Max. HD Index \\ 
0.747656 & 0.074796 & 2.417768 & 0.960030 & 19.639995 & 0.0055344033739099 & Top ten percent \\ 
0.747904 & 0.073001 & 2.247516 & 0.779192 & 9.601101 & 0.0135853978992755 & Bugspots \\ 
0.747904 & 0.073001 & 2.247516 & 0.779192 & 9.601101 & 0.0135853978992755 & Bugspots with tracking \\ 
0.746056 & 0.070680 & 2.650786 & 1.178433 & 210.263471 & 0.0005169497656949 & Average \\ 
