Name & AUCEC & AUCEC20 &  AUHDC & AUHDC20 & Max. HD & Max. HD Index \\ 
0.813911 & 0.125069 & 3.958876 & 2.464983 & 225.870754 & 0.0005208600793761 & Bugspots \\ 
0.813911 & 0.125069 & 3.958876 & 2.464983 & 225.870754 & 0.0005208600793761 & Bugspots with tracking \\ 
0.793897 & 0.108240 & 3.626224 & 2.145989 & 225.870754 & 0.0005208600793761 & Average \\ 
0.791056 & 0.102767 & 3.427550 & 1.938536 & 59.753956 & 0.0059065742602896 & Top ten percent \\ 
