Name & AUCEC & AUCEC20 &  AUHDC & AUHDC20 & Max. HD & Max. HD Index \\ 
0.472064 & 0.020324 & 1.007822 & 0.220152 & 1.602005 & 0.0509565657661567 & Average \\ 
0.482957 & 0.018510 & 0.991440 & 0.181574 & 1.218778 & 0.2487794293153955 & Bugspots with tracking \\ 
0.452761 & 0.018215 & 0.927591 & 0.174479 & 1.218778 & 0.2487794293153955 & Bugspots \\ 
0.467040 & 0.012705 & 0.944162 & 0.137482 & 1.426817 & 0.0081733029546852 & Top ten percent \\ 
