Name & AUCEC & AUCEC20 &  AUHDC & AUHDC20 & Max. HD & Max. HD Index \\ 
0.480196 & 0.021186 & 0.979904 & 0.201195 & 1.424852 & 0.0459139474444124 & Bugspots with tracking \\ 
0.480163 & 0.019782 & 0.983613 & 0.194382 & 1.424852 & 0.0459139474444124 & Bugspots \\ 
0.452742 & 0.014770 & 0.858027 & 0.118199 & 1.020448 & 0.6090416145281868 & Top ten percent \\ 
0.483838 & 0.011105 & 0.908581 & 0.095465 & 1.122218 & 0.4330541919337761 & Average \\ 
