Name & AUCEC & AUCEC20 &  AUHDC & AUHDC20 & Max. HD & Max. HD Index \\ 
0.505730 & 0.025342 & 1.099993 & 0.267627 & 2.205436 & 0.0291904514789829 & Bugspots with tracking \\ 
0.486313 & 0.024313 & 1.002115 & 0.208371 & 1.422862 & 0.1538336792942397 & Top ten percent \\ 
0.507966 & 0.023493 & 1.111699 & 0.260560 & 2.205436 & 0.0291904514789829 & Bugspots \\ 
0.505704 & 0.020526 & 1.016703 & 0.181692 & 1.282555 & 0.0769654903995848 & Average \\ 
