Name & AUCEC & AUCEC20 &  AUHDC & AUHDC20 & Max. HD & Max. HD Index \\ 
0.822635 & 0.085994 & 5.083561 & 1.774308 & 80.297079 & 0.0006554606896076 & Top ten percent \\ 
0.820999 & 0.084359 & 4.926167 & 1.616914 & 24.483948 & 0.0150474528119748 & Bugspots with tracking \\ 
0.820998 & 0.084358 & 4.926145 & 1.616892 & 24.483948 & 0.0150474528119748 & Bugspots \\ 
0.820922 & 0.084282 & 4.865899 & 1.556647 & 23.272543 & 0.0203537793088672 & Average \\ 
