Name & AUCEC & AUCEC20 &  AUHDC & AUHDC20 & Max. HD & Max. HD Index \\ 
0.844163 & 0.133085 & 3.338460 & 1.943689 & 29.756655 & 0.0126022228274950 & Average \\ 
0.842694 & 0.131240 & 3.147198 & 1.754162 & 25.700985 & 0.0170226939055537 & Top ten percent \\ 
0.843556 & 0.129593 & 3.381517 & 1.980109 & 36.585247 & 0.0085416944726447 & Bugspots \\ 
0.843558 & 0.129589 & 3.381541 & 1.980105 & 36.585247 & 0.0085416944726447 & Bugspots with tracking \\ 
