Name & AUCEC & AUCEC20 &  AUHDC & AUHDC20 & Max. HD & Max. HD Index \\ 
0.185548 & 0.014889 & 1.135788 & 0.307028 & 5.817232 & 0.0047038151727432 & Bugspots \\ 
0.185548 & 0.014889 & 1.135788 & 0.307028 & 5.817232 & 0.0047038151727432 & Bugspots with tracking \\ 
0.185330 & 0.014672 & 1.126279 & 0.297519 & 4.265219 & 0.0148721162786320 & Average \\ 
0.185107 & 0.014449 & 1.130367 & 0.301607 & 5.227333 & 0.0045208221662854 & Top ten percent \\ 
