Name & AUCEC & AUCEC20 &  AUHDC & AUHDC20 & Max. HD & Max. HD Index \\ 
0.462410 & 0.062838 & 1.652590 & 0.755889 & 16.237955 & 0.0001458187256064 & Average \\ 
0.463256 & 0.062712 & 1.647442 & 0.746600 & 8.375460 & 0.0039578925160866 & Bugspots with tracking \\ 
0.463256 & 0.062712 & 1.647441 & 0.746599 & 8.375460 & 0.0039578925160866 & Bugspots \\ 
0.452294 & 0.056355 & 1.530770 & 0.650798 & 5.235756 & 0.0462788302235680 & Top ten percent \\ 
