Name & AUCEC & AUCEC20 &  AUHDC & AUHDC20 & Max. HD & Max. HD Index \\ 
0.640234 & 0.008615 & 12.108785 & 0.624729 & 53.900456 & 0.0009276359313187 & Average \\ 
0.639976 & 0.008356 & 12.108009 & 0.623952 & 53.900456 & 0.0009276359313187 & Top ten percent \\ 
0.639818 & 0.008198 & 12.112723 & 0.628666 & 73.365839 & 0.0006815160981722 & Bugspots \\ 
0.639818 & 0.008198 & 12.112723 & 0.628666 & 73.365839 & 0.0006815160981722 & Bugspots with tracking \\ 
