Name & AUCEC & AUCEC20 &  AUHDC & AUHDC20 & Max. HD & Max. HD Index \\ 
0.579269 & 0.079403 & 2.266386 & 1.206453 & 38.656589 & 0.0006777854497122 & Average \\ 
0.580845 & 0.077590 & 2.227937 & 1.153277 & 20.371499 & 0.0085743560245187 & Bugspots with tracking \\ 
0.580922 & 0.077360 & 2.228331 & 1.152157 & 20.371499 & 0.0085743560245187 & Bugspots \\ 
0.569956 & 0.073273 & 2.285294 & 1.237445 & 38.948640 & 0.0034756330315197 & Top ten percent \\ 
