Name & AUCEC & AUCEC20 &  AUHDC & AUHDC20 & Max. HD & Max. HD Index \\ 
0.528967 & 0.039677 & 1.294282 & 0.417431 & 3.578896 & 0.0135201172829451 & Top ten percent \\ 
0.557466 & 0.038832 & 1.389242 & 0.441019 & 4.331956 & 0.0260628766900147 & Bugspots \\ 
0.556208 & 0.038520 & 1.383853 & 0.439422 & 4.331956 & 0.0260628766900147 & Bugspots with tracking \\ 
0.540294 & 0.027640 & 1.231081 & 0.299187 & 3.257110 & 0.0049519465711028 & Average \\ 
