Name & AUCEC & AUCEC20 &  AUHDC & AUHDC20 & Max. HD & Max. HD Index \\ 
0.544010 & 0.065494 & 1.660656 & 0.678235 & 4.941883 & 0.0005899475629379 & Average \\ 
0.547678 & 0.064731 & 1.654978 & 0.656753 & 4.115689 & 0.1257365925461488 & Bugspots \\ 
0.547714 & 0.064716 & 1.655284 & 0.656804 & 4.120023 & 0.1256043365278877 & Bugspots with tracking \\ 
0.512254 & 0.054049 & 1.498035 & 0.587125 & 10.879294 & 0.0004019725740205 & Top ten percent \\ 
