Name & AUCEC & AUCEC20 &  AUHDC & AUHDC20 & Max. HD & Max. HD Index \\ 
0.770966 & 0.128841 & 3.886869 & 2.327350 & 192.008853 & 0.0005208093188191 & Average \\ 
0.767931 & 0.127959 & 3.498255 & 1.949866 & 64.218304 & 0.0015571884260870 & Bugspots \\ 
0.767931 & 0.127959 & 3.498255 & 1.949866 & 64.218304 & 0.0015571884260870 & Bugspots with tracking \\ 
0.767752 & 0.127374 & 3.584592 & 2.034178 & 64.218304 & 0.0015571884260870 & Top ten percent \\ 
