Name & AUCEC & AUCEC20 &  AUHDC & AUHDC20 & Max. HD & Max. HD Index \\ 
0.554407 & 0.073737 & 2.224989 & 1.039504 & 20.514940 & 0.0035704909980861 & Average \\ 
0.550972 & 0.072630 & 2.020349 & 0.846389 & 7.819911 & 0.0105886811307014 & Bugspots \\ 
0.550972 & 0.072630 & 2.020349 & 0.846389 & 7.819911 & 0.0105886811307014 & Bugspots with tracking \\ 
0.547391 & 0.068816 & 2.118647 & 0.943527 & 14.628333 & 0.0052250055044628 & Top ten percent \\ 
