Name & AUCEC & AUCEC20 &  AUHDC & AUHDC20 & Max. HD & Max. HD Index \\ 
0.633804 & 0.071479 & 2.137395 & 1.076220 & 87.069784 & 0.0005066929629474 & Bugspots with tracking \\ 
0.631560 & 0.071391 & 2.132427 & 1.075794 & 87.069784 & 0.0005066929629474 & Bugspots \\ 
0.627799 & 0.070913 & 2.122085 & 1.074135 & 85.651132 & 0.0005150853929755 & Average \\ 
0.613751 & 0.067279 & 1.856954 & 0.840158 & 16.050189 & 0.0045812177415971 & Top ten percent \\ 
