Name & AUCEC & AUCEC20 &  AUHDC & AUHDC20 & Max. HD & Max. HD Index \\ 
0.418734 & 0.037764 & 1.259806 & 0.488221 & 7.012702 & 0.0013484481662277 & Bugspots \\ 
0.418734 & 0.037764 & 1.259806 & 0.488221 & 7.012702 & 0.0013484481662277 & Bugspots with tracking \\ 
0.413431 & 0.033411 & 1.262320 & 0.496556 & 18.393813 & 0.0003855752260461 & Average \\ 
0.403841 & 0.024288 & 1.017391 & 0.254281 & 7.733519 & 0.0003056908560090 & Top ten percent \\ 
