Name & AUCEC & AUCEC20 &  AUHDC & AUHDC20 & Max. HD & Max. HD Index \\ 
0.878801 & 0.140721 & 3.386770 & 1.932629 & 25.935790 & 0.0173505411612744 & Average \\ 
0.880953 & 0.138870 & 3.615744 & 2.143172 & 57.240083 & 0.0008735137567078 & Top ten percent \\ 
0.871093 & 0.134259 & 3.313220 & 1.861856 & 27.427229 & 0.0127610412259791 & Bugspots \\ 
0.871105 & 0.134156 & 3.313331 & 1.861377 & 27.427229 & 0.0127610412259791 & Bugspots with tracking \\ 
