Name & AUCEC & AUCEC20 &  AUHDC & AUHDC20 & Max. HD & Max. HD Index \\ 
0.466334 & 0.019128 & 0.931754 & 0.174726 & 1.156333 & 0.0808226649982353 & Bugspots \\ 
0.469588 & 0.019128 & 0.936214 & 0.174726 & 1.156333 & 0.0808226649982353 & Bugspots with tracking \\ 
0.455605 & 0.016538 & 0.902017 & 0.164433 & 1.353533 & 0.0172618474668720 & Top ten percent \\ 
0.463329 & 0.013540 & 0.860267 & 0.106740 & 1.044314 & 0.5056309558186544 & Average \\ 
