Name & AUCEC & AUCEC20 &  AUHDC & AUHDC20 & Max. HD & Max. HD Index \\ 
0.362441 & 0.049083 & 1.273127 & 0.584283 & 5.567816 & 0.0007567569563783 & Average \\ 
0.362581 & 0.049007 & 1.244219 & 0.554832 & 3.981597 & 0.0783097268658260 & Bugspots \\ 
0.362589 & 0.048992 & 1.244278 & 0.554777 & 3.988368 & 0.0781767789174098 & Bugspots with tracking \\ 
0.353205 & 0.041461 & 1.167357 & 0.484864 & 26.380074 & 0.0000532407293426 & Top ten percent \\ 
