Name & AUCEC & AUCEC20 &  AUHDC & AUHDC20 & Max. HD & Max. HD Index \\ 
0.752258 & 0.088077 & 2.576466 & 1.228869 & 36.929067 & 0.0029433630675568 & Top ten percent \\ 
0.739203 & 0.072761 & 2.145512 & 0.795859 & 9.601101 & 0.0135853978992755 & Bugspots \\ 
0.739203 & 0.072761 & 2.145512 & 0.795859 & 9.601101 & 0.0135853978992755 & Bugspots with tracking \\ 
0.734786 & 0.071100 & 2.536871 & 1.197109 & 210.263471 & 0.0005169497656949 & Average \\ 
