Name & AUCEC & AUCEC20 &  AUHDC & AUHDC20 & Max. HD & Max. HD Index \\ 
0.968184 & 0.165596 & 4.175238 & 2.547702 & 462.765653 & 0.0001964473599775 & Top ten percent \\ 
0.970026 & 0.163652 & 3.945710 & 2.298797 & 30.628709 & 0.0267129059558965 & Average \\ 
0.958968 & 0.158087 & 3.806448 & 2.187511 & 34.957893 & 0.0078015936148857 & Bugspots \\ 
0.958982 & 0.157963 & 3.806564 & 2.186934 & 34.957893 & 0.0078015936148857 & Bugspots with tracking \\ 
