Name & AUCEC & AUCEC20 &  AUHDC & AUHDC20 & Max. HD & Max. HD Index \\ 
0.084842 & 0.008033 & 0.537370 & 0.173314 & 13.502227 & 0.0002080389192809 & Average \\ 
0.084839 & 0.008030 & 0.540746 & 0.176690 & 3.493336 & 0.0048245948780572 & Bugspots \\ 
0.084839 & 0.008030 & 0.540746 & 0.176690 & 3.493336 & 0.0048245948780572 & Bugspots with tracking \\ 
0.083850 & 0.007041 & 0.508735 & 0.144679 & 3.992785 & 0.0007035162270357 & Top ten percent \\ 
