Name & AUCEC & AUCEC20 &  AUHDC & AUHDC20 & Max. HD & Max. HD Index \\ 
0.437071 & 0.020129 & 0.941997 & 0.198200 & 1.426817 & 0.0081733029546852 & Top ten percent \\ 
0.449345 & 0.017073 & 0.995430 & 0.203865 & 1.634533 & 0.0445915156775523 & Average \\ 
0.445484 & 0.016384 & 0.938948 & 0.165739 & 1.218185 & 0.2441141369209070 & Bugspots with tracking \\ 
0.423508 & 0.016218 & 0.889933 & 0.160765 & 1.218185 & 0.2441141369209070 & Bugspots \\ 
