Name & AUCEC & AUCEC20 &  AUHDC & AUHDC20 & Max. HD & Max. HD Index \\ 
0.524281 & 0.059637 & 1.813829 & 0.847314 & 35.328540 & 0.0011960166351226 & Bugspots \\ 
0.524281 & 0.059637 & 1.813829 & 0.847314 & 35.328540 & 0.0011960166351226 & Bugspots with tracking \\ 
0.521192 & 0.058350 & 1.810901 & 0.851121 & 83.384131 & 0.0005067333638283 & Average \\ 
0.507064 & 0.050290 & 1.675679 & 0.738833 & 35.328540 & 0.0011960166351226 & Top ten percent \\ 
