Name & AUCEC & AUCEC20 &  AUHDC & AUHDC20 & Max. HD & Max. HD Index \\ 
0.318448 & 0.049074 & 1.776586 & 0.909254 & 24.309615 & 0.0062818501099245 & Bugspots \\ 
0.318448 & 0.049074 & 1.776586 & 0.909254 & 24.309615 & 0.0062818501099245 & Bugspots with tracking \\ 
0.315568 & 0.046194 & 1.628434 & 0.761102 & 19.317158 & 0.0015300724170920 & Average \\ 
0.310080 & 0.040706 & 1.500891 & 0.633559 & 19.317158 & 0.0015300724170920 & Top ten percent \\ 
