Name & AUCEC & AUCEC20 &  AUHDC & AUHDC20 & Max. HD & Max. HD Index \\ 
0.856359 & 0.133114 & 3.233179 & 1.790520 & 24.513842 & 0.0178470593706196 & Top ten percent \\ 
0.856473 & 0.130444 & 3.382207 & 1.922575 & 29.756655 & 0.0126022228274950 & Average \\ 
0.854817 & 0.128655 & 3.370067 & 1.913443 & 33.974160 & 0.0091981671909792 & Bugspots \\ 
0.854818 & 0.128651 & 3.370092 & 1.913439 & 33.974160 & 0.0091981671909792 & Bugspots with tracking \\ 
