Name & AUCEC & AUCEC20 &  AUHDC & AUHDC20 & Max. HD & Max. HD Index \\ 
0.774241 & 0.089521 & 2.473413 & 1.165250 & 19.151057 & 0.0010238517596928 & Top ten percent \\ 
0.790782 & 0.083144 & 2.414845 & 1.041501 & 27.814630 & 0.0063445240190797 & Average \\ 
0.781766 & 0.075479 & 2.144634 & 0.774216 & 19.151057 & 0.0010238517596928 & Bugspots \\ 
0.781766 & 0.075479 & 2.144634 & 0.774216 & 19.151057 & 0.0010238517596928 & Bugspots with tracking \\ 
