Name & AUCEC & AUCEC20 &  AUHDC & AUHDC20 & Max. HD & Max. HD Index \\ 
0.277953 & 0.024815 & 0.872179 & 0.253650 & 2.088830 & 0.0077843404513100 & Bugspots \\ 
0.277953 & 0.024815 & 0.872179 & 0.253650 & 2.088830 & 0.0077843404513100 & Bugspots with tracking \\ 
0.273888 & 0.023675 & 0.855396 & 0.250584 & 2.088830 & 0.0077843404513100 & Top ten percent \\ 
0.272723 & 0.018648 & 0.824498 & 0.199423 & 1.712764 & 0.0664546418294715 & Average \\ 
