Name & AUCEC & AUCEC20 &  AUHDC & AUHDC20 & Max. HD & Max. HD Index \\ 
0.822755 & 0.147622 & 3.524091 & 2.150199 & 29.272317 & 0.0147517596651155 & Average \\ 
0.816527 & 0.143782 & 3.267457 & 1.905595 & 27.128758 & 0.0016755114922244 & Top ten percent \\ 
0.810638 & 0.137202 & 3.135034 & 1.769704 & 27.128758 & 0.0016755114922244 & Bugspots \\ 
0.810642 & 0.137194 & 3.135094 & 1.769705 & 27.128758 & 0.0016755114922244 & Bugspots with tracking \\ 
