Name & AUCEC & AUCEC20 &  AUHDC & AUHDC20 & Max. HD & Max. HD Index \\ 
0.885061 & 0.135938 & 3.421477 & 1.953072 & 29.753464 & 0.0126035743236817 & Average \\ 
0.883101 & 0.131537 & 3.206720 & 1.731219 & 22.748153 & 0.0192323310393133 & Top ten percent \\ 
0.883254 & 0.125863 & 3.287063 & 1.796231 & 27.654810 & 0.0135600281984823 & Bugspots \\ 
0.883278 & 0.125713 & 3.287170 & 1.795477 & 27.654810 & 0.0135600281984823 & Bugspots with tracking \\ 
