Name & AUCEC & AUCEC20 &  AUHDC & AUHDC20 & Max. HD & Max. HD Index \\ 
0.863425 & 0.136928 & 3.366810 & 1.944813 & 29.753464 & 0.0126035743236817 & Average \\ 
0.861052 & 0.130929 & 3.125588 & 1.687587 & 22.979018 & 0.0190391080343031 & Top ten percent \\ 
0.852253 & 0.129988 & 3.224894 & 1.813713 & 27.654810 & 0.0135600281984823 & Bugspots \\ 
0.853557 & 0.129885 & 3.227053 & 1.813226 & 27.654810 & 0.0135600281984823 & Bugspots with tracking \\ 
