Name & AUCEC & AUCEC20 &  AUHDC & AUHDC20 & Max. HD & Max. HD Index \\ 
0.320336 & 0.047475 & 1.171026 & 0.563633 & 5.202536 & 0.0262706996728497 & Bugspots \\ 
0.320336 & 0.047475 & 1.171026 & 0.563633 & 5.202536 & 0.0262706996728497 & Bugspots with tracking \\ 
0.320080 & 0.047271 & 1.179044 & 0.571918 & 4.943890 & 0.0345563553104517 & Average \\ 
0.309096 & 0.038204 & 1.061260 & 0.461844 & 4.187036 & 0.0217614951822838 & Top ten percent \\ 
