Name & AUCEC & AUCEC20 &  AUHDC & AUHDC20 & Max. HD & Max. HD Index \\ 
0.771347 & 0.138924 & 3.430010 & 2.136611 & 63.665396 & 0.0009519466522806 & Top ten percent \\ 
0.768121 & 0.137368 & 3.458011 & 2.173025 & 63.665396 & 0.0009519466522806 & Bugspots \\ 
0.768123 & 0.137364 & 3.458035 & 2.173020 & 63.665396 & 0.0009519466522806 & Bugspots with tracking \\ 
0.768406 & 0.134194 & 3.366330 & 2.063810 & 63.665396 & 0.0009519466522806 & Average \\ 
