Name & AUCEC & AUCEC20 &  AUHDC & AUHDC20 & Max. HD & Max. HD Index \\ 
0.356675 & 0.039806 & 1.209122 & 0.465349 & 4.902962 & 0.0041534923828686 & Average \\ 
0.368374 & 0.037798 & 1.147277 & 0.410602 & 3.487892 & 0.0233544121874102 & Bugspots \\ 
0.368374 & 0.037798 & 1.147276 & 0.410602 & 3.487892 & 0.0233544121874102 & Bugspots with tracking \\ 
0.293663 & 0.024190 & 1.067149 & 0.360912 & 7.217094 & 0.0013365909744179 & Top ten percent \\ 
