Name & AUCEC & AUCEC20 &  AUHDC & AUHDC20 & Max. HD & Max. HD Index \\ 
0.462372 & 0.015685 & 0.894291 & 0.142070 & 1.030565 & 0.0985118760646675 & Bugspots with tracking \\ 
0.458090 & 0.015461 & 0.886757 & 0.140550 & 1.030565 & 0.0985118760646675 & Bugspots \\ 
0.463169 & 0.009398 & 0.819768 & 0.068070 & 1.063488 & 0.4248063510429724 & Average \\ 
0.440863 & 0.007972 & 0.799563 & 0.070865 & 0.996201 & 0.5605052550380870 & Top ten percent \\ 
