Name & AUCEC & AUCEC20 &  AUHDC & AUHDC20 & Max. HD & Max. HD Index \\ 
0.827043 & 0.123694 & 3.961600 & 2.311103 & 225.870754 & 0.0005208600793761 & Top ten percent \\ 
0.826109 & 0.121833 & 4.146544 & 2.489808 & 225.870754 & 0.0005208600793761 & Bugspots \\ 
0.826109 & 0.121833 & 4.146544 & 2.489808 & 225.870754 & 0.0005208600793761 & Bugspots with tracking \\ 
0.818160 & 0.114759 & 3.905919 & 2.254320 & 225.870754 & 0.0005208600793761 & Average \\ 
