Name & AUCEC & AUCEC20 &  AUHDC & AUHDC20 & Max. HD & Max. HD Index \\ 
0.522349 & 0.031726 & 1.122779 & 0.263841 & 2.020292 & 0.1142256708697058 & Top ten percent \\ 
0.524227 & 0.025390 & 1.160461 & 0.269389 & 2.236119 & 0.0258001939864210 & Bugspots \\ 
0.524062 & 0.025390 & 1.160154 & 0.269389 & 2.236119 & 0.0258001939864210 & Bugspots with tracking \\ 
0.516530 & 0.020096 & 1.069075 & 0.174255 & 1.543085 & 0.1869382476559974 & Average \\ 
