Name & AUCEC & AUCEC20 &  AUHDC & AUHDC20 & Max. HD & Max. HD Index \\ 
0.652604 & 0.084977 & 2.512596 & 1.415726 & 144.961199 & 0.0004622637626371 & Bugspots \\ 
0.652529 & 0.084966 & 2.512328 & 1.415648 & 144.961199 & 0.0004622637626371 & Bugspots with tracking \\ 
0.647762 & 0.081376 & 2.132935 & 1.039981 & 19.242425 & 0.0029466676376316 & Average \\ 
0.620342 & 0.077301 & 2.099228 & 1.075795 & 14.546768 & 0.0028347955854866 & Top ten percent \\ 
