Name & AUCEC & AUCEC20 &  AUHDC & AUHDC20 & Max. HD & Max. HD Index \\ 
0.534004 & 0.074030 & 2.128137 & 0.947220 & 11.037589 & 0.0155808055146249 & Average \\ 
0.533025 & 0.072540 & 2.010044 & 0.826728 & 7.819911 & 0.0105886811307014 & Bugspots \\ 
0.533025 & 0.072540 & 2.010044 & 0.826728 & 7.819911 & 0.0105886811307014 & Bugspots with tracking \\ 
0.526398 & 0.066452 & 2.098849 & 0.917911 & 15.459538 & 0.0047380722524262 & Top ten percent \\ 
