Name & AUCEC & AUCEC20 &  AUHDC & AUHDC20 & Max. HD & Max. HD Index \\ 
0.508409 & 0.023967 & 1.065697 & 0.228256 & 1.548107 & 0.0919236610975368 & Bugspots \\ 
0.502785 & 0.020633 & 1.024086 & 0.196655 & 1.323689 & 0.0261506966915406 & Bugspots with tracking \\ 
0.511499 & 0.018576 & 1.051247 & 0.194901 & 1.551060 & 0.0247969358779634 & Average \\ 
0.481207 & 0.018229 & 0.967083 & 0.178009 & 1.183336 & 0.1040084527504457 & Top ten percent \\ 
