Name & AUCEC & AUCEC20 &  AUHDC & AUHDC20 & Max. HD & Max. HD Index \\ 
0.511285 & 0.030542 & 1.160469 & 0.328415 & 2.703110 & 0.0386287133566456 & Bugspots with tracking \\ 
0.499434 & 0.029578 & 1.142282 & 0.323477 & 2.703110 & 0.0386287133566456 & Bugspots \\ 
0.507639 & 0.028327 & 1.140617 & 0.307021 & 2.520770 & 0.0191182718389490 & Top ten percent \\ 
0.494749 & 0.019100 & 1.013005 & 0.182612 & 1.290836 & 0.1088924474656034 & Average \\ 
