Name & AUCEC & AUCEC20 &  AUHDC & AUHDC20 & Max. HD & Max. HD Index \\ 
0.447596 & 0.019319 & 0.910571 & 0.182117 & 1.187519 & 0.0834020581591308 & Average \\ 
0.433052 & 0.015261 & 0.900782 & 0.192382 & 3.205116 & 0.0049840438882714 & Bugspots \\ 
0.454176 & 0.013836 & 0.939008 & 0.185339 & 3.205116 & 0.0049840438882714 & Bugspots with tracking \\ 
0.438333 & 0.013722 & 0.882896 & 0.168473 & 3.507962 & 0.0045537667180609 & Top ten percent \\ 
