Name & AUCEC & AUCEC20 &  AUHDC & AUHDC20 & Max. HD & Max. HD Index \\ 
0.497777 & 0.024727 & 1.076027 & 0.255257 & 2.154565 & 0.0239037363777893 & Bugspots with tracking \\ 
0.486813 & 0.024720 & 1.059113 & 0.255212 & 2.154565 & 0.0239037363777893 & Bugspots \\ 
0.485424 & 0.020826 & 0.981762 & 0.182044 & 1.229797 & 0.1221458225220550 & Average \\ 
0.487730 & 0.020820 & 1.027693 & 0.208465 & 1.515185 & 0.0424883238194084 & Top ten percent \\ 
