Name & AUCEC & AUCEC20 &  AUHDC & AUHDC20 & Max. HD & Max. HD Index \\ 
0.453094 & 0.015291 & 0.869009 & 0.134838 & 1.027653 & 0.0938514447337126 & Bugspots \\ 
0.458512 & 0.015291 & 0.877974 & 0.134838 & 1.027653 & 0.0938514447337126 & Bugspots with tracking \\ 
0.443693 & 0.010410 & 0.820022 & 0.091508 & 0.995812 & 0.5964066467393051 & Top ten percent \\ 
0.455562 & 0.006296 & 0.811604 & 0.062146 & 1.053839 & 0.5009481567190563 & Average \\ 
