Name & AUCEC & AUCEC20 &  AUHDC & AUHDC20 & Max. HD & Max. HD Index \\ 
0.545898 & 0.068297 & 1.684427 & 0.705901 & 6.913535 & 0.0006288860992880 & Average \\ 
0.545939 & 0.065928 & 1.651427 & 0.661938 & 4.134634 & 0.1258369824255144 & Bugspots \\ 
0.545536 & 0.065832 & 1.650019 & 0.661487 & 4.138989 & 0.1257045853519801 & Bugspots with tracking \\ 
0.514521 & 0.053725 & 1.499683 & 0.576530 & 11.214683 & 0.0003876905046780 & Top ten percent \\ 
