Name & AUCEC & AUCEC20 &  AUHDC & AUHDC20 & Max. HD & Max. HD Index \\ 
0.446642 & 0.016730 & 0.899039 & 0.168552 & 1.254961 & 0.0152748395424719 & Average \\ 
0.452791 & 0.014623 & 0.962463 & 0.194167 & 3.507962 & 0.0045537667180609 & Top ten percent \\ 
0.445046 & 0.013797 & 0.927527 & 0.191193 & 3.205116 & 0.0049840438882714 & Bugspots with tracking \\ 
0.426109 & 0.013602 & 0.894973 & 0.189988 & 3.205116 & 0.0049840438882714 & Bugspots \\ 
