Name & AUCEC & AUCEC20 &  AUHDC & AUHDC20 & Max. HD & Max. HD Index \\ 
0.558336 & 0.071400 & 2.210413 & 1.257526 & 132.830931 & 0.0004786822951867 & Bugspots with tracking \\ 
0.558355 & 0.071278 & 2.210577 & 1.256971 & 132.830931 & 0.0004786822951867 & Bugspots \\ 
0.547255 & 0.067341 & 1.960361 & 1.032937 & 34.104478 & 0.0020338725713990 & Average \\ 
0.530483 & 0.057706 & 2.020514 & 1.115648 & 132.830931 & 0.0004786822951867 & Top ten percent \\ 
