Name & AUCEC & AUCEC20 &  AUHDC & AUHDC20 & Max. HD & Max. HD Index \\ 
0.497952 & 0.022625 & 1.064101 & 0.270663 & 2.801420 & 0.0132208067259250 & Top ten percent \\ 
0.482786 & 0.021333 & 1.006213 & 0.235880 & 2.285515 & 0.0486153451208164 & Bugspots \\ 
0.483650 & 0.021333 & 1.007614 & 0.235951 & 2.285515 & 0.0486153451208164 & Bugspots with tracking \\ 
0.455541 & 0.019626 & 0.885299 & 0.174792 & 1.448162 & 0.0255752013605879 & Average \\ 
