Name & AUCEC & AUCEC20 &  AUHDC & AUHDC20 & Max. HD & Max. HD Index \\ 
0.318074 & 0.044057 & 1.096915 & 0.512705 & 6.228922 & 0.0002516323313080 & Bugspots with tracking \\ 
0.318073 & 0.044057 & 1.096909 & 0.512699 & 6.228922 & 0.0002516323313080 & Bugspots \\ 
0.318097 & 0.043801 & 1.118991 & 0.532634 & 11.091066 & 0.0008479247042863 & Average \\ 
0.307538 & 0.037265 & 1.030658 & 0.459851 & 6.228922 & 0.0002516323313080 & Top ten percent \\ 
