Name & AUCEC & AUCEC20 &  AUHDC & AUHDC20 & Max. HD & Max. HD Index \\ 
0.812763 & 0.133440 & 3.270753 & 1.946570 & 29.753464 & 0.0126035743236817 & Average \\ 
0.807559 & 0.128813 & 3.200326 & 1.876776 & 28.858657 & 0.0108286398760957 & Bugspots \\ 
0.807560 & 0.128803 & 3.200330 & 1.876728 & 28.858657 & 0.0108286398760957 & Bugspots with tracking \\ 
0.809837 & 0.127948 & 3.019170 & 1.684555 & 23.069375 & 0.0189645360308070 & Top ten percent \\ 
