Name & AUCEC & AUCEC20 &  AUHDC & AUHDC20 & Max. HD & Max. HD Index \\ 
0.430718 & 0.023636 & 0.973998 & 0.268767 & 2.703016 & 0.0088085013008997 & Bugspots \\ 
0.431810 & 0.023636 & 0.976105 & 0.268767 & 2.703016 & 0.0088085013008997 & Bugspots with tracking \\ 
0.424001 & 0.020765 & 0.919040 & 0.229389 & 2.703016 & 0.0088085013008997 & Top ten percent \\ 
0.419934 & 0.018369 & 0.908986 & 0.225570 & 2.329901 & 0.0102191153882323 & Average \\ 
