Name & AUCEC & AUCEC20 &  AUHDC & AUHDC20 & Max. HD & Max. HD Index \\ 
0.905875 & 0.124686 & 3.928721 & 2.377816 & 225.870754 & 0.0005208600793761 & Bugspots with tracking \\ 
0.905875 & 0.124686 & 3.928721 & 2.377816 & 225.870754 & 0.0005208600793761 & Bugspots \\ 
0.890691 & 0.117663 & 3.496908 & 1.956826 & 225.870754 & 0.0005208600793761 & Top ten percent \\ 
0.868097 & 0.106660 & 3.299891 & 1.804125 & 225.870754 & 0.0005208600793761 & Average \\ 
