Name & AUCEC & AUCEC20 &  AUHDC & AUHDC20 & Max. HD & Max. HD Index \\ 
0.321405 & 0.048029 & 1.230019 & 0.629775 & 9.398194 & 0.0072335661800597 & Bugspots \\ 
0.321405 & 0.048029 & 1.230019 & 0.629775 & 9.398194 & 0.0072335661800597 & Bugspots with tracking \\ 
0.322302 & 0.046116 & 1.229503 & 0.615130 & 6.394343 & 0.0144041788936795 & Average \\ 
0.309644 & 0.039248 & 1.090660 & 0.502400 & 9.790686 & 0.0026878393062589 & Top ten percent \\ 
