Name & AUCEC & AUCEC20 &  AUHDC & AUHDC20 & Max. HD & Max. HD Index \\ 
0.486847 & 0.024539 & 4.212112 & 0.914597 & 37.056858 & 0.0084329869387898 & Top ten percent \\ 
0.486847 & 0.024539 & 4.212112 & 0.914597 & 37.056858 & 0.0084329869387898 & Average \\ 
0.486623 & 0.024315 & 4.177113 & 0.879598 & 34.513486 & 0.0090544316739934 & Bugspots \\ 
0.486623 & 0.024315 & 4.177113 & 0.879598 & 34.513486 & 0.0090544316739934 & Bugspots with tracking \\ 
