Name & AUCEC & AUCEC20 &  AUHDC & AUHDC20 & Max. HD & Max. HD Index \\ 
0.597979 & 0.074057 & 1.808380 & 0.745695 & 5.163842 & 0.0035861899252276 & Average \\ 
0.602418 & 0.072994 & 1.804544 & 0.722513 & 4.575483 & 0.0094437857495929 & Bugspots \\ 
0.602446 & 0.072972 & 1.804794 & 0.722509 & 4.575483 & 0.0094437857495929 & Bugspots with tracking \\ 
0.570102 & 0.062835 & 1.644735 & 0.637815 & 4.292781 & 0.1040122993370650 & Top ten percent \\ 
