Name & AUCEC & AUCEC20 &  AUHDC & AUHDC20 & Max. HD & Max. HD Index \\ 
0.510919 & 0.029647 & 1.127216 & 0.278112 & 2.845970 & 0.0067571936631102 & Average \\ 
0.520360 & 0.025742 & 1.143637 & 0.274406 & 2.236119 & 0.0258001939864210 & Bugspots \\ 
0.521046 & 0.025742 & 1.144616 & 0.274406 & 2.236119 & 0.0258001939864210 & Bugspots with tracking \\ 
0.489651 & 0.025619 & 1.034320 & 0.228045 & 1.813941 & 0.1166181700614290 & Top ten percent \\ 
