Name & AUCEC & AUCEC20 &  AUHDC & AUHDC20 & Max. HD & Max. HD Index \\ 
0.490792 & 0.021262 & 0.990976 & 0.200820 & 1.323689 & 0.0261506966915406 & Bugspots with tracking \\ 
0.483200 & 0.021046 & 0.977423 & 0.198976 & 1.323689 & 0.0261506966915406 & Bugspots \\ 
0.471615 & 0.020715 & 0.977167 & 0.215980 & 1.743782 & 0.0220563956943802 & Top ten percent \\ 
0.495834 & 0.016922 & 1.003930 & 0.182595 & 1.551060 & 0.0247969358779634 & Average \\ 
