Name & AUCEC & AUCEC20 &  AUHDC & AUHDC20 & Max. HD & Max. HD Index \\ 
0.453814 & 0.025660 & 1.019319 & 0.291237 & 2.727218 & 0.0085939215255779 & Bugspots \\ 
0.455611 & 0.025660 & 1.021691 & 0.291237 & 2.727218 & 0.0085939215255779 & Bugspots with tracking \\ 
0.436369 & 0.014991 & 0.925667 & 0.198613 & 2.727218 & 0.0085939215255779 & Top ten percent \\ 
0.445324 & 0.014664 & 0.887654 & 0.167416 & 2.210822 & 0.0106012608600194 & Average \\ 
