Name & AUCEC & AUCEC20 &  AUHDC & AUHDC20 & Max. HD & Max. HD Index \\ 
0.067036 & 0.005526 & 0.533961 & 0.182175 & 5.950713 & 0.0027436260226683 & Bugspots \\ 
0.067036 & 0.005526 & 0.533961 & 0.182175 & 5.950713 & 0.0027436260226683 & Bugspots with tracking \\ 
0.066697 & 0.005187 & 0.525241 & 0.173455 & 6.201656 & 0.0046070643293853 & Average \\ 
0.065783 & 0.004273 & 0.498257 & 0.146471 & 5.531421 & 0.0019677317830216 & Top ten percent \\ 
