Name & AUCEC & AUCEC20 &  AUHDC & AUHDC20 & Max. HD & Max. HD Index \\ 
0.545034 & 0.071567 & 1.902714 & 0.959997 & 10.904969 & 0.0238529422379223 & Bugspots with tracking \\ 
0.539502 & 0.070856 & 1.883896 & 0.956075 & 10.904969 & 0.0238529422379223 & Bugspots \\ 
0.529822 & 0.067743 & 1.965862 & 1.062084 & 20.669098 & 0.0095084841833085 & Average \\ 
0.515728 & 0.058532 & 1.699256 & 0.814388 & 13.212966 & 0.0177177515056692 & Top ten percent \\ 
