Name & AUCEC & AUCEC20 &  AUHDC & AUHDC20 & Max. HD & Max. HD Index \\ 
0.498013 & 0.027386 & 1.091584 & 0.280658 & 2.205436 & 0.0291904514789829 & Bugspots \\ 
0.500670 & 0.027386 & 1.095338 & 0.280658 & 2.205436 & 0.0291904514789829 & Bugspots with tracking \\ 
0.485005 & 0.024280 & 1.022400 & 0.227886 & 1.515185 & 0.0424883238194084 & Top ten percent \\ 
0.492960 & 0.021220 & 0.989607 & 0.181858 & 1.245632 & 0.1929488842760768 & Average \\ 
