Name & AUCEC & AUCEC20 &  AUHDC & AUHDC20 & Max. HD & Max. HD Index \\ 
0.329153 & 0.043964 & 1.147017 & 0.535483 & 9.118321 & 0.0003526344567448 & Bugspots with tracking \\ 
0.329152 & 0.043964 & 1.147012 & 0.535477 & 9.118321 & 0.0003526344567448 & Bugspots \\ 
0.329605 & 0.043688 & 1.135798 & 0.520255 & 5.781118 & 0.0025028817275614 & Average \\ 
0.318373 & 0.037105 & 1.026626 & 0.429469 & 3.554548 & 0.0004522986463348 & Top ten percent \\ 
