Name & AUCEC & AUCEC20 &  AUHDC & AUHDC20 & Max. HD & Max. HD Index \\ 
0.409931 & 0.038773 & 1.258578 & 0.424600 & 4.228572 & 0.0027881575165277 & Average \\ 
0.385376 & 0.036787 & 1.166568 & 0.401442 & 7.609861 & 0.0007042253521127 & Bugspots \\ 
0.385335 & 0.036406 & 1.165630 & 0.399311 & 7.609861 & 0.0007042253521127 & Bugspots with tracking \\ 
0.323676 & 0.031923 & 1.088012 & 0.374610 & 4.661040 & 0.0009198045415349 & Top ten percent \\ 
