Name & AUCEC & AUCEC20 &  AUHDC & AUHDC20 & Max. HD & Max. HD Index \\ 
0.540786 & 0.063345 & 1.691833 & 0.783030 & 7.776907 & 0.0025049186823517 & Bugspots with tracking \\ 
0.541844 & 0.063085 & 1.782643 & 0.866364 & 19.743360 & 0.0032889571761125 & Average \\ 
0.540649 & 0.062197 & 1.691154 & 0.777171 & 7.776907 & 0.0025049186823517 & Bugspots \\ 
0.520673 & 0.055668 & 1.594851 & 0.721575 & 8.935746 & 0.0138070864855580 & Top ten percent \\ 
