Name & AUCEC & AUCEC20 &  AUHDC & AUHDC20 & Max. HD & Max. HD Index \\ 
0.468885 & 0.024627 & 1.007954 & 0.221716 & 1.487516 & 0.1503460145577109 & Bugspots \\ 
0.481456 & 0.021860 & 1.013511 & 0.210871 & 1.668928 & 0.0344580300476891 & Average \\ 
0.471361 & 0.017949 & 0.969495 & 0.165147 & 1.271132 & 0.1558320484778945 & Bugspots with tracking \\ 
0.441505 & 0.013895 & 0.864576 & 0.144761 & 1.103922 & 0.0607766502922299 & Top ten percent \\ 
