Name & AUCEC & AUCEC20 &  AUHDC & AUHDC20 & Max. HD & Max. HD Index \\ 
0.574077 & 0.040818 & 1.384936 & 0.371489 & 2.670862 & 0.0664277569636749 & Top ten percent \\ 
0.550715 & 0.037253 & 1.305265 & 0.347408 & 2.670862 & 0.0664277569636749 & Bugspots \\ 
0.550715 & 0.037253 & 1.305265 & 0.347408 & 2.670862 & 0.0664277569636749 & Bugspots with tracking \\ 
0.543091 & 0.025264 & 1.256836 & 0.296135 & 3.257110 & 0.0049519465711028 & Average \\ 
