Name & AUCEC & AUCEC20 &  AUHDC & AUHDC20 & Max. HD & Max. HD Index \\ 
0.030982 & 0.005170 & 0.200152 & 0.121900 & 7.134056 & 0.0016394470728420 & Average \\ 
0.030953 & 0.005142 & 0.189446 & 0.111194 & 4.701353 & 0.0006219436273722 & Top ten percent \\ 
0.030830 & 0.005019 & 0.189834 & 0.111582 & 4.701353 & 0.0006219436273722 & Bugspots \\ 
0.030830 & 0.005019 & 0.189834 & 0.111582 & 4.701353 & 0.0006219436273722 & Bugspots with tracking \\ 
