Name & AUCEC & AUCEC20 &  AUHDC & AUHDC20 & Max. HD & Max. HD Index \\ 
0.180890 & 0.028559 & 0.889794 & 0.446411 & 9.845725 & 0.0008291177541031 & Average \\ 
0.180792 & 0.028464 & 0.873860 & 0.430501 & 6.053897 & 0.0017979087773574 & Bugspots \\ 
0.180792 & 0.028464 & 0.873860 & 0.430501 & 6.053897 & 0.0017979087773574 & Bugspots with tracking \\ 
0.177431 & 0.025091 & 0.806303 & 0.362871 & 5.653399 & 0.0009626380158028 & Top ten percent \\ 
