Name & AUCEC & AUCEC20 &  AUHDC & AUHDC20 & Max. HD & Max. HD Index \\ 
0.527271 & 0.073347 & 2.254184 & 1.344083 & 139.416590 & 0.0004593385103071 & Bugspots \\ 
0.527244 & 0.073307 & 2.254079 & 1.343872 & 139.416590 & 0.0004593385103071 & Bugspots with tracking \\ 
0.517870 & 0.067281 & 1.848318 & 0.950620 & 15.008344 & 0.0019693478660294 & Average \\ 
0.488036 & 0.047386 & 1.594543 & 0.733564 & 15.040127 & 0.0055680275054012 & Top ten percent \\ 
