Name & AUCEC & AUCEC20 &  AUHDC & AUHDC20 & Max. HD & Max. HD Index \\ 
0.457884 & 0.060105 & 1.475389 & 0.655832 & 11.790171 & 0.0002601730410590 & Average \\ 
0.461401 & 0.058205 & 1.439736 & 0.598244 & 3.707887 & 0.1158201106729035 & Bugspots \\ 
0.461427 & 0.058119 & 1.439947 & 0.597891 & 3.712120 & 0.1156880369317313 & Bugspots with tracking \\ 
0.436850 & 0.048417 & 1.328651 & 0.543121 & 4.380625 & 0.0119040631018986 & Top ten percent \\ 
