Name & AUCEC & AUCEC20 &  AUHDC & AUHDC20 & Max. HD & Max. HD Index \\ 
0.542697 & 0.043782 & 3.521337 & 1.065075 & 33.028656 & 0.0094614809952054 & Bugspots \\ 
0.542697 & 0.043782 & 3.521337 & 1.065075 & 33.028656 & 0.0094614809952054 & Bugspots with tracking \\ 
0.535941 & 0.037026 & 3.046798 & 0.590537 & 11.131407 & 0.0336884647416173 & Top ten percent \\ 
0.535555 & 0.036640 & 3.034758 & 0.578496 & 10.881901 & 0.0344608921627303 & Average \\ 
