Name & AUCEC & AUCEC20 &  AUHDC & AUHDC20 & Max. HD & Max. HD Index \\ 
0.667433 & 0.084706 & 2.534733 & 1.411443 & 139.416590 & 0.0004593385103071 & Bugspots with tracking \\ 
0.667532 & 0.084590 & 2.535027 & 1.410901 & 139.416590 & 0.0004593385103071 & Bugspots \\ 
0.662739 & 0.082466 & 2.188349 & 1.072201 & 20.957294 & 0.0011752730160272 & Average \\ 
0.628922 & 0.075552 & 2.108238 & 1.069291 & 19.317158 & 0.0015300724170920 & Top ten percent \\ 
