Name & AUCEC & AUCEC20 &  AUHDC & AUHDC20 & Max. HD & Max. HD Index \\ 
0.421844 & 0.063095 & 2.164506 & 1.259958 & 131.244033 & 0.0004990869458099 & Average \\ 
0.421530 & 0.062436 & 1.891843 & 0.985665 & 21.644225 & 0.0092806909393514 & Bugspots \\ 
0.421530 & 0.062436 & 1.891843 & 0.985665 & 21.644225 & 0.0092806909393514 & Bugspots with tracking \\ 
0.410613 & 0.052048 & 1.853000 & 0.948817 & 41.894806 & 0.0034396818532198 & Top ten percent \\ 
