Name & AUCEC & AUCEC20 &  AUHDC & AUHDC20 & Max. HD & Max. HD Index \\ 
0.137909 & 0.006919 & 1.129111 & 0.203842 & 4.388141 & 0.0150223988994498 & Average \\ 
0.137870 & 0.006880 & 1.134078 & 0.208810 & 5.817232 & 0.0047038151727432 & Bugspots \\ 
0.137870 & 0.006880 & 1.134078 & 0.208810 & 5.817232 & 0.0047038151727432 & Bugspots with tracking \\ 
0.137761 & 0.006771 & 1.130668 & 0.205399 & 5.227333 & 0.0045208221662854 & Top ten percent \\ 
