Name & AUCEC & AUCEC20 &  AUHDC & AUHDC20 & Max. HD & Max. HD Index \\ 
0.404897 & 0.053087 & 1.366543 & 0.603684 & 4.718842 & 0.0211916418026624 & Average \\ 
0.400757 & 0.050571 & 1.314373 & 0.557030 & 3.792827 & 0.0818430893574764 & Bugspots with tracking \\ 
0.400757 & 0.050570 & 1.314369 & 0.557026 & 3.792517 & 0.0818497785423719 & Bugspots \\ 
0.393015 & 0.044743 & 1.255644 & 0.507164 & 9.538547 & 0.0006552360658958 & Top ten percent \\ 
