Name & AUCEC & AUCEC20 &  AUHDC & AUHDC20 & Max. HD & Max. HD Index \\ 
0.966702 & 0.165465 & 4.090366 & 2.468793 & 462.765653 & 0.0001964473599775 & Top ten percent \\ 
0.970074 & 0.164270 & 3.952284 & 2.307457 & 29.136099 & 0.0280813782431976 & Average \\ 
0.959644 & 0.155410 & 3.815430 & 2.178664 & 34.957893 & 0.0078015936148857 & Bugspots \\ 
0.959657 & 0.155301 & 3.815547 & 2.178155 & 34.957893 & 0.0078015936148857 & Bugspots with tracking \\ 
