Name & AUCEC & AUCEC20 &  AUHDC & AUHDC20 & Max. HD & Max. HD Index \\ 
0.629948 & 0.081231 & 2.224630 & 1.176625 & 22.121768 & 0.0017275544941822 & Average \\ 
0.632206 & 0.080274 & 2.409576 & 1.351294 & 132.535705 & 0.0004805819487492 & Bugspots with tracking \\ 
0.631622 & 0.080267 & 2.408086 & 1.351301 & 132.535705 & 0.0004805819487492 & Bugspots \\ 
0.608384 & 0.075730 & 2.134703 & 1.133269 & 36.487503 & 0.0019202106939011 & Top ten percent \\ 
