Name & AUCEC & AUCEC20 &  AUHDC & AUHDC20 & Max. HD & Max. HD Index \\ 
0.505516 & 0.075418 & 2.155722 & 0.952984 & 11.881727 & 0.0209190897839521 & Bugspots \\ 
0.505516 & 0.075418 & 2.155722 & 0.952984 & 11.881727 & 0.0209190897839521 & Bugspots with tracking \\ 
0.502691 & 0.071168 & 2.276031 & 1.066101 & 19.662564 & 0.0104361929549329 & Average \\ 
0.491254 & 0.059731 & 1.939919 & 0.729989 & 10.132615 & 0.0173993160005350 & Top ten percent \\ 
