Name & AUCEC & AUCEC20 &  AUHDC & AUHDC20 & Max. HD & Max. HD Index \\ 
0.471089 & 0.024375 & 1.005791 & 0.248155 & 2.100130 & 0.0546941611140935 & Bugspots with tracking \\ 
0.471453 & 0.023537 & 1.006063 & 0.243598 & 2.100130 & 0.0546941611140935 & Bugspots \\ 
0.463847 & 0.018140 & 0.991137 & 0.244388 & 4.566352 & 0.0103577857075189 & Average \\ 
0.443640 & 0.014863 & 0.862928 & 0.132688 & 1.299390 & 0.0623993431648088 & Top ten percent \\ 
