Name & AUCEC & AUCEC20 &  AUHDC & AUHDC20 & Max. HD & Max. HD Index \\ 
0.512513 & 0.070402 & 2.067661 & 1.060626 & 20.371499 & 0.0085743560245187 & Bugspots with tracking \\ 
0.512566 & 0.070348 & 2.068009 & 1.060444 & 20.371499 & 0.0085743560245187 & Bugspots \\ 
0.508476 & 0.066967 & 2.292984 & 1.287607 & 131.244033 & 0.0004990869458099 & Average \\ 
0.487225 & 0.051298 & 1.911360 & 0.929037 & 36.140741 & 0.0044706347603484 & Top ten percent \\ 
