Name & AUCEC & AUCEC20 &  AUHDC & AUHDC20 & Max. HD & Max. HD Index \\ 
0.474578 & 0.023065 & 1.013804 & 0.233483 & 1.658748 & 0.0351524357166106 & Average \\ 
0.484098 & 0.019403 & 1.021699 & 0.208472 & 1.525152 & 0.0401432136269936 & Bugspots with tracking \\ 
0.454455 & 0.019033 & 0.961195 & 0.204173 & 1.525152 & 0.0401432136269936 & Bugspots \\ 
0.468441 & 0.017366 & 0.936901 & 0.151196 & 1.189710 & 0.2965173049799284 & Top ten percent \\ 
