Name & AUCEC & AUCEC20 &  AUHDC & AUHDC20 & Max. HD & Max. HD Index \\ 
0.568137 & 0.070445 & 1.732760 & 0.708493 & 5.634718 & 0.0003651670250826 & Bugspots \\ 
0.568168 & 0.070396 & 1.732998 & 0.708337 & 5.634718 & 0.0003651670250826 & Bugspots with tracking \\ 
0.570893 & 0.069734 & 1.769884 & 0.730561 & 4.565374 & 0.1189847564847603 & Average \\ 
0.546036 & 0.057449 & 1.605538 & 0.608844 & 4.220706 & 0.0979884139416445 & Top ten percent \\ 
