Name & AUCEC & AUCEC20 &  AUHDC & AUHDC20 & Max. HD & Max. HD Index \\ 
0.558404 & 0.060715 & 1.856802 & 0.919202 & 83.384131 & 0.0005067333638283 & Bugspots with tracking \\ 
0.558154 & 0.060568 & 1.855709 & 0.918405 & 83.384131 & 0.0005067333638283 & Bugspots \\ 
0.563262 & 0.059735 & 1.824252 & 0.866287 & 82.025530 & 0.0005151264630221 & Average \\ 
0.550233 & 0.055031 & 1.677444 & 0.745439 & 35.328540 & 0.0011960166351226 & Top ten percent \\ 
