Name & AUCEC & AUCEC20 &  AUHDC & AUHDC20 & Max. HD & Max. HD Index \\ 
0.393838 & 0.016014 & 0.802909 & 0.183828 & 1.933072 & 0.0258655614073358 & Bugspots \\ 
0.397801 & 0.016014 & 0.808122 & 0.183828 & 1.933072 & 0.0258655614073358 & Bugspots with tracking \\ 
0.363633 & 0.012457 & 0.677271 & 0.094693 & 1.060443 & 0.0943002274922871 & Top ten percent \\ 
0.384368 & 0.012084 & 0.704929 & 0.098886 & 1.061495 & 0.0942067375112967 & Average \\ 
