Name & AUCEC & AUCEC20 &  AUHDC & AUHDC20 & Max. HD & Max. HD Index \\ 
0.448357 & 0.039315 & 1.292227 & 0.415029 & 4.661040 & 0.0009198045415349 & Average \\ 
0.408755 & 0.038875 & 1.261035 & 0.443440 & 4.661040 & 0.0009198045415349 & Top ten percent \\ 
0.382727 & 0.032810 & 1.136030 & 0.370938 & 7.609861 & 0.0007042253521127 & Bugspots \\ 
0.382607 & 0.032799 & 1.135735 & 0.370766 & 7.609861 & 0.0007042253521127 & Bugspots with tracking \\ 
