Name & AUCEC & AUCEC20 &  AUHDC & AUHDC20 & Max. HD & Max. HD Index \\ 
0.842528 & 0.134261 & 3.491319 & 2.016711 & 32.992488 & 0.0060619859149308 & Bugspots \\ 
0.842528 & 0.134256 & 3.491332 & 2.016696 & 32.992488 & 0.0060619859149308 & Bugspots with tracking \\ 
0.847084 & 0.133314 & 3.605735 & 2.106600 & 76.346537 & 0.0006549085486428 & Top ten percent \\ 
0.844647 & 0.130521 & 3.388504 & 1.886564 & 25.775882 & 0.0174581807934613 & Average \\ 
