Name & AUCEC & AUCEC20 &  AUHDC & AUHDC20 & Max. HD & Max. HD Index \\ 
0.534677 & 0.059217 & 1.807744 & 0.904263 & 83.384131 & 0.0005067333638283 & Bugspots with tracking \\ 
0.534691 & 0.059112 & 1.807875 & 0.903770 & 83.384131 & 0.0005067333638283 & Bugspots \\ 
0.522104 & 0.054766 & 1.701107 & 0.828479 & 82.025530 & 0.0005151264630221 & Average \\ 
0.508434 & 0.046741 & 1.554118 & 0.700384 & 35.328540 & 0.0011960166351226 & Top ten percent \\ 
