Name & AUCEC & AUCEC20 &  AUHDC & AUHDC20 & Max. HD & Max. HD Index \\ 
0.535172 & 0.060408 & 1.737068 & 0.826961 & 17.040404 & 0.0040627422513655 & Bugspots \\ 
0.535172 & 0.060408 & 1.737068 & 0.826961 & 17.040404 & 0.0040627422513655 & Bugspots with tracking \\ 
0.528225 & 0.058461 & 1.689193 & 0.795498 & 27.988755 & 0.0016490138959841 & Average \\ 
0.497968 & 0.045281 & 1.523817 & 0.683213 & 15.175324 & 0.0045620619806839 & Top ten percent \\ 
