Name & AUCEC & AUCEC20 &  AUHDC & AUHDC20 & Max. HD & Max. HD Index \\ 
0.842518 & 0.151211 & 3.563089 & 2.166212 & 29.272317 & 0.0147517596651155 & Average \\ 
0.840497 & 0.146641 & 3.445985 & 2.036240 & 23.612462 & 0.0038500471653461 & Top ten percent \\ 
0.817789 & 0.125599 & 2.937937 & 1.536620 & 27.128758 & 0.0016755114922244 & Bugspots \\ 
0.817793 & 0.125484 & 2.937978 & 1.536060 & 27.128758 & 0.0016755114922244 & Bugspots with tracking \\ 
