Name & AUCEC & AUCEC20 &  AUHDC & AUHDC20 & Max. HD & Max. HD Index \\ 
0.376018 & 0.015911 & 2.546966 & 0.323567 & 5.100165 & 0.0237284690818556 & Bugspots \\ 
0.376018 & 0.015911 & 2.546966 & 0.323567 & 5.100165 & 0.0237284690818556 & Bugspots with tracking \\ 
0.375770 & 0.015663 & 2.525613 & 0.302214 & 5.015816 & 0.0514296783700015 & Top ten percent \\ 
0.375679 & 0.015572 & 2.532781 & 0.309382 & 4.978478 & 0.0530947783818573 & Average \\ 
