Name & AUCEC & AUCEC20 &  AUHDC & AUHDC20 & Max. HD & Max. HD Index \\ 
0.320485 & 0.024753 & 0.871518 & 0.216501 & 1.456394 & 0.1035390740102191 & Top ten percent \\ 
0.312265 & 0.018020 & 0.852868 & 0.203291 & 2.033595 & 0.0078053979499075 & Average \\ 
0.312368 & 0.017767 & 0.837251 & 0.186477 & 1.669335 & 0.0285257515438388 & Bugspots \\ 
0.312368 & 0.017767 & 0.837251 & 0.186477 & 1.669335 & 0.0285257515438388 & Bugspots with tracking \\ 
