Name & AUCEC & AUCEC20 &  AUHDC & AUHDC20 & Max. HD & Max. HD Index \\ 
0.566281 & 0.038059 & 1.369695 & 0.418414 & 3.383254 & 0.0259274942184294 & Bugspots \\ 
0.566922 & 0.038059 & 1.370744 & 0.418414 & 3.383254 & 0.0259274942184294 & Bugspots with tracking \\ 
0.535054 & 0.035069 & 1.313527 & 0.404245 & 3.408950 & 0.0308784730139083 & Top ten percent \\ 
0.557192 & 0.027678 & 1.263657 & 0.286628 & 2.456620 & 0.0285658447607570 & Average \\ 
