Name & AUCEC & AUCEC20 &  AUHDC & AUHDC20 & Max. HD & Max. HD Index \\ 
0.768205 & 0.137088 & 3.360205 & 2.081028 & 63.665396 & 0.0009519466522806 & Average \\ 
0.769806 & 0.133433 & 3.415552 & 2.109491 & 63.665396 & 0.0009519466522806 & Top ten percent \\ 
0.765445 & 0.131029 & 3.377080 & 2.081141 & 63.665396 & 0.0009519466522806 & Bugspots \\ 
0.765445 & 0.131018 & 3.377083 & 2.081088 & 63.665396 & 0.0009519466522806 & Bugspots with tracking \\ 
