Name & AUCEC & AUCEC20 &  AUHDC & AUHDC20 & Max. HD & Max. HD Index \\ 
0.519336 & 0.069017 & 1.843845 & 0.950186 & 11.087812 & 0.0164217189997728 & Bugspots with tracking \\ 
0.513961 & 0.068341 & 1.824899 & 0.946305 & 11.087812 & 0.0164217189997728 & Bugspots \\ 
0.505992 & 0.064582 & 1.897455 & 1.034907 & 20.669098 & 0.0095084841833085 & Average \\ 
0.496085 & 0.057348 & 1.656127 & 0.804004 & 13.212966 & 0.0177177515056692 & Top ten percent \\ 
