Name & AUCEC & AUCEC20 &  AUHDC & AUHDC20 & Max. HD & Max. HD Index \\ 
0.555739 & 0.036455 & 1.340334 & 0.415355 & 3.168318 & 0.0332236734959773 & Bugspots \\ 
0.561526 & 0.036455 & 1.351233 & 0.415355 & 3.168318 & 0.0332236734959773 & Bugspots with tracking \\ 
0.534818 & 0.031478 & 1.202054 & 0.298758 & 3.543513 & 0.0049509787954790 & Top ten percent \\ 
0.525611 & 0.015434 & 1.025518 & 0.144321 & 1.771757 & 0.0099019575909579 & Average \\ 
