Name & AUCEC & AUCEC20 &  AUHDC & AUHDC20 & Max. HD & Max. HD Index \\ 
0.759816 & 0.063363 & 2.559766 & 0.988092 & 81.954956 & 0.0015643364833255 & Average \\ 
0.757407 & 0.061903 & 2.204541 & 0.637463 & 6.570195 & 0.0234157685536912 & Bugspots \\ 
0.757407 & 0.061903 & 2.204541 & 0.637463 & 6.570195 & 0.0234157685536912 & Bugspots with tracking \\ 
0.758079 & 0.057280 & 2.287766 & 0.698386 & 13.709698 & 0.0093514189643296 & Top ten percent \\ 
