Name & AUCEC & AUCEC20 &  AUHDC & AUHDC20 & Max. HD & Max. HD Index \\ 
0.434754 & 0.032992 & 1.033266 & 0.348644 & 4.377584 & 0.0142772817826312 & Top ten percent \\ 
0.427712 & 0.024081 & 0.931315 & 0.255793 & 3.485854 & 0.0179296096805135 & Bugspots \\ 
0.427468 & 0.024081 & 0.930846 & 0.255793 & 3.485854 & 0.0179296096805135 & Bugspots with tracking \\ 
0.415208 & 0.021108 & 0.983320 & 0.304089 & 11.683621 & 0.0053493691433631 & Average \\ 
