Name & AUCEC & AUCEC20 &  AUHDC & AUHDC20 & Max. HD & Max. HD Index \\ 
0.626268 & 0.093165 & 3.446114 & 2.041097 & 259.597551 & 0.0005136155283794 & Bugspots \\ 
0.626268 & 0.093165 & 3.446114 & 2.041097 & 259.597551 & 0.0005136155283794 & Bugspots with tracking \\ 
0.624942 & 0.091175 & 11.547215 & 10.138843 & 31800.700000 & 0.0000010481949559 & Average \\ 
0.583407 & 0.055155 & 1.887030 & 0.504119 & 4.208483 & 0.0712845943642750 & Top ten percent \\ 
