Name & AUCEC & AUCEC20 &  AUHDC & AUHDC20 & Max. HD & Max. HD Index \\ 
0.471970 & 0.063273 & 2.009455 & 0.777241 & 11.742348 & 0.0089946213873295 & Average \\ 
0.469564 & 0.060867 & 1.978507 & 0.746293 & 34.391758 & 0.0003920458490677 & Bugspots \\ 
0.469564 & 0.060867 & 1.978507 & 0.746293 & 34.391758 & 0.0003920458490677 & Bugspots with tracking \\ 
0.464489 & 0.055791 & 1.797277 & 0.565063 & 5.883102 & 0.0026738167853309 & Top ten percent \\ 
