Name & AUCEC & AUCEC20 &  AUHDC & AUHDC20 & Max. HD & Max. HD Index \\ 
0.578711 & 0.071763 & 2.242824 & 1.269326 & 132.830931 & 0.0004786822951867 & Bugspots \\ 
0.578754 & 0.071757 & 2.243013 & 1.269314 & 132.830931 & 0.0004786822951867 & Bugspots with tracking \\ 
0.581441 & 0.068823 & 2.118377 & 1.130311 & 61.473234 & 0.0010343333294673 & Average \\ 
0.561442 & 0.063678 & 1.961284 & 1.020258 & 36.186764 & 0.0019168379133248 & Top ten percent \\ 
