Name & AUCEC & AUCEC20 &  AUHDC & AUHDC20 & Max. HD & Max. HD Index \\ 
0.555329 & 0.068665 & 1.744066 & 0.729617 & 8.793358 & 0.0006388887521112 & Average \\ 
0.554347 & 0.067269 & 1.696192 & 0.679449 & 4.197659 & 0.1251366409469833 & Bugspots \\ 
0.553994 & 0.067175 & 1.694929 & 0.679020 & 4.202123 & 0.1250036929985671 & Bugspots with tracking \\ 
0.527887 & 0.055556 & 1.576747 & 0.611734 & 26.380074 & 0.0000532407293426 & Top ten percent \\ 
