Name & AUCEC & AUCEC20 &  AUHDC & AUHDC20 & Max. HD & Max. HD Index \\ 
0.431687 & 0.022782 & 1.001460 & 0.274540 & 3.894575 & 0.0101891842569499 & Bugspots \\ 
0.432798 & 0.022782 & 1.003637 & 0.274540 & 3.894575 & 0.0101891842569499 & Bugspots with tracking \\ 
0.436401 & 0.021432 & 0.939368 & 0.194334 & 1.507546 & 0.1210840075430379 & Top ten percent \\ 
0.426041 & 0.020300 & 0.918226 & 0.205707 & 1.589314 & 0.0549303485613480 & Average \\ 
