Name & AUCEC & AUCEC20 &  AUHDC & AUHDC20 & Max. HD & Max. HD Index \\ 
0.455059 & 0.018158 & 0.907692 & 0.167785 & 1.156333 & 0.0808226649982353 & Bugspots \\ 
0.467173 & 0.018158 & 0.925687 & 0.167785 & 1.156333 & 0.0808226649982353 & Bugspots with tracking \\ 
0.469233 & 0.016654 & 0.974409 & 0.209310 & 2.511038 & 0.0093047133185741 & Top ten percent \\ 
0.455458 & 0.014860 & 0.879286 & 0.141434 & 1.113064 & 0.0545769563961883 & Average \\ 
