Name & AUCEC & AUCEC20 &  AUHDC & AUHDC20 & Max. HD & Max. HD Index \\ 
0.329227 & 0.023720 & 0.793632 & 0.248068 & 1.959924 & 0.0312693306940492 & Top ten percent \\ 
0.322754 & 0.016657 & 0.709502 & 0.161042 & 2.911376 & 0.0025671161697390 & Average \\ 
0.300865 & 0.016232 & 0.686769 & 0.185122 & 2.491178 & 0.0030001237164419 & Bugspots \\ 
0.301213 & 0.015398 & 0.671249 & 0.168018 & 1.972606 & 0.0015155264134603 & Bugspots with tracking \\ 
