Name & AUCEC & AUCEC20 &  AUHDC & AUHDC20 & Max. HD & Max. HD Index \\ 
0.938268 & 0.138228 & 3.660305 & 2.040922 & 192.395968 & 0.0005197614127451 & Top ten percent \\ 
0.920886 & 0.133670 & 4.016338 & 2.451949 & 192.395968 & 0.0005197614127451 & Bugspots \\ 
0.920678 & 0.133670 & 4.015558 & 2.451949 & 192.395968 & 0.0005197614127451 & Bugspots with tracking \\ 
0.920229 & 0.131341 & 3.696472 & 2.124984 & 192.008853 & 0.0005208093188191 & Average \\ 
