Name & AUCEC & AUCEC20 &  AUHDC & AUHDC20 & Max. HD & Max. HD Index \\ 
0.853013 & 0.135999 & 3.371647 & 1.890335 & 30.459452 & 0.0017279226859000 & Top ten percent \\ 
0.850380 & 0.132022 & 3.313043 & 1.824936 & 23.081205 & 0.0159619505977523 & Average \\ 
0.851270 & 0.129019 & 3.435257 & 1.927172 & 30.837495 & 0.0085336987289631 & Bugspots \\ 
0.851272 & 0.129014 & 3.435269 & 1.927149 & 30.837495 & 0.0085336987289631 & Bugspots with tracking \\ 
