Name & AUCEC & AUCEC20 &  AUHDC & AUHDC20 & Max. HD & Max. HD Index \\ 
0.315637 & 0.046636 & 1.208651 & 0.613215 & 6.408600 & 0.0150565227850492 & Average \\ 
0.315867 & 0.046534 & 1.217196 & 0.620614 & 9.398194 & 0.0072335661800597 & Bugspots \\ 
0.315867 & 0.046534 & 1.217196 & 0.620614 & 9.398194 & 0.0072335661800597 & Bugspots with tracking \\ 
0.304033 & 0.037572 & 1.073378 & 0.488774 & 9.790686 & 0.0026878393062589 & Top ten percent \\ 
