Name & AUCEC & AUCEC20 &  AUHDC & AUHDC20 & Max. HD & Max. HD Index \\ 
0.119293 & 0.013048 & 0.569633 & 0.201492 & 3.507962 & 0.0045537667180609 & Top ten percent \\ 
0.118199 & 0.011954 & 0.558295 & 0.190154 & 3.507962 & 0.0045537667180609 & Bugspots \\ 
0.118199 & 0.011954 & 0.558295 & 0.190154 & 3.507962 & 0.0045537667180609 & Bugspots with tracking \\ 
0.117883 & 0.011638 & 0.525741 & 0.157600 & 2.072145 & 0.0092509591595253 & Average \\ 
