Name & AUCEC & AUCEC20 &  AUHDC & AUHDC20 & Max. HD & Max. HD Index \\ 
0.285229 & 0.039885 & 1.067176 & 0.504848 & 4.915259 & 0.0361479467374203 & Average \\ 
0.285080 & 0.039781 & 1.069321 & 0.506945 & 5.255219 & 0.0255738835257192 & Bugspots \\ 
0.285080 & 0.039781 & 1.069321 & 0.506945 & 5.255219 & 0.0255738835257192 & Bugspots with tracking \\ 
0.269990 & 0.028862 & 0.910831 & 0.366102 & 3.638721 & 0.0187805351962201 & Top ten percent \\ 
