Name & AUCEC & AUCEC20 &  AUHDC & AUHDC20 & Max. HD & Max. HD Index \\ 
0.390116 & 0.010600 & 6.148245 & 0.775601 & 63.665396 & 0.0009519466522806 & Bugspots \\ 
0.390116 & 0.010600 & 6.148245 & 0.775601 & 63.665396 & 0.0009519466522806 & Bugspots with tracking \\ 
0.389596 & 0.010080 & 6.137626 & 0.764982 & 63.665396 & 0.0009519466522806 & Top ten percent \\ 
0.389421 & 0.009905 & 6.068078 & 0.695433 & 47.752839 & 0.0012691614039459 & Average \\ 
