Name & AUCEC & AUCEC20 &  AUHDC & AUHDC20 & Max. HD & Max. HD Index \\ 
0.170258 & 0.017828 & 0.611993 & 0.251835 & 6.617676 & 0.0094444034531100 & Top ten percent \\ 
0.167424 & 0.014036 & 0.619240 & 0.253898 & 9.359807 & 0.0066774883789567 & Average \\ 
0.158060 & 0.013111 & 0.574801 & 0.244069 & 9.011303 & 0.0069357337858777 & Bugspots \\ 
0.158314 & 0.012603 & 0.575611 & 0.241239 & 9.011303 & 0.0069357337858777 & Bugspots with tracking \\ 
