Name & AUCEC & AUCEC20 &  AUHDC & AUHDC20 & Max. HD & Max. HD Index \\ 
0.344730 & 0.047201 & 1.219822 & 0.563773 & 4.692650 & 0.0106549593768842 & Average \\ 
0.343425 & 0.045497 & 1.175637 & 0.517509 & 3.769845 & 0.0641051953378814 & Bugspots \\ 
0.343425 & 0.045497 & 1.175637 & 0.517509 & 3.769845 & 0.0641051953378814 & Bugspots with tracking \\ 
0.333699 & 0.038812 & 1.105947 & 0.460445 & 9.538547 & 0.0006552360658958 & Top ten percent \\ 
