Name & AUCEC & AUCEC20 &  AUHDC & AUHDC20 & Max. HD & Max. HD Index \\ 
0.564734 & 0.039594 & 1.380540 & 0.439857 & 3.383254 & 0.0259274942184294 & Bugspots \\ 
0.571245 & 0.039594 & 1.388780 & 0.439857 & 3.383254 & 0.0259274942184294 & Bugspots with tracking \\ 
0.559848 & 0.036777 & 1.327477 & 0.400244 & 3.543513 & 0.0049509787954790 & Top ten percent \\ 
0.567062 & 0.036645 & 1.297214 & 0.353113 & 3.520353 & 0.0099671020487932 & Average \\ 
