Name & AUCEC & AUCEC20 &  AUHDC & AUHDC20 & Max. HD & Max. HD Index \\ 
0.343517 & 0.051143 & 1.289505 & 0.642067 & 8.008641 & 0.0008494226786933 & Average \\ 
0.342780 & 0.047993 & 1.274378 & 0.615002 & 6.053897 & 0.0017979087773574 & Bugspots with tracking \\ 
0.342780 & 0.047992 & 1.274366 & 0.614990 & 6.053897 & 0.0017979087773574 & Bugspots \\ 
0.333693 & 0.040742 & 1.185983 & 0.533693 & 5.653399 & 0.0009626380158028 & Top ten percent \\ 
