Name & AUCEC & AUCEC20 &  AUHDC & AUHDC20 & Max. HD & Max. HD Index \\ 
0.360635 & 0.051444 & 1.272168 & 0.599639 & 4.766873 & 0.0315388490229651 & Average \\ 
0.359781 & 0.050087 & 1.261673 & 0.586573 & 5.187801 & 0.0263453150382548 & Bugspots \\ 
0.359781 & 0.050087 & 1.261673 & 0.586573 & 5.187801 & 0.0263453150382548 & Bugspots with tracking \\ 
0.351283 & 0.041597 & 1.169334 & 0.492346 & 4.461829 & 0.0015315945821326 & Top ten percent \\ 
