Name & AUCEC & AUCEC20 &  AUHDC & AUHDC20 & Max. HD & Max. HD Index \\ 
0.745917 & 0.092671 & 2.563116 & 1.252114 & 36.929067 & 0.0029433630675568 & Top ten percent \\ 
0.728309 & 0.073714 & 2.116533 & 0.800842 & 9.601101 & 0.0135853978992755 & Bugspots \\ 
0.728309 & 0.073714 & 2.116533 & 0.800842 & 9.601101 & 0.0135853978992755 & Bugspots with tracking \\ 
0.726458 & 0.071903 & 2.517848 & 1.201452 & 210.263471 & 0.0005169497656949 & Average \\ 
