Name & AUCEC & AUCEC20 &  AUHDC & AUHDC20 & Max. HD & Max. HD Index \\ 
0.796185 & 0.133831 & 3.167925 & 1.872306 & 25.283756 & 0.0138428800011611 & Average \\ 
0.796151 & 0.130387 & 3.243025 & 1.932356 & 64.621571 & 0.0007737354459728 & Top ten percent \\ 
0.789921 & 0.129144 & 3.138608 & 1.845120 & 27.427229 & 0.0127610412259791 & Bugspots \\ 
0.789921 & 0.129064 & 3.138612 & 1.844720 & 27.427229 & 0.0127610412259791 & Bugspots with tracking \\ 
