Name & AUCEC & AUCEC20 &  AUHDC & AUHDC20 & Max. HD & Max. HD Index \\ 
0.457304 & 0.029626 & 1.068052 & 0.330736 & 4.377584 & 0.0142772817826312 & Top ten percent \\ 
0.408461 & 0.024190 & 0.914230 & 0.269215 & 3.485854 & 0.0179296096805135 & Bugspots \\ 
0.409605 & 0.024190 & 0.915923 & 0.269215 & 3.485854 & 0.0179296096805135 & Bugspots with tracking \\ 
0.420622 & 0.020974 & 0.995585 & 0.306126 & 11.683621 & 0.0053493691433631 & Average \\ 
