Name & AUCEC & AUCEC20 &  AUHDC & AUHDC20 & Max. HD & Max. HD Index \\ 
0.444461 & 0.020647 & 0.931344 & 0.220395 & 1.858591 & 0.0398549561980554 & Bugspots \\ 
0.451301 & 0.020647 & 0.940166 & 0.220397 & 1.858591 & 0.0398549561980554 & Bugspots with tracking \\ 
0.439467 & 0.018608 & 0.899797 & 0.206040 & 2.801420 & 0.0132208067259250 & Top ten percent \\ 
0.407115 & 0.014945 & 0.766874 & 0.136033 & 1.330217 & 0.0835285434650066 & Average \\ 
