Name & AUCEC & AUCEC20 &  AUHDC & AUHDC20 & Max. HD & Max. HD Index \\ 
0.638361 & 0.083147 & 2.371523 & 1.299490 & 54.226975 & 0.0015300398529385 & Bugspots with tracking \\ 
0.638349 & 0.082817 & 2.371469 & 1.297830 & 54.226975 & 0.0015300398529385 & Bugspots \\ 
0.628183 & 0.080705 & 2.164804 & 1.113908 & 21.754321 & 0.0062227260086685 & Average \\ 
0.600145 & 0.069072 & 2.190562 & 1.188579 & 39.019390 & 0.0027978475818074 & Top ten percent \\ 
