Name & AUCEC & AUCEC20 &  AUHDC & AUHDC20 & Max. HD & Max. HD Index \\ 
0.169343 & 0.025746 & 0.703832 & 0.360750 & 4.889796 & 0.0098637069348599 & Average \\ 
0.168111 & 0.024029 & 0.690954 & 0.345302 & 4.674301 & 0.0041273775395319 & Bugspots \\ 
0.168111 & 0.024029 & 0.690954 & 0.345302 & 4.674301 & 0.0041273775395319 & Bugspots with tracking \\ 
0.164747 & 0.021302 & 0.630503 & 0.288061 & 3.797659 & 0.0004233442181664 & Top ten percent \\ 
