Name & AUCEC & AUCEC20 &  AUHDC & AUHDC20 & Max. HD & Max. HD Index \\ 
0.806645 & 0.106028 & 2.609694 & 1.251832 & 12.388687 & 0.0443162065453081 & Top ten percent \\ 
0.793416 & 0.087377 & 2.416470 & 1.043097 & 19.151057 & 0.0010238517596928 & Bugspots with tracking \\ 
0.793332 & 0.087090 & 2.415976 & 1.041456 & 19.151057 & 0.0010238517596928 & Bugspots \\ 
0.791620 & 0.082718 & 2.422845 & 1.044534 & 25.900367 & 0.0045422931551943 & Average \\ 
