Name & AUCEC & AUCEC20 &  AUHDC & AUHDC20 & Max. HD & Max. HD Index \\ 
0.793203 & 0.131774 & 3.235208 & 1.945144 & 70.385866 & 0.0007477577857896 & Top ten percent \\ 
0.792032 & 0.129764 & 3.114403 & 1.817526 & 24.336449 & 0.0173013176393974 & Average \\ 
0.788837 & 0.126406 & 3.171843 & 1.867392 & 27.162810 & 0.0135634365507395 & Bugspots \\ 
0.788836 & 0.126396 & 3.171824 & 1.867320 & 27.162810 & 0.0135634365507395 & Bugspots with tracking \\ 
