Name & AUCEC & AUCEC20 &  AUHDC & AUHDC20 & Max. HD & Max. HD Index \\ 
0.775118 & 0.103004 & 3.302075 & 1.918116 & 259.597551 & 0.0005136155283794 & Bugspots \\ 
0.775118 & 0.103004 & 3.302075 & 1.918116 & 259.597551 & 0.0005136155283794 & Bugspots with tracking \\ 
0.768669 & 0.099009 & 3.000456 & 1.619557 & 108.906507 & 0.0003060729271159 & Top ten percent \\ 
0.758527 & 0.090953 & 29.099470 & 27.728610 & 31800.700000 & 0.0000010481949559 & Average \\ 
