Name & AUCEC & AUCEC20 &  AUHDC & AUHDC20 & Max. HD & Max. HD Index \\ 
0.822399 & 0.148025 & 3.483527 & 2.072732 & 29.272317 & 0.0147517596651155 & Average \\ 
0.819500 & 0.141481 & 3.405889 & 1.976479 & 23.097569 & 0.0088557133580910 & Top ten percent \\ 
0.812642 & 0.138283 & 3.182755 & 1.772030 & 27.128758 & 0.0016755114922244 & Bugspots \\ 
0.812645 & 0.138280 & 3.182827 & 1.772070 & 27.128758 & 0.0016755114922244 & Bugspots with tracking \\ 
