Name & AUCEC & AUCEC20 &  AUHDC & AUHDC20 & Max. HD & Max. HD Index \\ 
0.468394 & 0.050455 & 1.841382 & 0.774664 & 50.095499 & 0.0013766809168905 & Bugspots \\ 
0.468394 & 0.050455 & 1.841382 & 0.774664 & 50.095499 & 0.0013766809168905 & Bugspots with tracking \\ 
0.466258 & 0.048306 & 1.812707 & 0.745920 & 50.095499 & 0.0013766809168905 & Average \\ 
0.452093 & 0.033992 & 1.375560 & 0.308025 & 2.357315 & 0.1901637724840368 & Top ten percent \\ 
