Name & AUCEC & AUCEC20 &  AUHDC & AUHDC20 & Max. HD & Max. HD Index \\ 
0.838614 & 0.137712 & 3.350577 & 1.975511 & 49.026564 & 0.0010198552791192 & Top ten percent \\ 
0.838123 & 0.133640 & 3.282626 & 1.887563 & 25.283756 & 0.0138428800011611 & Average \\ 
0.832905 & 0.128261 & 3.230347 & 1.835093 & 27.427229 & 0.0127610412259791 & Bugspots \\ 
0.832912 & 0.128158 & 3.230411 & 1.834589 & 27.427229 & 0.0127610412259791 & Bugspots with tracking \\ 
