Name & AUCEC & AUCEC20 &  AUHDC & AUHDC20 & Max. HD & Max. HD Index \\ 
0.332006 & 0.018114 & 0.847569 & 0.180904 & 1.330723 & 0.0316039400648121 & Top ten percent \\ 
0.328510 & 0.018018 & 0.820274 & 0.168423 & 1.241693 & 0.0903198896268489 & Bugspots \\ 
0.328510 & 0.018018 & 0.820274 & 0.168423 & 1.241693 & 0.0903198896268489 & Bugspots with tracking \\ 
0.329481 & 0.016608 & 0.863895 & 0.202453 & 2.511038 & 0.0093047133185741 & Average \\ 
