Name & AUCEC & AUCEC20 &  AUHDC & AUHDC20 & Max. HD & Max. HD Index \\ 
0.393533 & 0.049999 & 1.985741 & 0.861510 & 87.069784 & 0.0005066929629474 & Average \\ 
0.391980 & 0.048446 & 1.849574 & 0.725343 & 17.488442 & 0.0058862406109689 & Bugspots \\ 
0.391980 & 0.048446 & 1.849574 & 0.725343 & 17.488442 & 0.0058862406109689 & Bugspots with tracking \\ 
0.387460 & 0.043925 & 1.730402 & 0.606171 & 26.374855 & 0.0022302882799715 & Top ten percent \\ 
