Name & AUCEC & AUCEC20 &  AUHDC & AUHDC20 & Max. HD & Max. HD Index \\ 
0.474821 & 0.064439 & 2.022116 & 1.194565 & 132.830931 & 0.0004786822951867 & Bugspots \\ 
0.474821 & 0.064439 & 2.022116 & 1.194565 & 132.830931 & 0.0004786822951867 & Bugspots with tracking \\ 
0.472555 & 0.063042 & 1.986056 & 1.161678 & 132.830931 & 0.0004786822951867 & Average \\ 
0.449322 & 0.046718 & 1.464682 & 0.664280 & 13.126005 & 0.0039633628801913 & Top ten percent \\ 
