Name & AUCEC & AUCEC20 &  AUHDC & AUHDC20 & Max. HD & Max. HD Index \\ 
0.447223 & 0.020434 & 0.947799 & 0.228802 & 2.801420 & 0.0132208067259250 & Top ten percent \\ 
0.447978 & 0.018460 & 0.949702 & 0.214674 & 1.858591 & 0.0398549561980554 & Bugspots \\ 
0.449196 & 0.018460 & 0.950515 & 0.214675 & 1.858591 & 0.0398549561980554 & Bugspots with tracking \\ 
0.390213 & 0.014412 & 0.712707 & 0.108863 & 0.935573 & 0.1187626351763309 & Average \\ 
