Name & AUCEC & AUCEC20 &  AUHDC & AUHDC20 & Max. HD & Max. HD Index \\ 
0.342504 & 0.016412 & 0.752681 & 0.193185 & 3.999676 & 0.0032283819904884 & Average \\ 
0.343888 & 0.014157 & 0.698340 & 0.131006 & 0.826848 & 0.1153886208213282 & Bugspots with tracking \\ 
0.335153 & 0.014152 & 0.676161 & 0.131254 & 1.000464 & 0.1061200402679904 & Top ten percent \\ 
0.342732 & 0.013911 & 0.696683 & 0.129959 & 0.826848 & 0.1153886208213282 & Bugspots \\ 
