Name & AUCEC & AUCEC20 &  AUHDC & AUHDC20 & Max. HD & Max. HD Index \\ 
0.600961 & 0.073654 & 1.802137 & 0.726012 & 4.432420 & 0.0094004331551274 & Bugspots \\ 
0.600989 & 0.073632 & 1.802385 & 0.726008 & 4.432420 & 0.0094004331551274 & Bugspots with tracking \\ 
0.597493 & 0.069203 & 1.822958 & 0.734172 & 4.641924 & 0.1216270165231988 & Average \\ 
0.569169 & 0.062972 & 1.663268 & 0.658528 & 6.311197 & 0.0009903034183863 & Top ten percent \\ 
