Name & AUCEC & AUCEC20 &  AUHDC & AUHDC20 & Max. HD & Max. HD Index \\ 
0.509370 & 0.066151 & 1.919912 & 1.017286 & 16.625360 & 0.0068210289906925 & Bugspots \\ 
0.509364 & 0.066078 & 1.919977 & 1.016974 & 16.625360 & 0.0068210289906925 & Bugspots with tracking \\ 
0.498047 & 0.056347 & 1.710040 & 0.811346 & 13.894957 & 0.0022258316789990 & Average \\ 
0.483220 & 0.047407 & 1.577285 & 0.699700 & 14.546768 & 0.0028347955854866 & Top ten percent \\ 
