Name & AUCEC & AUCEC20 &  AUHDC & AUHDC20 & Max. HD & Max. HD Index \\ 
0.517602 & 0.055508 & 1.761705 & 0.881204 & 83.384131 & 0.0005067333638283 & Bugspots \\ 
0.517592 & 0.055438 & 1.761737 & 0.880870 & 83.384131 & 0.0005067333638283 & Bugspots with tracking \\ 
0.521343 & 0.055433 & 1.715540 & 0.820406 & 83.384131 & 0.0005067333638283 & Average \\ 
0.498765 & 0.045494 & 1.543979 & 0.687322 & 35.328540 & 0.0011960166351226 & Top ten percent \\ 
