Name & AUCEC & AUCEC20 &  AUHDC & AUHDC20 & Max. HD & Max. HD Index \\ 
0.549445 & 0.071900 & 1.755839 & 0.761214 & 4.896083 & 0.0213970834129379 & Bugspots \\ 
0.549403 & 0.071873 & 1.755961 & 0.761218 & 4.896083 & 0.0213970834129379 & Bugspots with tracking \\ 
0.549512 & 0.069038 & 1.783888 & 0.773832 & 6.971684 & 0.0005854586590197 & Average \\ 
0.523668 & 0.059858 & 1.633302 & 0.687139 & 5.445723 & 0.0122420236257027 & Top ten percent \\ 
