Name & AUCEC & AUCEC20 &  AUHDC & AUHDC20 & Max. HD & Max. HD Index \\ 
0.281530 & 0.017525 & 0.650169 & 0.184549 & 2.707530 & 0.0051208370173887 & Average \\ 
0.277132 & 0.017422 & 0.661637 & 0.196583 & 1.712743 & 0.0151783082817566 & Bugspots with tracking \\ 
0.277038 & 0.017370 & 0.661070 & 0.196119 & 1.712743 & 0.0151783082817566 & Bugspots \\ 
0.272273 & 0.015943 & 0.647396 & 0.187162 & 2.551503 & 0.0108679634541704 & Top ten percent \\ 
