Name & AUCEC & AUCEC20 &  AUHDC & AUHDC20 & Max. HD & Max. HD Index \\ 
0.369092 & 0.050931 & 1.257657 & 0.566675 & 3.981597 & 0.0783097268658260 & Bugspots \\ 
0.369099 & 0.050910 & 1.257722 & 0.566604 & 3.988368 & 0.0781767789174098 & Bugspots with tracking \\ 
0.368779 & 0.050492 & 1.282333 & 0.590556 & 5.567816 & 0.0007567569563783 & Average \\ 
0.358682 & 0.043692 & 1.173197 & 0.495702 & 26.380074 & 0.0000532407293426 & Top ten percent \\ 
