Name & AUCEC & AUCEC20 &  AUHDC & AUHDC20 & Max. HD & Max. HD Index \\ 
0.503617 & 0.057140 & 1.749343 & 0.883099 & 50.095499 & 0.0013766809168905 & Bugspots \\ 
0.503617 & 0.057140 & 1.749343 & 0.883099 & 50.095499 & 0.0013766809168905 & Bugspots with tracking \\ 
0.493428 & 0.053409 & 1.706658 & 0.865742 & 73.973547 & 0.0006526098086939 & Average \\ 
0.468868 & 0.041957 & 1.411954 & 0.613150 & 13.979785 & 0.0034532622083223 & Top ten percent \\ 
