Name & AUCEC & AUCEC20 &  AUHDC & AUHDC20 & Max. HD & Max. HD Index \\ 
0.672516 & 0.082048 & 2.550203 & 1.412059 & 145.501211 & 0.0004659522066165 & Bugspots \\ 
0.672577 & 0.081635 & 2.550760 & 1.409952 & 145.501211 & 0.0004659522066165 & Bugspots with tracking \\ 
0.667814 & 0.079334 & 2.166701 & 1.036759 & 18.732785 & 0.0027143565052105 & Average \\ 
0.632320 & 0.075520 & 2.327027 & 1.286561 & 145.501211 & 0.0004659522066165 & Top ten percent \\ 
