Name & AUCEC & AUCEC20 &  AUHDC & AUHDC20 & Max. HD & Max. HD Index \\ 
0.397529 & 0.061302 & 1.554901 & 0.777736 & 7.830905 & 0.0130942702397514 & Bugspots with tracking \\ 
0.397504 & 0.061288 & 1.554514 & 0.777405 & 7.830905 & 0.0130942702397514 & Bugspots \\ 
0.393531 & 0.057700 & 1.545559 & 0.769227 & 17.895566 & 0.0003679758676865 & Average \\ 
0.381076 & 0.049213 & 1.423075 & 0.663878 & 7.337302 & 0.0121801861329188 & Top ten percent \\ 
