Name & AUCEC & AUCEC20 &  AUHDC & AUHDC20 & Max. HD & Max. HD Index \\ 
0.567620 & 0.041176 & 1.403510 & 0.459297 & 4.420363 & 0.0072976054732041 & Bugspots \\ 
0.571167 & 0.041176 & 1.408343 & 0.459294 & 4.420363 & 0.0072976054732041 & Bugspots with tracking \\ 
0.533870 & 0.032780 & 1.211583 & 0.333092 & 3.257110 & 0.0049519465711028 & Top ten percent \\ 
0.522222 & 0.021302 & 1.075823 & 0.219827 & 2.705359 & 0.0059618830428409 & Average \\ 
