Name & AUCEC & AUCEC20 &  AUHDC & AUHDC20 & Max. HD & Max. HD Index \\ 
0.385659 & 0.055949 & 1.866156 & 0.949419 & 81.954956 & 0.0015643364833255 & Average \\ 
0.380327 & 0.051899 & 1.463476 & 0.553219 & 6.570195 & 0.0234157685536912 & Bugspots \\ 
0.380327 & 0.051899 & 1.463476 & 0.553219 & 6.570195 & 0.0234157685536912 & Bugspots with tracking \\ 
0.358477 & 0.031873 & 1.215671 & 0.314035 & 2.735958 & 0.0187437287616683 & Top ten percent \\ 
