Name & AUCEC & AUCEC20 &  AUHDC & AUHDC20 & Max. HD & Max. HD Index \\ 
0.515718 & 0.027938 & 1.143203 & 0.297233 & 2.148384 & 0.0280401320304585 & Bugspots \\ 
0.511949 & 0.025126 & 1.128984 & 0.281429 & 2.148384 & 0.0280401320304585 & Bugspots with tracking \\ 
0.491907 & 0.023723 & 1.104020 & 0.288434 & 4.350002 & 0.0036929311415406 & Top ten percent \\ 
0.511615 & 0.021700 & 1.040260 & 0.196203 & 1.347451 & 0.0745122389620576 & Average \\ 
