Name & AUCEC & AUCEC20 &  AUHDC & AUHDC20 & Max. HD & Max. HD Index \\ 
0.531673 & 0.074595 & 2.113364 & 1.100630 & 20.371499 & 0.0085743560245187 & Bugspots \\ 
0.531634 & 0.074452 & 2.113153 & 1.099876 & 20.371499 & 0.0085743560245187 & Bugspots with tracking \\ 
0.527140 & 0.071698 & 2.228217 & 1.221942 & 59.189491 & 0.0016230899614794 & Average \\ 
0.508666 & 0.058152 & 2.012023 & 1.024635 & 36.140741 & 0.0044706347603484 & Top ten percent \\ 
