Name & AUCEC & AUCEC20 &  AUHDC & AUHDC20 & Max. HD & Max. HD Index \\ 
0.792459 & 0.097641 & 2.576456 & 1.234606 & 18.963523 & 0.0067606177241840 & Top ten percent \\ 
0.797796 & 0.080342 & 2.216169 & 0.808624 & 7.922475 & 0.0194189517477686 & Bugspots \\ 
0.797796 & 0.080342 & 2.216169 & 0.808624 & 7.922475 & 0.0194189517477686 & Bugspots with tracking \\ 
0.788479 & 0.079931 & 2.697721 & 1.315136 & 248.025953 & 0.0005169020685519 & Average \\ 
