Name & AUCEC & AUCEC20 &  AUHDC & AUHDC20 & Max. HD & Max. HD Index \\ 
0.453465 & 0.025619 & 1.004299 & 0.280934 & 2.703016 & 0.0088085013008997 & Bugspots with tracking \\ 
0.451103 & 0.025102 & 1.000468 & 0.278309 & 2.703016 & 0.0088085013008997 & Bugspots \\ 
0.435997 & 0.018267 & 0.905349 & 0.217440 & 2.201587 & 0.0108147080028839 & Average \\ 
0.429781 & 0.016475 & 0.929536 & 0.222818 & 3.196749 & 0.0124134039685276 & Top ten percent \\ 
