Name & AUCEC & AUCEC20 &  AUHDC & AUHDC20 & Max. HD & Max. HD Index \\ 
0.510259 & 0.055339 & 1.802307 & 0.930707 & 95.108846 & 0.0005075854067619 & Bugspots \\ 
0.510250 & 0.055269 & 1.802341 & 0.930369 & 95.108846 & 0.0005075854067619 & Bugspots with tracking \\ 
0.511927 & 0.054718 & 1.596789 & 0.716751 & 13.416347 & 0.0035982866102543 & Average \\ 
0.480214 & 0.036337 & 1.284477 & 0.445836 & 5.227307 & 0.0277059661777873 & Top ten percent \\ 
