Name & AUCEC & AUCEC20 &  AUHDC & AUHDC20 & Max. HD & Max. HD Index \\ 
0.468295 & 0.042279 & 1.388427 & 0.443603 & 23.635993 & 0.0000718308240432 & Average \\ 
0.415603 & 0.036856 & 1.275873 & 0.396187 & 8.150342 & 0.0008332375589013 & Bugspots \\ 
0.415021 & 0.036275 & 1.269302 & 0.391890 & 8.150342 & 0.0008332375589013 & Bugspots with tracking \\ 
0.364760 & 0.033688 & 1.078238 & 0.326604 & 1.903811 & 0.0236323411102172 & Top ten percent \\ 
