Name & AUCEC & AUCEC20 &  AUHDC & AUHDC20 & Max. HD & Max. HD Index \\ 
0.281766 & 0.017689 & 0.650969 & 0.180702 & 1.606358 & 0.0151046271735927 & Top ten percent \\ 
0.291677 & 0.016615 & 0.666351 & 0.170849 & 1.680119 & 0.0082522841143531 & Average \\ 
0.261596 & 0.013285 & 0.568101 & 0.128312 & 0.860763 & 0.0986590038314176 & Bugspots with tracking \\ 
0.259962 & 0.012721 & 0.561162 & 0.121502 & 0.841286 & 0.1009431181844975 & Bugspots \\ 
