Name & AUCEC & AUCEC20 &  AUHDC & AUHDC20 & Max. HD & Max. HD Index \\ 
0.435239 & 0.020385 & 0.936891 & 0.225958 & 2.176064 & 0.0077889047846129 & Bugspots \\ 
0.437312 & 0.020385 & 0.941818 & 0.225958 & 2.176064 & 0.0077889047846129 & Bugspots with tracking \\ 
0.424356 & 0.017555 & 0.881655 & 0.198786 & 2.176064 & 0.0077889047846129 & Top ten percent \\ 
0.423630 & 0.015219 & 0.857327 & 0.164532 & 2.030993 & 0.0055635034175807 & Average \\ 
