Name & AUCEC & AUCEC20 &  AUHDC & AUHDC20 & Max. HD & Max. HD Index \\ 
0.487096 & 0.025742 & 1.059728 & 0.259148 & 2.154565 & 0.0239037363777893 & Bugspots with tracking \\ 
0.480374 & 0.025134 & 1.045310 & 0.253632 & 2.154565 & 0.0239037363777893 & Bugspots \\ 
0.494925 & 0.022677 & 1.037811 & 0.214699 & 1.458714 & 0.0411909704203425 & Top ten percent \\ 
0.483008 & 0.022498 & 0.988677 & 0.194610 & 1.289639 & 0.1863648157758173 & Average \\ 
