Name & AUCEC & AUCEC20 &  AUHDC & AUHDC20 & Max. HD & Max. HD Index \\ 
0.294938 & 0.022304 & 0.743998 & 0.250198 & 2.233426 & 0.0240937770629717 & Bugspots with tracking \\ 
0.294081 & 0.021264 & 0.740973 & 0.244868 & 2.233426 & 0.0240937770629717 & Bugspots \\ 
0.294221 & 0.018670 & 0.714643 & 0.217071 & 2.139305 & 0.0153717679079550 & Top ten percent \\ 
0.256492 & 0.010745 & 0.573720 & 0.158781 & 11.152811 & 0.0008041568724483 & Average \\ 
