Name & AUCEC & AUCEC20 &  AUHDC & AUHDC20 & Max. HD & Max. HD Index \\ 
0.459706 & 0.062612 & 1.607907 & 0.710888 & 7.794895 & 0.0046754247637933 & Bugspots \\ 
0.459693 & 0.062269 & 1.608455 & 0.709762 & 7.794895 & 0.0046754247637933 & Bugspots with tracking \\ 
0.458515 & 0.059995 & 1.544926 & 0.640555 & 7.853073 & 0.0003395698102027 & Average \\ 
0.449012 & 0.054702 & 1.477787 & 0.591965 & 4.317605 & 0.0704093981047799 & Top ten percent \\ 
