Name & AUCEC & AUCEC20 &  AUHDC & AUHDC20 & Max. HD & Max. HD Index \\ 
0.710397 & 0.082504 & 2.603173 & 0.905204 & 15.659383 & 0.0100171725956006 & Top ten percent \\ 
0.701763 & 0.074278 & 2.436609 & 0.740949 & 9.894882 & 0.0019816147275201 & Average \\ 
0.692741 & 0.065821 & 2.279208 & 0.586333 & 4.462560 & 0.0175754225224309 & Bugspots \\ 
0.692741 & 0.065821 & 2.279208 & 0.586333 & 4.462560 & 0.0175754225224309 & Bugspots with tracking \\ 
