Name & AUCEC & AUCEC20 &  AUHDC & AUHDC20 & Max. HD & Max. HD Index \\ 
0.691418 & 0.130621 & 3.751286 & 2.318178 & 192.008853 & 0.0005208093188191 & Average \\ 
0.688102 & 0.127178 & 3.379132 & 1.945389 & 64.218304 & 0.0015571884260870 & Bugspots \\ 
0.688102 & 0.127178 & 3.379132 & 1.945389 & 64.218304 & 0.0015571884260870 & Bugspots with tracking \\ 
0.685732 & 0.124057 & 3.465701 & 2.028164 & 64.218304 & 0.0015571884260870 & Top ten percent \\ 
