Name & AUCEC & AUCEC20 &  AUHDC & AUHDC20 & Max. HD & Max. HD Index \\ 
0.867910 & 0.125528 & 3.876828 & 2.408138 & 225.870754 & 0.0005208600793761 & Bugspots \\ 
0.867898 & 0.125528 & 3.876810 & 2.408138 & 225.870754 & 0.0005208600793761 & Bugspots with tracking \\ 
0.820148 & 0.108409 & 3.118978 & 1.762060 & 225.870754 & 0.0005208600793761 & Top ten percent \\ 
0.847398 & 0.106878 & 3.003760 & 1.557875 & 45.083440 & 0.0026095404379207 & Average \\ 
