Name & AUCEC & AUCEC20 &  AUHDC & AUHDC20 & Max. HD & Max. HD Index \\ 
0.322067 & 0.046920 & 1.170621 & 0.561888 & 4.692650 & 0.0106549593768842 & Average \\ 
0.321156 & 0.045767 & 1.129284 & 0.519075 & 3.769845 & 0.0641051953378814 & Bugspots \\ 
0.321156 & 0.045767 & 1.129284 & 0.519075 & 3.769845 & 0.0641051953378814 & Bugspots with tracking \\ 
0.309562 & 0.037396 & 1.046061 & 0.448844 & 9.538547 & 0.0006552360658958 & Top ten percent \\ 
