Name & AUCEC & AUCEC20 &  AUHDC & AUHDC20 & Max. HD & Max. HD Index \\ 
0.356067 & 0.049747 & 1.198796 & 0.546626 & 3.827783 & 0.0806460609418826 & Bugspots \\ 
0.356072 & 0.049727 & 1.198848 & 0.546548 & 3.834078 & 0.0805136638683483 & Bugspots with tracking \\ 
0.357108 & 0.049631 & 1.229563 & 0.572557 & 4.975127 & 0.0052434757664319 & Average \\ 
0.345972 & 0.041004 & 1.136373 & 0.488429 & 8.660912 & 0.0003346703803229 & Top ten percent \\ 
