Name & AUCEC & AUCEC20 &  AUHDC & AUHDC20 & Max. HD & Max. HD Index \\ 
0.557207 & 0.072578 & 2.103815 & 1.140409 & 37.390066 & 0.0022057791413503 & Bugspots with tracking \\ 
0.557226 & 0.072423 & 2.103918 & 1.139640 & 37.390066 & 0.0022057791413503 & Bugspots \\ 
0.547224 & 0.068702 & 1.886814 & 0.944167 & 13.894957 & 0.0022258316789990 & Average \\ 
0.521741 & 0.051681 & 1.725043 & 0.814881 & 14.546768 & 0.0028347955854866 & Top ten percent \\ 
