Name & AUCEC & AUCEC20 &  AUHDC & AUHDC20 & Max. HD & Max. HD Index \\ 
0.791537 & 0.131190 & 3.200057 & 1.907694 & 70.385866 & 0.0007477577857896 & Top ten percent \\ 
0.789400 & 0.129032 & 3.177976 & 1.882920 & 27.755960 & 0.0113773571316604 & Bugspots with tracking \\ 
0.790471 & 0.128907 & 3.179897 & 1.882279 & 27.755960 & 0.0113773571316604 & Bugspots \\ 
0.791069 & 0.127136 & 3.110336 & 1.798178 & 23.081205 & 0.0159619505977523 & Average \\ 
