Name & AUCEC & AUCEC20 &  AUHDC & AUHDC20 & Max. HD & Max. HD Index \\ 
0.548586 & 0.063418 & 1.937725 & 1.015503 & 120.703510 & 0.0004970857951166 & Bugspots \\ 
0.548727 & 0.063416 & 1.938387 & 1.015513 & 120.703510 & 0.0004970857951166 & Bugspots with tracking \\ 
0.537247 & 0.060500 & 1.729069 & 0.832651 & 22.180559 & 0.0027050715362158 & Average \\ 
0.527939 & 0.055292 & 1.564344 & 0.681920 & 8.321650 & 0.0288404344088462 & Top ten percent \\ 
