Name & AUCEC & AUCEC20 &  AUHDC & AUHDC20 & Max. HD & Max. HD Index \\ 
0.190473 & 0.017141 & 0.593585 & 0.195632 & 2.412478 & 0.0057471264367816 & Bugspots \\ 
0.190473 & 0.017141 & 0.593585 & 0.195632 & 2.412478 & 0.0057471264367816 & Bugspots with tracking \\ 
0.189058 & 0.013850 & 0.575673 & 0.167220 & 2.707530 & 0.0051208370173887 & Average \\ 
0.182960 & 0.011211 & 0.529342 & 0.136495 & 2.707530 & 0.0051208370173887 & Top ten percent \\ 
