Name & AUCEC & AUCEC20 &  AUHDC & AUHDC20 & Max. HD & Max. HD Index \\ 
0.453828 & 0.023586 & 0.992528 & 0.209791 & 1.442634 & 0.1320335786848348 & Top ten percent \\ 
0.439268 & 0.020442 & 1.019809 & 0.258656 & 3.894575 & 0.0101891842569499 & Bugspots \\ 
0.440118 & 0.020442 & 1.021749 & 0.258656 & 3.894575 & 0.0101891842569499 & Bugspots with tracking \\ 
0.433359 & 0.018973 & 0.957428 & 0.218731 & 2.095876 & 0.0075734533730762 & Average \\ 
