Name & AUCEC & AUCEC20 &  AUHDC & AUHDC20 & Max. HD & Max. HD Index \\ 
0.524918 & 0.071732 & 2.020678 & 1.108522 & 26.126793 & 0.0031566915845832 & Bugspots \\ 
0.524909 & 0.071717 & 2.020582 & 1.108414 & 26.126793 & 0.0031566915845832 & Bugspots with tracking \\ 
0.515655 & 0.065827 & 1.831472 & 0.932585 & 15.838110 & 0.0026036637041681 & Average \\ 
0.493423 & 0.052718 & 1.719403 & 0.854055 & 17.297119 & 0.0032780622071934 & Top ten percent \\ 
