Name & AUCEC & AUCEC20 &  AUHDC & AUHDC20 & Max. HD & Max. HD Index \\ 
0.768425 & 0.137270 & 3.367299 & 2.080697 & 63.665396 & 0.0009519466522806 & Average \\ 
0.770717 & 0.135490 & 3.399289 & 2.091943 & 63.665396 & 0.0009519466522806 & Top ten percent \\ 
0.768041 & 0.135203 & 3.459991 & 2.164881 & 63.665396 & 0.0009519466522806 & Bugspots \\ 
0.768042 & 0.135199 & 3.460014 & 2.164874 & 63.665396 & 0.0009519466522806 & Bugspots with tracking \\ 
