Name & AUCEC & AUCEC20 &  AUHDC & AUHDC20 & Max. HD & Max. HD Index \\ 
0.510567 & 0.059322 & 1.820142 & 0.942846 & 73.324214 & 0.0008631683230927 & Average \\ 
0.513387 & 0.058991 & 1.682565 & 0.796793 & 9.877061 & 0.0019223675474005 & Bugspots \\ 
0.513387 & 0.058991 & 1.682565 & 0.796793 & 9.877061 & 0.0019223675474005 & Bugspots with tracking \\ 
0.483760 & 0.041780 & 1.365131 & 0.518029 & 6.203774 & 0.0265252995794821 & Top ten percent \\ 
