Name & AUCEC & AUCEC20 &  AUHDC & AUHDC20 & Max. HD & Max. HD Index \\ 
0.437411 & 0.025849 & 1.007041 & 0.296929 & 3.201619 & 0.0122008593921526 & Bugspots \\ 
0.438595 & 0.025849 & 1.009367 & 0.296929 & 3.201619 & 0.0122008593921526 & Bugspots with tracking \\ 
0.425891 & 0.020146 & 0.923494 & 0.236301 & 2.434065 & 0.0096289558698993 & Average \\ 
0.429839 & 0.016896 & 0.950198 & 0.225022 & 2.727218 & 0.0085939215255779 & Top ten percent \\ 
