Name & AUCEC & AUCEC20 &  AUHDC & AUHDC20 & Max. HD & Max. HD Index \\ 
0.483908 & 0.027518 & 1.071101 & 0.301532 & 3.660200 & 0.0066636377404210 & Bugspots with tracking \\ 
0.480153 & 0.027277 & 1.072558 & 0.306004 & 3.660200 & 0.0066636377404210 & Bugspots \\ 
0.476166 & 0.019943 & 0.966954 & 0.211396 & 1.844774 & 0.0352567014993185 & Average \\ 
0.472160 & 0.018618 & 0.979034 & 0.208252 & 1.713741 & 0.0379524458579434 & Top ten percent \\ 
