Name & AUCEC & AUCEC20 &  AUHDC & AUHDC20 & Max. HD & Max. HD Index \\ 
0.695930 & 0.082983 & 4.893502 & 2.259230 & 225.870754 & 0.0005208600793761 & Bugspots \\ 
0.695930 & 0.082983 & 4.893502 & 2.259230 & 225.870754 & 0.0005208600793761 & Bugspots with tracking \\ 
0.685236 & 0.072289 & 4.749671 & 2.115399 & 225.870754 & 0.0005208600793761 & Average \\ 
0.666910 & 0.053963 & 3.749102 & 1.114830 & 39.625049 & 0.0059380145065296 & Top ten percent \\ 
