Name & AUCEC & AUCEC20 &  AUHDC & AUHDC20 & Max. HD & Max. HD Index \\ 
0.153884 & 0.023908 & 0.667689 & 0.356354 & 7.585034 & 0.0016531481644718 & Average \\ 
0.153094 & 0.022880 & 0.647551 & 0.334978 & 6.228922 & 0.0002516323313080 & Bugspots \\ 
0.153094 & 0.022880 & 0.647551 & 0.334978 & 6.228922 & 0.0002516323313080 & Bugspots with tracking \\ 
0.150847 & 0.020946 & 0.620051 & 0.308913 & 6.228922 & 0.0002516323313080 & Top ten percent \\ 
