Name & AUCEC & AUCEC20 &  AUHDC & AUHDC20 & Max. HD & Max. HD Index \\ 
0.605203 & 0.069512 & 1.936213 & 0.928413 & 25.009283 & 0.0033753700208550 & Bugspots \\ 
0.604363 & 0.069512 & 1.934749 & 0.928413 & 25.009283 & 0.0033753700208550 & Bugspots with tracking \\ 
0.597651 & 0.068846 & 1.976926 & 0.987811 & 33.057417 & 0.0019643114951214 & Average \\ 
0.584302 & 0.063161 & 1.733608 & 0.771897 & 7.790774 & 0.0108353276785611 & Top ten percent \\ 
