Name & AUCEC & AUCEC20 &  AUHDC & AUHDC20 & Max. HD & Max. HD Index \\ 
0.453012 & 0.023996 & 1.010241 & 0.277516 & 2.727218 & 0.0085939215255779 & Bugspots \\ 
0.452414 & 0.023805 & 1.008425 & 0.276988 & 2.727218 & 0.0085939215255779 & Bugspots with tracking \\ 
0.441543 & 0.018420 & 0.920698 & 0.207767 & 2.727218 & 0.0085939215255779 & Top ten percent \\ 
0.448835 & 0.013825 & 0.891861 & 0.165411 & 2.210822 & 0.0106012608600194 & Average \\ 
