Name & AUCEC & AUCEC20 &  AUHDC & AUHDC20 & Max. HD & Max. HD Index \\ 
0.655205 & 0.070565 & 2.128285 & 1.021123 & 83.384131 & 0.0005067333638283 & Bugspots with tracking \\ 
0.655258 & 0.070458 & 2.128511 & 1.020613 & 83.384131 & 0.0005067333638283 & Bugspots \\ 
0.653829 & 0.069839 & 2.082751 & 0.978121 & 82.025530 & 0.0005151264630221 & Average \\ 
0.631081 & 0.064979 & 1.884996 & 0.837628 & 35.328540 & 0.0011960166351226 & Top ten percent \\ 
