Name & AUCEC & AUCEC20 &  AUHDC & AUHDC20 & Max. HD & Max. HD Index \\ 
0.511752 & 0.054043 & 1.822942 & 0.696512 & 14.874349 & 0.0010343051535880 & Bugspots \\ 
0.511752 & 0.054043 & 1.822942 & 0.696512 & 14.874349 & 0.0010343051535880 & Bugspots with tracking \\ 
0.509387 & 0.051720 & 1.846274 & 0.719626 & 25.098872 & 0.0018388812720485 & Average \\ 
0.502758 & 0.044570 & 1.721235 & 0.591954 & 15.175324 & 0.0045620619806839 & Top ten percent \\ 
