Name & AUCEC & AUCEC20 &  AUHDC & AUHDC20 & Max. HD & Max. HD Index \\ 
0.498248 & 0.058422 & 1.893177 & 0.737552 & 11.742348 & 0.0089946213873295 & Average \\ 
0.496487 & 0.055624 & 1.872634 & 0.711811 & 34.391758 & 0.0003920458490677 & Bugspots \\ 
0.496487 & 0.055624 & 1.872634 & 0.711811 & 34.391758 & 0.0003920458490677 & Bugspots with tracking \\ 
0.489388 & 0.049129 & 1.664112 & 0.506286 & 5.883102 & 0.0026738167853309 & Top ten percent \\ 
