Name & AUCEC & AUCEC20 &  AUHDC & AUHDC20 & Max. HD & Max. HD Index \\ 
0.861058 & 0.134806 & 3.309837 & 1.853398 & 26.462807 & 0.0212562484184564 & Top ten percent \\ 
0.858544 & 0.130596 & 3.374585 & 1.910104 & 32.633406 & 0.0076608614830486 & Bugspots \\ 
0.858545 & 0.130592 & 3.374610 & 1.910100 & 32.633406 & 0.0076608614830486 & Bugspots with tracking \\ 
0.860688 & 0.130506 & 3.418293 & 1.939155 & 29.756655 & 0.0126022228274950 & Average \\ 
