Name & AUCEC & AUCEC20 &  AUHDC & AUHDC20 & Max. HD & Max. HD Index \\ 
0.568388 & 0.067096 & 1.918146 & 0.969015 & 38.170824 & 0.0015410599639126 & Bugspots \\ 
0.568373 & 0.066919 & 1.918213 & 0.968140 & 38.170824 & 0.0015410599639126 & Bugspots with tracking \\ 
0.572621 & 0.065371 & 1.924656 & 0.961636 & 59.992448 & 0.0007353866812135 & Average \\ 
0.556251 & 0.059327 & 1.724321 & 0.792091 & 16.050189 & 0.0045812177415971 & Top ten percent \\ 
