Name & AUCEC & AUCEC20 &  AUHDC & AUHDC20 & Max. HD & Max. HD Index \\ 
0.593968 & 0.079385 & 2.256438 & 1.201068 & 26.318506 & 0.0039821216905090 & Bugspots with tracking \\ 
0.593835 & 0.079364 & 2.255963 & 1.200941 & 26.318506 & 0.0039821216905090 & Bugspots \\ 
0.592380 & 0.079084 & 2.181346 & 1.130260 & 24.376272 & 0.0055533996597327 & Average \\ 
0.572049 & 0.069513 & 2.187689 & 1.175907 & 38.948640 & 0.0034756330315197 & Top ten percent \\ 
