Name & AUCEC & AUCEC20 &  AUHDC & AUHDC20 & Max. HD & Max. HD Index \\ 
0.820772 & 0.140619 & 3.464825 & 2.088216 & 63.665396 & 0.0009519466522806 & Average \\ 
0.824350 & 0.140077 & 3.618757 & 2.221122 & 63.665396 & 0.0009519466522806 & Top ten percent \\ 
0.816161 & 0.132397 & 3.459885 & 2.064867 & 63.665396 & 0.0009519466522806 & Bugspots \\ 
0.816170 & 0.132306 & 3.459948 & 2.064415 & 63.665396 & 0.0009519466522806 & Bugspots with tracking \\ 
