Name & AUCEC & AUCEC20 &  AUHDC & AUHDC20 & Max. HD & Max. HD Index \\ 
0.868735 & 0.116843 & 2.765779 & 1.292450 & 12.838582 & 0.0119831110374843 & Top ten percent \\ 
0.842636 & 0.087091 & 2.624207 & 1.147329 & 51.484966 & 0.0024901468819691 & Average \\ 
0.842806 & 0.086400 & 2.771959 & 1.291012 & 99.885741 & 0.0015402213766790 & Bugspots \\ 
0.842726 & 0.086400 & 2.771683 & 1.291012 & 99.885741 & 0.0015402213766790 & Bugspots with tracking \\ 
