Name & AUCEC & AUCEC20 &  AUHDC & AUHDC20 & Max. HD & Max. HD Index \\ 
0.808325 & 0.132403 & 3.204453 & 1.889363 & 29.753464 & 0.0126035743236817 & Average \\ 
0.806246 & 0.129408 & 2.976857 & 1.659992 & 21.073874 & 0.0207603023336207 & Top ten percent \\ 
0.801923 & 0.122042 & 3.112172 & 1.775774 & 28.449110 & 0.0131814318730404 & Bugspots \\ 
0.801930 & 0.121975 & 3.112193 & 1.775433 & 28.449110 & 0.0131814318730404 & Bugspots with tracking \\ 
