Name & AUCEC & AUCEC20 &  AUHDC & AUHDC20 & Max. HD & Max. HD Index \\ 
0.751981 & 0.076712 & 2.482101 & 0.871774 & 19.639995 & 0.0055344033739099 & Top ten percent \\ 
0.742666 & 0.067902 & 2.858752 & 1.250156 & 210.263471 & 0.0005169497656949 & Average \\ 
0.737774 & 0.065029 & 2.298404 & 0.698654 & 10.066022 & 0.0107982731990382 & Bugspots \\ 
0.737774 & 0.065029 & 2.298404 & 0.698654 & 10.066022 & 0.0107982731990382 & Bugspots with tracking \\ 
