Name & AUCEC & AUCEC20 &  AUHDC & AUHDC20 & Max. HD & Max. HD Index \\ 
0.162322 & 0.013312 & 1.143292 & 0.365530 & 12.380305 & 0.0015942129037575 & Average \\ 
0.162320 & 0.013311 & 1.128447 & 0.350685 & 10.179051 & 0.0064632225544935 & Bugspots \\ 
0.162320 & 0.013311 & 1.128447 & 0.350685 & 10.179051 & 0.0064632225544935 & Bugspots with tracking \\ 
0.159915 & 0.010906 & 1.041061 & 0.263299 & 8.698239 & 0.0025211798878577 & Top ten percent \\ 
