Name & AUCEC & AUCEC20 &  AUHDC & AUHDC20 & Max. HD & Max. HD Index \\ 
0.321689 & 0.044502 & 1.119523 & 0.524247 & 4.827480 & 0.0009058924954506 & Average \\ 
0.322220 & 0.044216 & 1.106838 & 0.508168 & 3.604605 & 0.0731975831437256 & Bugspots with tracking \\ 
0.322220 & 0.044215 & 1.106830 & 0.508159 & 3.604274 & 0.0732043184039148 & Bugspots \\ 
0.311397 & 0.035959 & 1.049779 & 0.459975 & 8.622009 & 0.0013525627052724 & Top ten percent \\ 
