Name & AUCEC & AUCEC20 &  AUHDC & AUHDC20 & Max. HD & Max. HD Index \\ 
0.404619 & 0.018654 & 0.828134 & 0.203693 & 1.933072 & 0.0258655614073358 & Bugspots with tracking \\ 
0.392500 & 0.016961 & 0.812638 & 0.194904 & 1.933072 & 0.0258655614073358 & Bugspots \\ 
0.358898 & 0.010684 & 0.655150 & 0.076385 & 0.946764 & 0.1584343544516813 & Top ten percent \\ 
0.390519 & 0.007871 & 0.678787 & 0.049402 & 0.954462 & 0.2619277634080214 & Average \\ 
