Name & AUCEC & AUCEC20 &  AUHDC & AUHDC20 & Max. HD & Max. HD Index \\ 
0.323536 & 0.048986 & 1.279924 & 0.643084 & 6.828059 & 0.0044473098307932 & Bugspots \\ 
0.323565 & 0.048981 & 1.280340 & 0.643325 & 6.828059 & 0.0044473098307932 & Bugspots with tracking \\ 
0.320602 & 0.047861 & 1.282949 & 0.653844 & 6.665935 & 0.0032987914503367 & Average \\ 
0.312141 & 0.042817 & 1.181200 & 0.567652 & 6.828059 & 0.0044473098307932 & Top ten percent \\ 
