Name & AUCEC & AUCEC20 &  AUHDC & AUHDC20 & Max. HD & Max. HD Index \\ 
0.592659 & 0.077405 & 1.904323 & 0.852743 & 6.120927 & 0.0042768049544462 & Average \\ 
0.590312 & 0.074963 & 1.896067 & 0.841461 & 7.540760 & 0.0074985146342825 & Bugspots \\ 
0.590208 & 0.074930 & 1.895927 & 0.841489 & 7.540760 & 0.0074985146342825 & Bugspots with tracking \\ 
0.569048 & 0.069286 & 1.792343 & 0.794414 & 12.749451 & 0.0006570450117457 & Top ten percent \\ 
