Name & AUCEC & AUCEC20 &  AUHDC & AUHDC20 & Max. HD & Max. HD Index \\ 
0.889795 & 0.162118 & 4.107940 & 2.613600 & 462.765653 & 0.0001964473599775 & Top ten percent \\ 
0.892353 & 0.159993 & 4.277443 & 2.759306 & 462.765653 & 0.0001964473599775 & Average \\ 
0.887147 & 0.159192 & 3.864638 & 2.368889 & 49.617530 & 0.0054965910783235 & Bugspots \\ 
0.887148 & 0.159187 & 3.864661 & 2.368878 & 49.617530 & 0.0054965910783235 & Bugspots with tracking \\ 
