Name & AUCEC & AUCEC20 &  AUHDC & AUHDC20 & Max. HD & Max. HD Index \\ 
0.861196 & 0.135485 & 3.171276 & 1.753192 & 22.303840 & 0.0196154560289351 & Top ten percent \\ 
0.863053 & 0.134967 & 3.383648 & 1.950889 & 29.753464 & 0.0126035743236817 & Average \\ 
0.854630 & 0.130792 & 3.227277 & 1.816956 & 27.654810 & 0.0135600281984823 & Bugspots \\ 
0.854640 & 0.130690 & 3.227357 & 1.816473 & 27.654810 & 0.0135600281984823 & Bugspots with tracking \\ 
