Name & AUCEC & AUCEC20 &  AUHDC & AUHDC20 & Max. HD & Max. HD Index \\ 
0.551849 & 0.061842 & 1.844192 & 0.927159 & 83.384131 & 0.0005067333638283 & Bugspots \\ 
0.551824 & 0.061679 & 1.844233 & 0.926354 & 83.384131 & 0.0005067333638283 & Bugspots with tracking \\ 
0.565644 & 0.060230 & 1.829630 & 0.870447 & 82.025530 & 0.0005151264630221 & Average \\ 
0.554497 & 0.055997 & 1.693119 & 0.755796 & 35.328540 & 0.0011960166351226 & Top ten percent \\ 
