Name & AUCEC & AUCEC20 &  AUHDC & AUHDC20 & Max. HD & Max. HD Index \\ 
0.326221 & 0.048303 & 1.255972 & 0.623217 & 8.405775 & 0.0014567245141662 & Average \\ 
0.325655 & 0.046998 & 1.240022 & 0.603679 & 6.053897 & 0.0017979087773574 & Bugspots with tracking \\ 
0.325654 & 0.046997 & 1.240012 & 0.603668 & 6.053897 & 0.0017979087773574 & Bugspots \\ 
0.317051 & 0.038749 & 1.149263 & 0.513188 & 5.653399 & 0.0009626380158028 & Top ten percent \\ 
