Name & AUCEC & AUCEC20 &  AUHDC & AUHDC20 & Max. HD & Max. HD Index \\ 
0.487565 & 0.062862 & 1.552157 & 0.667225 & 6.504619 & 0.0002228071121746 & Average \\ 
0.487605 & 0.062677 & 1.526870 & 0.641986 & 4.011072 & 0.1181512097169645 & Bugspots with tracking \\ 
0.487002 & 0.062622 & 1.524548 & 0.641599 & 4.006583 & 0.1182836067904988 & Bugspots \\ 
0.463384 & 0.050119 & 1.392736 & 0.549479 & 11.214683 & 0.0003876905046780 & Top ten percent \\ 
