Name & AUCEC & AUCEC20 &  AUHDC & AUHDC20 & Max. HD & Max. HD Index \\ 
0.261113 & 0.024445 & 0.870153 & 0.390944 & 17.647135 & 0.0035416512949163 & Bugspots \\ 
0.261113 & 0.024445 & 0.870153 & 0.390944 & 17.647135 & 0.0035416512949163 & Bugspots with tracking \\ 
0.262109 & 0.023003 & 0.791405 & 0.305794 & 9.359807 & 0.0066774883789567 & Average \\ 
0.257377 & 0.015907 & 0.621939 & 0.135537 & 1.295698 & 0.0964731055854792 & Top ten percent \\ 
