Name & AUCEC & AUCEC20 &  AUHDC & AUHDC20 & Max. HD & Max. HD Index \\ 
0.472308 & 0.024553 & 0.985616 & 0.199763 & 1.762877 & 0.1418136206006050 & Top ten percent \\ 
0.456744 & 0.020132 & 0.967931 & 0.229671 & 4.299810 & 0.0145355271895521 & Bugspots \\ 
0.456744 & 0.020132 & 0.967931 & 0.229671 & 4.299810 & 0.0145355271895521 & Bugspots with tracking \\ 
0.429358 & 0.017716 & 1.084134 & 0.361855 & 19.035112 & 0.0032834058879953 & Average \\ 
