Name & AUCEC & AUCEC20 &  AUHDC & AUHDC20 & Max. HD & Max. HD Index \\ 
0.625094 & 0.089476 & 2.377402 & 1.316860 & 44.783143 & 0.0019068170043211 & Average \\ 
0.622858 & 0.086084 & 2.334400 & 1.268944 & 116.406360 & 0.0005405318790961 & Bugspots \\ 
0.622827 & 0.086064 & 2.334288 & 1.268836 & 116.406360 & 0.0005405318790961 & Bugspots with tracking \\ 
0.596212 & 0.073767 & 1.981653 & 0.964333 & 12.391241 & 0.0077981871885399 & Top ten percent \\ 
