Name & AUCEC & AUCEC20 &  AUHDC & AUHDC20 & Max. HD & Max. HD Index \\ 
0.416282 & 0.016547 & 0.792006 & 0.130484 & 1.287164 & 0.0776901742029979 & Top ten percent \\ 
0.395951 & 0.016255 & 0.811715 & 0.188579 & 1.933072 & 0.0258655614073358 & Bugspots \\ 
0.403299 & 0.016255 & 0.820368 & 0.188580 & 1.933072 & 0.0258655614073358 & Bugspots with tracking \\ 
0.367831 & 0.011699 & 0.643693 & 0.079346 & 0.942870 & 0.1590887843186139 & Average \\ 
