Name & AUCEC & AUCEC20 &  AUHDC & AUHDC20 & Max. HD & Max. HD Index \\ 
0.454413 & 0.026905 & 1.097793 & 0.353513 & 5.673347 & 0.0083367543499542 & Bugspots \\ 
0.455685 & 0.026905 & 1.100612 & 0.353513 & 5.673347 & 0.0083367543499542 & Bugspots with tracking \\ 
0.433008 & 0.021034 & 0.968627 & 0.267290 & 5.673347 & 0.0083367543499542 & Top ten percent \\ 
0.443693 & 0.020157 & 1.010929 & 0.270947 & 4.566352 & 0.0103577857075189 & Average \\ 
