Name & AUCEC & AUCEC20 &  AUHDC & AUHDC20 & Max. HD & Max. HD Index \\ 
0.835066 & 0.102178 & 2.785506 & 1.366190 & 35.167321 & 0.0033453517025207 & Average \\ 
0.821551 & 0.101234 & 2.386126 & 1.010492 & 8.212765 & 0.0716245149554740 & Top ten percent \\ 
0.828586 & 0.089884 & 2.771937 & 1.332476 & 89.493857 & 0.0015336795826545 & Bugspots with tracking \\ 
0.828573 & 0.089832 & 2.769082 & 1.329500 & 89.493857 & 0.0015336795826545 & Bugspots \\ 
