Name & AUCEC & AUCEC20 &  AUHDC & AUHDC20 & Max. HD & Max. HD Index \\ 
0.596061 & 0.079379 & 2.110869 & 1.097113 & 22.185927 & 0.0044567173904916 & Average \\ 
0.589908 & 0.077280 & 2.010313 & 1.009773 & 34.391758 & 0.0003920458490677 & Bugspots \\ 
0.589908 & 0.077280 & 2.010313 & 1.009773 & 34.391758 & 0.0003920458490677 & Bugspots with tracking \\ 
0.582375 & 0.070432 & 1.939217 & 0.943408 & 14.261192 & 0.0108725957815012 & Top ten percent \\ 
