Name & AUCEC & AUCEC20 &  AUHDC & AUHDC20 & Max. HD & Max. HD Index \\ 
0.529044 & 0.032742 & 1.228857 & 0.351358 & 3.913209 & 0.0049143226640802 & Top ten percent \\ 
0.522409 & 0.026830 & 1.154424 & 0.290741 & 2.344070 & 0.0328160362107986 & Bugspots \\ 
0.526959 & 0.026830 & 1.161122 & 0.290741 & 2.344070 & 0.0328160362107986 & Bugspots with tracking \\ 
0.494903 & 0.010374 & 0.903767 & 0.080776 & 1.205459 & 0.2233430326543809 & Average \\ 
