Name & AUCEC & AUCEC20 &  AUHDC & AUHDC20 & Max. HD & Max. HD Index \\ 
0.287240 & 0.038501 & 1.304493 & 0.503202 & 4.894742 & 0.0137216981874435 & Average \\ 
0.285168 & 0.036428 & 1.272090 & 0.470798 & 4.545959 & 0.0123120657194850 & Top ten percent \\ 
0.284974 & 0.036235 & 1.280020 & 0.478728 & 5.227333 & 0.0045208221662854 & Bugspots with tracking \\ 
0.284974 & 0.036234 & 1.280005 & 0.478713 & 5.227333 & 0.0045208221662854 & Bugspots \\ 
