Name & AUCEC & AUCEC20 &  AUHDC & AUHDC20 & Max. HD & Max. HD Index \\ 
0.868274 & 0.111962 & 4.279675 & 2.787710 & 31800.700000 & 0.0000010481949559 & Average \\ 
0.875720 & 0.107573 & 3.408581 & 1.890442 & 259.597551 & 0.0005136155283794 & Bugspots \\ 
0.875677 & 0.107573 & 3.408457 & 1.890442 & 259.597551 & 0.0005136155283794 & Bugspots with tracking \\ 
0.835584 & 0.102219 & 2.475946 & 1.047569 & 12.395034 & 0.0134462448939803 & Top ten percent \\ 
