Name & AUCEC & AUCEC20 &  AUHDC & AUHDC20 & Max. HD & Max. HD Index \\ 
0.734478 & 0.077881 & 2.533197 & 0.922460 & 18.081191 & 0.0086754652178885 & Top ten percent \\ 
0.731050 & 0.073687 & 2.349279 & 0.735851 & 7.688783 & 0.0076505644297534 & Average \\ 
0.718045 & 0.063496 & 2.175529 & 0.575333 & 4.462560 & 0.0175754225224309 & Bugspots \\ 
0.718045 & 0.063496 & 2.175529 & 0.575333 & 4.462560 & 0.0175754225224309 & Bugspots with tracking \\ 
