Name & AUCEC & AUCEC20 &  AUHDC & AUHDC20 & Max. HD & Max. HD Index \\ 
0.523993 & 0.025013 & 1.146327 & 0.267867 & 2.236119 & 0.0258001939864210 & Bugspots \\ 
0.527415 & 0.025013 & 1.151654 & 0.267867 & 2.236119 & 0.0258001939864210 & Bugspots with tracking \\ 
0.508279 & 0.022675 & 1.051111 & 0.192702 & 1.549735 & 0.1985451018428710 & Average \\ 
0.471708 & 0.020896 & 0.939505 & 0.169295 & 1.380064 & 0.1393469123827999 & Top ten percent \\ 
