Name & AUCEC & AUCEC20 &  AUHDC & AUHDC20 & Max. HD & Max. HD Index \\ 
0.137508 & 0.013535 & 0.809062 & 0.255305 & 3.732186 & 0.0316108367349953 & Bugspots \\ 
0.137508 & 0.013535 & 0.809062 & 0.255305 & 3.732186 & 0.0316108367349953 & Bugspots with tracking \\ 
0.137172 & 0.013198 & 0.805008 & 0.251251 & 13.502227 & 0.0002080389192809 & Average \\ 
0.136122 & 0.012149 & 0.775746 & 0.221989 & 3.992785 & 0.0007035162270357 & Top ten percent \\ 
