Name & AUCEC & AUCEC20 &  AUHDC & AUHDC20 & Max. HD & Max. HD Index \\ 
0.453176 & 0.026940 & 1.087928 & 0.344246 & 5.673347 & 0.0083367543499542 & Bugspots \\ 
0.454454 & 0.026940 & 1.090754 & 0.344246 & 5.673347 & 0.0083367543499542 & Bugspots with tracking \\ 
0.429706 & 0.021844 & 0.973775 & 0.276936 & 5.673347 & 0.0083367543499542 & Top ten percent \\ 
0.438346 & 0.017629 & 0.989408 & 0.252217 & 4.566352 & 0.0103577857075189 & Average \\ 
