Name & AUCEC & AUCEC20 &  AUHDC & AUHDC20 & Max. HD & Max. HD Index \\ 
0.532967 & 0.067524 & 1.681035 & 0.712993 & 8.793358 & 0.0006388887521112 & Average \\ 
0.532816 & 0.064463 & 1.645980 & 0.663498 & 4.096767 & 0.1223902810125710 & Bugspots \\ 
0.532847 & 0.064436 & 1.646258 & 0.663486 & 4.101222 & 0.1222573330641548 & Bugspots with tracking \\ 
0.506817 & 0.056281 & 1.522982 & 0.609391 & 26.380074 & 0.0000532407293426 & Top ten percent \\ 
