Name & AUCEC & AUCEC20 &  AUHDC & AUHDC20 & Max. HD & Max. HD Index \\ 
0.429404 & 0.019533 & 0.913560 & 0.239295 & 2.279743 & 0.0047506774114087 & Bugspots \\ 
0.441431 & 0.019511 & 0.933246 & 0.238974 & 2.279743 & 0.0047506774114087 & Bugspots with tracking \\ 
0.457865 & 0.017974 & 0.973123 & 0.228707 & 3.378661 & 0.0117535278178555 & Top ten percent \\ 
0.443327 & 0.016790 & 0.906560 & 0.191683 & 1.893941 & 0.0228736319808565 & Average \\ 
