Name & AUCEC & AUCEC20 &  AUHDC & AUHDC20 & Max. HD & Max. HD Index \\ 
0.691418 & 0.131257 & 3.751281 & 2.321364 & 192.008853 & 0.0005208093188191 & Average \\ 
0.687997 & 0.127977 & 3.375682 & 1.946468 & 64.218304 & 0.0015571884260870 & Bugspots \\ 
0.687997 & 0.127977 & 3.375682 & 1.946468 & 64.218304 & 0.0015571884260870 & Bugspots with tracking \\ 
0.685079 & 0.124947 & 3.436447 & 2.006673 & 64.218304 & 0.0015571884260870 & Top ten percent \\ 
