Name & AUCEC & AUCEC20 &  AUHDC & AUHDC20 & Max. HD & Max. HD Index \\ 
0.485028 & 0.057482 & 1.754847 & 0.883239 & 19.091776 & 0.0073884133682742 & Bugspots \\ 
0.485028 & 0.057482 & 1.754847 & 0.883239 & 19.091776 & 0.0073884133682742 & Bugspots with tracking \\ 
0.476635 & 0.052728 & 1.746337 & 0.890339 & 22.574439 & 0.0065833134805840 & Average \\ 
0.454596 & 0.035370 & 1.396843 & 0.559480 & 14.809639 & 0.0044221999115135 & Top ten percent \\ 
