Name & AUCEC & AUCEC20 &  AUHDC & AUHDC20 & Max. HD & Max. HD Index \\ 
0.521016 & 0.051290 & 2.241832 & 0.582960 & 11.053753 & 0.0056541881841113 & Bugspots \\ 
0.521016 & 0.051290 & 2.241832 & 0.582960 & 11.053753 & 0.0056541881841113 & Bugspots with tracking \\ 
0.515845 & 0.046119 & 2.111166 & 0.452293 & 4.983023 & 0.1128832948145286 & Top ten percent \\ 
0.515845 & 0.046119 & 2.111166 & 0.452293 & 4.983023 & 0.1128832948145286 & Average \\ 
