Name & AUCEC & AUCEC20 &  AUHDC & AUHDC20 & Max. HD & Max. HD Index \\ 
0.460351 & 0.018377 & 0.914083 & 0.173521 & 1.327860 & 0.0510570656493403 & Bugspots \\ 
0.467747 & 0.018374 & 0.926145 & 0.173495 & 1.327860 & 0.0510570656493403 & Bugspots with tracking \\ 
0.451334 & 0.017032 & 0.905094 & 0.180724 & 2.176064 & 0.0077889047846129 & Top ten percent \\ 
0.455661 & 0.010447 & 0.836996 & 0.103871 & 1.269370 & 0.0044508027340645 & Average \\ 
