Name & AUCEC & AUCEC20 &  AUHDC & AUHDC20 & Max. HD & Max. HD Index \\ 
0.889822 & 0.160908 & 4.079481 & 2.587283 & 462.765653 & 0.0001964473599775 & Top ten percent \\ 
0.890344 & 0.158007 & 3.818755 & 2.309118 & 30.758888 & 0.0177332335659222 & Average \\ 
0.885434 & 0.153796 & 3.812997 & 2.306941 & 43.128846 & 0.0063235466830363 & Bugspots \\ 
0.885436 & 0.153791 & 3.813032 & 2.306942 & 43.128846 & 0.0063235466830363 & Bugspots with tracking \\ 
