Name & AUCEC & AUCEC20 &  AUHDC & AUHDC20 & Max. HD & Max. HD Index \\ 
0.922042 & 0.136488 & 4.269655 & 2.558664 & 192.008853 & 0.0005208093188191 & Average \\ 
0.920583 & 0.136102 & 4.199650 & 2.493764 & 192.395968 & 0.0005197614127451 & Bugspots \\ 
0.920583 & 0.136102 & 4.199650 & 2.493764 & 192.395968 & 0.0005197614127451 & Bugspots with tracking \\ 
0.917632 & 0.131331 & 3.918733 & 2.207569 & 64.218304 & 0.0015571884260870 & Top ten percent \\ 
