Name & AUCEC & AUCEC20 &  AUHDC & AUHDC20 & Max. HD & Max. HD Index \\ 
0.752427 & 0.091312 & 2.482628 & 1.143498 & 19.151057 & 0.0010238517596928 & Top ten percent \\ 
0.745844 & 0.076999 & 2.307932 & 0.941209 & 20.100475 & 0.0097549154850235 & Average \\ 
0.739791 & 0.070036 & 2.082875 & 0.713435 & 19.151057 & 0.0010238517596928 & Bugspots \\ 
0.739791 & 0.070036 & 2.082875 & 0.713435 & 19.151057 & 0.0010238517596928 & Bugspots with tracking \\ 
