Name & AUCEC & AUCEC20 &  AUHDC & AUHDC20 & Max. HD & Max. HD Index \\ 
0.449190 & 0.041381 & 1.337197 & 0.450416 & 5.251876 & 0.0010204081632653 & Average \\ 
0.373616 & 0.036902 & 1.223216 & 0.458499 & 10.375880 & 0.0016527737855706 & Top ten percent \\ 
0.391304 & 0.033665 & 1.147408 & 0.366957 & 7.609861 & 0.0007042253521127 & Bugspots \\ 
0.391887 & 0.033661 & 1.148074 & 0.366706 & 7.609861 & 0.0007042253521127 & Bugspots with tracking \\ 
