Name & AUCEC & AUCEC20 &  AUHDC & AUHDC20 & Max. HD & Max. HD Index \\ 
0.480717 & 0.022186 & 1.010542 & 0.244456 & 2.076806 & 0.0713345955139107 & Bugspots \\ 
0.484490 & 0.022186 & 1.015759 & 0.244456 & 2.076806 & 0.0713345955139107 & Bugspots with tracking \\ 
0.489386 & 0.021525 & 1.021644 & 0.253371 & 2.801420 & 0.0132208067259250 & Top ten percent \\ 
0.448656 & 0.021277 & 0.901018 & 0.213543 & 1.834953 & 0.0201841927927350 & Average \\ 
