Name & AUCEC & AUCEC20 &  AUHDC & AUHDC20 & Max. HD & Max. HD Index \\ 
0.446249 & 0.019043 & 0.921031 & 0.205132 & 1.597120 & 0.0695696819946732 & Bugspots with tracking \\ 
0.437936 & 0.019043 & 0.909514 & 0.205131 & 1.597120 & 0.0695696819946732 & Bugspots \\ 
0.420267 & 0.016922 & 0.850705 & 0.189517 & 2.801420 & 0.0132208067259250 & Top ten percent \\ 
0.418050 & 0.012884 & 0.772363 & 0.117847 & 1.187433 & 0.0311908352854347 & Average \\ 
