Name & AUCEC & AUCEC20 &  AUHDC & AUHDC20 & Max. HD & Max. HD Index \\ 
0.554011 & 0.069964 & 1.843243 & 0.830154 & 7.962833 & 0.0059070296950978 & Bugspots \\ 
0.554055 & 0.069961 & 1.843742 & 0.830419 & 7.962833 & 0.0059070296950978 & Bugspots with tracking \\ 
0.553192 & 0.068811 & 1.835679 & 0.818552 & 15.179564 & 0.0006817107364510 & Average \\ 
0.532150 & 0.063219 & 1.738065 & 0.782206 & 8.273729 & 0.0035247403674458 & Top ten percent \\ 
