Name & AUCEC & AUCEC20 &  AUHDC & AUHDC20 & Max. HD & Max. HD Index \\ 
0.528541 & 0.032693 & 1.225981 & 0.351047 & 3.913209 & 0.0049143226640802 & Top ten percent \\ 
0.520064 & 0.026738 & 1.147001 & 0.290195 & 2.344070 & 0.0328160362107986 & Bugspots \\ 
0.523947 & 0.025588 & 1.144730 & 0.280790 & 2.344070 & 0.0328160362107986 & Bugspots with tracking \\ 
0.496582 & 0.010298 & 0.907054 & 0.080592 & 1.205459 & 0.2233430326543809 & Average \\ 
