Name & AUCEC & AUCEC20 &  AUHDC & AUHDC20 & Max. HD & Max. HD Index \\ 
0.927657 & 0.136281 & 3.433038 & 1.847227 & 64.218304 & 0.0015571884260870 & Top ten percent \\ 
0.857441 & 0.133720 & 3.846067 & 2.434965 & 192.395968 & 0.0005197614127451 & Bugspots \\ 
0.857472 & 0.133720 & 3.846120 & 2.434966 & 192.395968 & 0.0005197614127451 & Bugspots with tracking \\ 
0.906208 & 0.131298 & 3.724471 & 2.197062 & 192.008853 & 0.0005208093188191 & Average \\ 
