Name & AUCEC & AUCEC20 &  AUHDC & AUHDC20 & Max. HD & Max. HD Index \\ 
0.276852 & 0.006638 & 3.064643 & 0.259332 & 9.698381 & 0.0071383839454021 & Average \\ 
0.275818 & 0.005603 & 3.009069 & 0.203758 & 8.453629 & 0.0081894729554378 & Bugspots \\ 
0.275818 & 0.005603 & 3.009069 & 0.203758 & 8.453629 & 0.0081894729554378 & Bugspots with tracking \\ 
0.275411 & 0.005197 & 2.995421 & 0.190110 & 6.861872 & 0.0033630652357030 & Top ten percent \\ 
