Name & AUCEC & AUCEC20 &  AUHDC & AUHDC20 & Max. HD & Max. HD Index \\ 
0.596704 & 0.075556 & 1.898690 & 0.834851 & 6.022841 & 0.0078474066681664 & Average \\ 
0.594901 & 0.074000 & 1.855943 & 0.792098 & 5.460215 & 0.0082004319622436 & Bugspots \\ 
0.595254 & 0.073934 & 1.857204 & 0.791940 & 5.460215 & 0.0082004319622436 & Bugspots with tracking \\ 
0.568016 & 0.062935 & 1.696203 & 0.686264 & 4.672253 & 0.0511115205052459 & Top ten percent \\ 
