Name & AUCEC & AUCEC20 &  AUHDC & AUHDC20 & Max. HD & Max. HD Index \\ 
0.684497 & 0.087992 & 2.766698 & 0.972914 & 15.659383 & 0.0100171725956006 & Top ten percent \\ 
0.668848 & 0.072344 & 2.464763 & 0.670979 & 6.732416 & 0.0087373578959846 & Average \\ 
0.664066 & 0.067562 & 2.349640 & 0.555855 & 4.501827 & 0.1263103676529982 & Bugspots \\ 
0.664066 & 0.067562 & 2.349640 & 0.555855 & 4.501827 & 0.1263103676529982 & Bugspots with tracking \\ 
