Name & AUCEC & AUCEC20 &  AUHDC & AUHDC20 & Max. HD & Max. HD Index \\ 
0.692285 & 0.113601 & 4.219916 & 2.261060 & 192.008853 & 0.0005208093188191 & Average \\ 
0.688472 & 0.109788 & 3.826408 & 1.867552 & 64.218304 & 0.0015571884260870 & Bugspots \\ 
0.688472 & 0.109788 & 3.826408 & 1.867552 & 64.218304 & 0.0015571884260870 & Bugspots with tracking \\ 
0.666639 & 0.087956 & 3.708644 & 1.749788 & 192.395968 & 0.0005197614127451 & Top ten percent \\ 
