Name & AUCEC & AUCEC20 &  AUHDC & AUHDC20 & Max. HD & Max. HD Index \\ 
0.892359 & 0.137705 & 3.528363 & 1.962873 & 29.756655 & 0.0126022228274950 & Average \\ 
0.892743 & 0.135404 & 3.378410 & 1.799056 & 25.240759 & 0.0198092303566996 & Top ten percent \\ 
0.887917 & 0.132617 & 3.539871 & 1.971060 & 33.974160 & 0.0091981671909792 & Bugspots \\ 
0.887918 & 0.132612 & 3.539884 & 1.971038 & 33.974160 & 0.0091981671909792 & Bugspots with tracking \\ 
