Name & AUCEC & AUCEC20 &  AUHDC & AUHDC20 & Max. HD & Max. HD Index \\ 
0.187251 & 0.028875 & 0.849017 & 0.398038 & 26.380074 & 0.0000532407293426 & Average \\ 
0.186750 & 0.028430 & 0.818452 & 0.367762 & 3.736765 & 0.0338272513750265 & Bugspots \\ 
0.186750 & 0.028430 & 0.818452 & 0.367762 & 3.736765 & 0.0338272513750265 & Bugspots with tracking \\ 
0.183609 & 0.025188 & 0.758914 & 0.307682 & 3.992785 & 0.0007035162270357 & Top ten percent \\ 
