Name & AUCEC & AUCEC20 &  AUHDC & AUHDC20 & Max. HD & Max. HD Index \\ 
0.104334 & 0.016554 & 0.543745 & 0.258046 & 3.527274 & 0.0119154301433811 & Average \\ 
0.104085 & 0.016304 & 0.537175 & 0.251476 & 3.206368 & 0.0054239893690054 & Bugspots \\ 
0.104085 & 0.016304 & 0.537175 & 0.251476 & 3.206368 & 0.0054239893690054 & Bugspots with tracking \\ 
0.101471 & 0.013691 & 0.492135 & 0.206436 & 2.812936 & 0.0046369623207736 & Top ten percent \\ 
