Name & AUCEC & AUCEC20 &  AUHDC & AUHDC20 & Max. HD & Max. HD Index \\ 
0.811975 & 0.124679 & 3.811211 & 2.443421 & 225.870754 & 0.0005208600793761 & Bugspots \\ 
0.811975 & 0.124679 & 3.811211 & 2.443421 & 225.870754 & 0.0005208600793761 & Bugspots with tracking \\ 
0.773594 & 0.106005 & 3.310048 & 2.002632 & 225.870754 & 0.0005208600793761 & Average \\ 
0.765415 & 0.100569 & 3.499850 & 2.199004 & 225.870754 & 0.0005208600793761 & Top ten percent \\ 
