Name & AUCEC & AUCEC20 &  AUHDC & AUHDC20 & Max. HD & Max. HD Index \\ 
0.299074 & 0.041118 & 1.076745 & 0.510846 & 7.044360 & 0.0013350238959212 & Average \\ 
0.299807 & 0.040471 & 1.065118 & 0.492441 & 6.228922 & 0.0002516323313080 & Bugspots with tracking \\ 
0.299806 & 0.040471 & 1.065113 & 0.492436 & 6.228922 & 0.0002516323313080 & Bugspots \\ 
0.289293 & 0.034362 & 0.990493 & 0.436475 & 6.228922 & 0.0002516323313080 & Top ten percent \\ 
