Name & AUCEC & AUCEC20 &  AUHDC & AUHDC20 & Max. HD & Max. HD Index \\ 
0.594069 & 0.072534 & 2.258186 & 1.270186 & 132.830931 & 0.0004786822951867 & Bugspots \\ 
0.594580 & 0.072005 & 2.259793 & 1.267530 & 132.830931 & 0.0004786822951867 & Bugspots with tracking \\ 
0.587761 & 0.070068 & 2.124739 & 1.146805 & 61.473234 & 0.0010343333294673 & Average \\ 
0.567138 & 0.059668 & 1.895058 & 0.953602 & 36.186764 & 0.0019168379133248 & Top ten percent \\ 
