Name & AUCEC & AUCEC20 &  AUHDC & AUHDC20 & Max. HD & Max. HD Index \\ 
0.393760 & 0.029001 & 0.960777 & 0.317872 & 4.785664 & 0.0130598391500037 & Average \\ 
0.361073 & 0.028770 & 1.013797 & 0.447569 & 19.035112 & 0.0032834058879953 & Top ten percent \\ 
0.367977 & 0.026265 & 0.828098 & 0.245929 & 2.090652 & 0.0896849406035564 & Bugspots \\ 
0.376990 & 0.026265 & 0.839430 & 0.245931 & 2.090652 & 0.0896849406035564 & Bugspots with tracking \\ 
