Name & AUCEC & AUCEC20 &  AUHDC & AUHDC20 & Max. HD & Max. HD Index \\ 
0.606316 & 0.073932 & 1.883601 & 0.797650 & 6.376820 & 0.0062415118863678 & Bugspots \\ 
0.606391 & 0.073865 & 1.884086 & 0.797493 & 6.376820 & 0.0062415118863678 & Bugspots with tracking \\ 
0.608994 & 0.073497 & 1.917133 & 0.817891 & 5.667395 & 0.0072422645338261 & Average \\ 
0.581440 & 0.066319 & 1.729341 & 0.706115 & 4.733003 & 0.0517694312805715 & Top ten percent \\ 
