Name & AUCEC & AUCEC20 &  AUHDC & AUHDC20 & Max. HD & Max. HD Index \\ 
0.507523 & 0.030823 & 1.156564 & 0.330274 & 2.703110 & 0.0386287133566456 & Bugspots with tracking \\ 
0.498062 & 0.029859 & 1.141809 & 0.325337 & 2.703110 & 0.0386287133566456 & Bugspots \\ 
0.509563 & 0.027786 & 1.134171 & 0.295719 & 2.520770 & 0.0191182718389490 & Top ten percent \\ 
0.494944 & 0.023771 & 1.017516 & 0.207436 & 1.312745 & 0.1652014771724566 & Average \\ 
