Name & AUCEC & AUCEC20 &  AUHDC & AUHDC20 & Max. HD & Max. HD Index \\ 
0.448037 & 0.020172 & 0.922931 & 0.211612 & 1.597120 & 0.0695696819946732 & Bugspots with tracking \\ 
0.436958 & 0.020172 & 0.907355 & 0.211612 & 1.597120 & 0.0695696819946732 & Bugspots \\ 
0.431767 & 0.016922 & 0.859757 & 0.189431 & 2.801420 & 0.0132208067259250 & Top ten percent \\ 
0.426211 & 0.009506 & 0.737578 & 0.062992 & 0.996233 & 0.7435420209864262 & Average \\ 
