Name & AUCEC & AUCEC20 &  AUHDC & AUHDC20 & Max. HD & Max. HD Index \\ 
0.663571 & 0.034131 & 5.281272 & 1.034981 & 31.405467 & 0.0016758731759219 & Bugspots \\ 
0.663571 & 0.034131 & 5.281272 & 1.034981 & 31.405467 & 0.0016758731759219 & Bugspots with tracking \\ 
0.662164 & 0.032724 & 5.251888 & 1.005597 & 25.884840 & 0.0162663797084380 & Average \\ 
0.659352 & 0.029913 & 5.197983 & 0.951692 & 31.405467 & 0.0016758731759219 & Top ten percent \\ 
