Name & AUCEC & AUCEC20 &  AUHDC & AUHDC20 & Max. HD & Max. HD Index \\ 
0.846296 & 0.134594 & 3.582582 & 2.101245 & 66.922946 & 0.0007471278964434 & Top ten percent \\ 
0.842779 & 0.134147 & 3.481592 & 2.014223 & 32.992488 & 0.0060619859149308 & Bugspots with tracking \\ 
0.842779 & 0.134146 & 3.481579 & 2.014210 & 32.992488 & 0.0060619859149308 & Bugspots \\ 
0.843691 & 0.131640 & 3.378946 & 1.894816 & 25.775882 & 0.0174581807934613 & Average \\ 
