Name & AUCEC & AUCEC20 &  AUHDC & AUHDC20 & Max. HD & Max. HD Index \\ 
0.144174 & 0.021074 & 0.664155 & 0.311318 & 4.768584 & 0.0107887247189744 & Average \\ 
0.143686 & 0.020599 & 0.653824 & 0.301051 & 4.674301 & 0.0041273775395319 & Bugspots \\ 
0.143686 & 0.020599 & 0.653824 & 0.301051 & 4.674301 & 0.0041273775395319 & Bugspots with tracking \\ 
0.141348 & 0.018169 & 0.600811 & 0.247562 & 3.274243 & 0.0112934461194666 & Top ten percent \\ 
