Name & AUCEC & AUCEC20 &  AUHDC & AUHDC20 & Max. HD & Max. HD Index \\ 
0.577374 & 0.071757 & 1.842320 & 0.841161 & 18.393813 & 0.0003855752260461 & Average \\ 
0.575070 & 0.071450 & 1.802055 & 0.804152 & 7.344982 & 0.0141619011201919 & Bugspots \\ 
0.575070 & 0.071450 & 1.802055 & 0.804152 & 7.344982 & 0.0141619011201919 & Bugspots with tracking \\ 
0.555881 & 0.061054 & 1.768224 & 0.806111 & 13.679631 & 0.0006912660820551 & Top ten percent \\ 
