Name & AUCEC & AUCEC20 &  AUHDC & AUHDC20 & Max. HD & Max. HD Index \\ 
0.656647 & 0.081610 & 2.456168 & 0.941714 & 19.639995 & 0.0055344033739099 & Top ten percent \\ 
0.640806 & 0.066628 & 2.738399 & 1.228219 & 210.263471 & 0.0005169497656949 & Average \\ 
0.636103 & 0.062463 & 2.157065 & 0.649546 & 10.066022 & 0.0107982731990382 & Bugspots \\ 
0.636103 & 0.062463 & 2.157065 & 0.649546 & 10.066022 & 0.0107982731990382 & Bugspots with tracking \\ 
