Name & AUCEC & AUCEC20 &  AUHDC & AUHDC20 & Max. HD & Max. HD Index \\ 
0.198362 & 0.022500 & 0.810046 & 0.273626 & 3.201619 & 0.0122008593921526 & Bugspots \\ 
0.198362 & 0.022500 & 0.810046 & 0.273626 & 3.201619 & 0.0122008593921526 & Bugspots with tracking \\ 
0.198006 & 0.022144 & 0.780733 & 0.244314 & 2.000690 & 0.0078098045980617 & Average \\ 
0.197472 & 0.021610 & 0.736601 & 0.200182 & 1.419871 & 0.0770316469591946 & Top ten percent \\ 
