Name & AUCEC & AUCEC20 &  AUHDC & AUHDC20 & Max. HD & Max. HD Index \\ 
0.565784 & 0.071921 & 1.754485 & 0.741804 & 5.087877 & 0.0273104419483321 & Bugspots \\ 
0.565814 & 0.071871 & 1.754710 & 0.741640 & 5.087877 & 0.0273104419483321 & Bugspots with tracking \\ 
0.567415 & 0.069116 & 1.752783 & 0.720551 & 4.561106 & 0.0389547026867013 & Average \\ 
0.543881 & 0.059236 & 1.664372 & 0.678663 & 65.039239 & 0.0000350235388636 & Top ten percent \\ 
