Name & AUCEC & AUCEC20 &  AUHDC & AUHDC20 & Max. HD & Max. HD Index \\ 
0.884434 & 0.138033 & 3.260448 & 1.811310 & 24.577466 & 0.0178008586687313 & Top ten percent \\ 
0.884957 & 0.135809 & 3.415120 & 1.946637 & 29.756655 & 0.0126022228274950 & Average \\ 
0.883493 & 0.126031 & 3.313583 & 1.822427 & 29.355023 & 0.0127746450548037 & Bugspots \\ 
0.883517 & 0.125881 & 3.313690 & 1.821672 & 29.355023 & 0.0127746450548037 & Bugspots with tracking \\ 
