Name & AUCEC & AUCEC20 &  AUHDC & AUHDC20 & Max. HD & Max. HD Index \\ 
0.484679 & 0.026190 & 1.057677 & 0.252525 & 1.727468 & 0.0253155401251311 & Bugspots \\ 
0.498338 & 0.025260 & 1.097921 & 0.253015 & 1.981485 & 0.0279555893096091 & Average \\ 
0.483477 & 0.022981 & 1.005956 & 0.201732 & 1.311349 & 0.1778597519077068 & Bugspots with tracking \\ 
0.469958 & 0.015151 & 0.932699 & 0.143189 & 1.175951 & 0.2330476293804926 & Top ten percent \\ 
