Name & AUCEC & AUCEC20 &  AUHDC & AUHDC20 & Max. HD & Max. HD Index \\ 
0.356411 & 0.027397 & 0.838617 & 0.279633 & 2.077406 & 0.0601711798125876 & Bugspots \\ 
0.361285 & 0.027010 & 0.844543 & 0.277676 & 2.077406 & 0.0601711798125876 & Bugspots with tracking \\ 
0.368901 & 0.024011 & 0.779380 & 0.190287 & 1.570088 & 0.1194200546004575 & Average \\ 
0.347753 & 0.018394 & 0.768441 & 0.191072 & 2.536115 & 0.0246439902604589 & Top ten percent \\ 
