Name & AUCEC & AUCEC20 &  AUHDC & AUHDC20 & Max. HD & Max. HD Index \\ 
0.531931 & 0.060175 & 1.862602 & 0.963457 & 95.108846 & 0.0005075854067619 & Bugspots \\ 
0.531858 & 0.060165 & 1.862325 & 0.963364 & 95.108846 & 0.0005075854067619 & Bugspots with tracking \\ 
0.523446 & 0.056274 & 1.625782 & 0.745590 & 12.651842 & 0.0054510258900084 & Average \\ 
0.508569 & 0.048559 & 1.519909 & 0.664070 & 13.979785 & 0.0034532622083223 & Top ten percent \\ 
