Name & AUCEC & AUCEC20 &  AUHDC & AUHDC20 & Max. HD & Max. HD Index \\ 
0.443290 & 0.015763 & 0.843662 & 0.136042 & 0.990306 & 0.1281457911483946 & Bugspots \\ 
0.456446 & 0.015111 & 0.865606 & 0.132797 & 0.990306 & 0.1281457911483946 & Bugspots with tracking \\ 
0.457312 & 0.011913 & 0.876210 & 0.133998 & 1.739361 & 0.0145919712017485 & Top ten percent \\ 
0.439654 & 0.008016 & 0.780091 & 0.069602 & 0.990235 & 0.5946388969241153 & Average \\ 
