Name & AUCEC & AUCEC20 &  AUHDC & AUHDC20 & Max. HD & Max. HD Index \\ 
0.437519 & 0.020323 & 0.909432 & 0.212691 & 1.597120 & 0.0695696819946732 & Bugspots \\ 
0.449064 & 0.020323 & 0.925510 & 0.212691 & 1.597120 & 0.0695696819946732 & Bugspots with tracking \\ 
0.423294 & 0.016922 & 0.850149 & 0.189431 & 2.801420 & 0.0132208067259250 & Top ten percent \\ 
0.424587 & 0.009485 & 0.736477 & 0.062812 & 0.981700 & 0.7545486634791259 & Average \\ 
