Name & AUCEC & AUCEC20 &  AUHDC & AUHDC20 & Max. HD & Max. HD Index \\ 
0.427917 & 0.016520 & 0.789788 & 0.129779 & 1.371716 & 0.1093521144317367 & Top ten percent \\ 
0.435332 & 0.011650 & 0.791643 & 0.106896 & 1.085922 & 0.4604381563775748 & Bugspots \\ 
0.443212 & 0.011650 & 0.802735 & 0.106896 & 1.082479 & 0.4619028327464240 & Bugspots with tracking \\ 
0.416126 & 0.010515 & 0.742629 & 0.074085 & 1.157890 & 0.1295459503256568 & Average \\ 
