Name & AUCEC & AUCEC20 &  AUHDC & AUHDC20 & Max. HD & Max. HD Index \\ 
0.456379 & 0.025584 & 1.007294 & 0.280577 & 2.703016 & 0.0088085013008997 & Bugspots with tracking \\ 
0.451681 & 0.025067 & 1.000309 & 0.277953 & 2.703016 & 0.0088085013008997 & Bugspots \\ 
0.438527 & 0.018567 & 0.904801 & 0.221658 & 2.201587 & 0.0108147080028839 & Average \\ 
0.436397 & 0.017141 & 0.930860 & 0.229665 & 2.703016 & 0.0088085013008997 & Top ten percent \\ 
