Name & AUCEC & AUCEC20 &  AUHDC & AUHDC20 & Max. HD & Max. HD Index \\ 
0.436043 & 0.019534 & 0.916732 & 0.203154 & 1.548687 & 0.0583690987124464 & Bugspots \\ 
0.438143 & 0.019534 & 0.921717 & 0.203154 & 1.548687 & 0.0583690987124464 & Bugspots with tracking \\ 
0.425935 & 0.015076 & 0.856703 & 0.162157 & 2.030993 & 0.0055635034175807 & Average \\ 
0.427264 & 0.013118 & 0.862945 & 0.155832 & 2.176064 & 0.0077889047846129 & Top ten percent \\ 
