Name & AUCEC & AUCEC20 &  AUHDC & AUHDC20 & Max. HD & Max. HD Index \\ 
0.454040 & 0.059186 & 1.385028 & 0.597540 & 4.072375 & 0.0161314781702047 & Bugspots \\ 
0.454662 & 0.059146 & 1.386256 & 0.597378 & 4.072375 & 0.0161314781702047 & Bugspots with tracking \\ 
0.454602 & 0.058553 & 1.430588 & 0.636702 & 4.358581 & 0.0293070666075509 & Average \\ 
0.414683 & 0.049178 & 1.239343 & 0.541280 & 4.854284 & 0.0007518380293013 & Top ten percent \\ 
