Name & AUCEC & AUCEC20 &  AUHDC & AUHDC20 & Max. HD & Max. HD Index \\ 
0.541363 & 0.059758 & 1.814706 & 0.913896 & 83.384131 & 0.0005067333638283 & Bugspots \\ 
0.541453 & 0.058585 & 1.815143 & 0.908010 & 83.384131 & 0.0005067333638283 & Bugspots with tracking \\ 
0.548693 & 0.058517 & 1.793261 & 0.863188 & 82.025530 & 0.0005151264630221 & Average \\ 
0.529853 & 0.051470 & 1.604255 & 0.709273 & 35.328540 & 0.0011960166351226 & Top ten percent \\ 
