Name & AUCEC & AUCEC20 &  AUHDC & AUHDC20 & Max. HD & Max. HD Index \\ 
0.232925 & 0.031396 & 0.884941 & 0.407979 & 4.223537 & 0.0214358221237615 & Average \\ 
0.231859 & 0.030390 & 0.858524 & 0.381722 & 3.787300 & 0.0239048872383109 & Bugspots \\ 
0.231859 & 0.030390 & 0.858524 & 0.381722 & 3.787300 & 0.0239048872383109 & Bugspots with tracking \\ 
0.225520 & 0.024537 & 0.779310 & 0.303998 & 3.286151 & 0.0275504662960582 & Top ten percent \\ 
