Name & AUCEC & AUCEC20 &  AUHDC & AUHDC20 & Max. HD & Max. HD Index \\ 
0.191167 & 0.013897 & 1.152788 & 0.271519 & 3.731544 & 0.0308789987540465 & Bugspots \\ 
0.191167 & 0.013897 & 1.152788 & 0.271519 & 3.731544 & 0.0308789987540465 & Bugspots with tracking \\ 
0.191070 & 0.013800 & 1.161547 & 0.280279 & 3.981846 & 0.0211866923268327 & Average \\ 
0.188980 & 0.011710 & 1.103652 & 0.222384 & 3.175989 & 0.0265624747786537 & Top ten percent \\ 
