Name & AUCEC & AUCEC20 &  AUHDC & AUHDC20 & Max. HD & Max. HD Index \\ 
0.381723 & 0.052599 & 1.355577 & 0.626779 & 7.691886 & 0.0001617003969374 & Average \\ 
0.380554 & 0.051556 & 1.342949 & 0.612959 & 5.227333 & 0.0045208221662854 & Bugspots \\ 
0.380563 & 0.051554 & 1.343058 & 0.613013 & 5.227333 & 0.0045208221662854 & Bugspots with tracking \\ 
0.372489 & 0.044512 & 1.253697 & 0.527705 & 4.393987 & 0.0492532002946403 & Top ten percent \\ 
