Name & AUCEC & AUCEC20 &  AUHDC & AUHDC20 & Max. HD & Max. HD Index \\ 
0.448842 & 0.024326 & 0.996676 & 0.275920 & 2.703016 & 0.0088085013008997 & Bugspots with tracking \\ 
0.448072 & 0.024290 & 0.995308 & 0.275721 & 2.703016 & 0.0088085013008997 & Bugspots \\ 
0.426153 & 0.016958 & 0.910623 & 0.224204 & 2.703016 & 0.0088085013008997 & Top ten percent \\ 
0.436235 & 0.014580 & 0.867265 & 0.168755 & 2.201587 & 0.0108147080028839 & Average \\ 
