Name & AUCEC & AUCEC20 &  AUHDC & AUHDC20 & Max. HD & Max. HD Index \\ 
0.822820 & 0.148804 & 3.529071 & 2.154412 & 29.272317 & 0.0147517596651155 & Average \\ 
0.819270 & 0.142260 & 3.421165 & 2.031286 & 25.770459 & 0.0008819118251492 & Top ten percent \\ 
0.812350 & 0.133979 & 3.151023 & 1.754123 & 27.128758 & 0.0016755114922244 & Bugspots \\ 
0.812354 & 0.133976 & 3.151108 & 1.754177 & 27.128758 & 0.0016755114922244 & Bugspots with tracking \\ 
