Name & AUCEC & AUCEC20 &  AUHDC & AUHDC20 & Max. HD & Max. HD Index \\ 
0.410114 & 0.053703 & 1.281463 & 0.565954 & 4.257209 & 0.0154311025252501 & Bugspots \\ 
0.410122 & 0.053666 & 1.281515 & 0.565785 & 4.257209 & 0.0154311025252501 & Bugspots with tracking \\ 
0.399515 & 0.051361 & 1.273525 & 0.584352 & 4.424407 & 0.0371199091825946 & Average \\ 
0.365111 & 0.041473 & 1.082666 & 0.469518 & 3.483799 & 0.0419040838599346 & Top ten percent \\ 
