Name & AUCEC & AUCEC20 &  AUHDC & AUHDC20 & Max. HD & Max. HD Index \\ 
0.464518 & 0.017856 & 0.970221 & 0.215511 & 2.511038 & 0.0093047133185741 & Top ten percent \\ 
0.457956 & 0.017838 & 0.911285 & 0.165470 & 1.156333 & 0.0808226649982353 & Bugspots with tracking \\ 
0.450218 & 0.017833 & 0.899963 & 0.165446 & 1.156333 & 0.0808226649982353 & Bugspots \\ 
0.452365 & 0.015209 & 0.886753 & 0.154897 & 1.576192 & 0.0148233708730388 & Average \\ 
