Name & AUCEC & AUCEC20 &  AUHDC & AUHDC20 & Max. HD & Max. HD Index \\ 
0.780168 & 0.102927 & 3.319058 & 1.917751 & 259.597551 & 0.0005136155283794 & Bugspots \\ 
0.780168 & 0.102927 & 3.319058 & 1.917751 & 259.597551 & 0.0005136155283794 & Bugspots with tracking \\ 
0.773844 & 0.102229 & 2.973397 & 1.588440 & 81.055310 & 0.0012337254630663 & Top ten percent \\ 
0.766382 & 0.091240 & 29.122417 & 27.730047 & 31800.700000 & 0.0000010481949559 & Average \\ 
