Name & AUCEC & AUCEC20 &  AUHDC & AUHDC20 & Max. HD & Max. HD Index \\ 
0.526649 & 0.031614 & 1.140503 & 0.272139 & 1.974138 & 0.0974135143873262 & Top ten percent \\ 
0.524864 & 0.027023 & 1.162563 & 0.291249 & 2.344070 & 0.0328160362107986 & Bugspots \\ 
0.528449 & 0.027023 & 1.167003 & 0.291249 & 2.344070 & 0.0328160362107986 & Bugspots with tracking \\ 
0.517093 & 0.025414 & 1.053895 & 0.200083 & 1.743209 & 0.1544455221467831 & Average \\ 
