Name & AUCEC & AUCEC20 &  AUHDC & AUHDC20 & Max. HD & Max. HD Index \\ 
0.569135 & 0.067589 & 1.883651 & 0.927745 & 39.853554 & 0.0015441147931862 & Bugspots with tracking \\ 
0.568956 & 0.067192 & 1.881603 & 0.925164 & 39.853554 & 0.0015441147931862 & Bugspots \\ 
0.588154 & 0.067131 & 1.866460 & 0.857571 & 27.847040 & 0.0016574058242080 & Average \\ 
0.577735 & 0.063119 & 1.802618 & 0.815141 & 15.175324 & 0.0045620619806839 & Top ten percent \\ 
