Name & AUCEC & AUCEC20 &  AUHDC & AUHDC20 & Max. HD & Max. HD Index \\ 
0.563567 & 0.066735 & 1.912907 & 0.967998 & 34.285591 & 0.0023997976455213 & Bugspots \\ 
0.568807 & 0.065839 & 1.967819 & 1.001978 & 48.625532 & 0.0013016030268857 & Average \\ 
0.563813 & 0.065626 & 1.914030 & 0.962488 & 34.285591 & 0.0023997976455213 & Bugspots with tracking \\ 
0.553000 & 0.059242 & 1.719091 & 0.780900 & 9.633667 & 0.0236512336245692 & Top ten percent \\ 
