Name & AUCEC & AUCEC20 &  AUHDC & AUHDC20 & Max. HD & Max. HD Index \\ 
0.761450 & 0.060749 & 2.247616 & 0.631184 & 6.570195 & 0.0234157685536912 & Bugspots \\ 
0.761450 & 0.060749 & 2.247616 & 0.631184 & 6.570195 & 0.0234157685536912 & Bugspots with tracking \\ 
0.761570 & 0.060474 & 2.799091 & 1.180619 & 248.025953 & 0.0005169020685519 & Average \\ 
0.763692 & 0.058996 & 2.347055 & 0.714152 & 13.709698 & 0.0093514189643296 & Top ten percent \\ 
