Name & AUCEC & AUCEC20 &  AUHDC & AUHDC20 & Max. HD & Max. HD Index \\ 
0.490519 & 0.067289 & 1.744434 & 0.893432 & 11.881727 & 0.0209190897839521 & Bugspots \\ 
0.490519 & 0.067289 & 1.744434 & 0.893432 & 11.881727 & 0.0209190897839521 & Bugspots with tracking \\ 
0.483634 & 0.063834 & 1.857235 & 1.019542 & 22.134221 & 0.0084873676635113 & Average \\ 
0.466346 & 0.047624 & 1.506948 & 0.672038 & 9.904324 & 0.0172167463109247 & Top ten percent \\ 
