Name & AUCEC & AUCEC20 &  AUHDC & AUHDC20 & Max. HD & Max. HD Index \\ 
0.459208 & 0.016562 & 0.958865 & 0.202211 & 3.507962 & 0.0045537667180609 & Top ten percent \\ 
0.444832 & 0.016562 & 0.883924 & 0.151380 & 1.029026 & 0.2794291656208541 & Average \\ 
0.452994 & 0.013781 & 0.937338 & 0.190377 & 3.205116 & 0.0049840438882714 & Bugspots with tracking \\ 
0.431571 & 0.013576 & 0.900471 & 0.189113 & 3.205116 & 0.0049840438882714 & Bugspots \\ 
