Name & AUCEC & AUCEC20 &  AUHDC & AUHDC20 & Max. HD & Max. HD Index \\ 
0.454678 & 0.025426 & 1.004914 & 0.279362 & 2.703016 & 0.0088085013008997 & Bugspots with tracking \\ 
0.449626 & 0.024909 & 0.997362 & 0.276738 & 2.703016 & 0.0088085013008997 & Bugspots \\ 
0.446551 & 0.018841 & 0.926200 & 0.221057 & 2.201587 & 0.0108147080028839 & Average \\ 
0.453495 & 0.018558 & 0.976118 & 0.238295 & 2.703016 & 0.0088085013008997 & Top ten percent \\ 
