Name & AUCEC & AUCEC20 &  AUHDC & AUHDC20 & Max. HD & Max. HD Index \\ 
0.575666 & 0.074391 & 2.306187 & 1.334801 & 145.501211 & 0.0004659522066165 & Bugspots with tracking \\ 
0.575613 & 0.074111 & 2.305924 & 1.333364 & 145.501211 & 0.0004659522066165 & Bugspots \\ 
0.579138 & 0.071746 & 2.081487 & 1.094921 & 37.500776 & 0.0025611522649398 & Average \\ 
0.569660 & 0.066899 & 2.189782 & 1.216023 & 145.501211 & 0.0004659522066165 & Top ten percent \\ 
