Name & AUCEC & AUCEC20 &  AUHDC & AUHDC20 & Max. HD & Max. HD Index \\ 
0.254131 & 0.026041 & 1.430033 & 0.453055 & 16.237955 & 0.0001458187256064 & Average \\ 
0.253878 & 0.025787 & 1.418660 & 0.441682 & 4.822697 & 0.0446782370205822 & Bugspots \\ 
0.253878 & 0.025787 & 1.418660 & 0.441682 & 4.822697 & 0.0446782370205822 & Bugspots with tracking \\ 
0.252640 & 0.024550 & 1.389296 & 0.412319 & 4.946461 & 0.0258490062608976 & Top ten percent \\ 
