Name & AUCEC & AUCEC20 &  AUHDC & AUHDC20 & Max. HD & Max. HD Index \\ 
0.801657 & 0.097209 & 2.679556 & 1.316269 & 36.929067 & 0.0029433630675568 & Top ten percent \\ 
0.800352 & 0.077810 & 2.378987 & 0.963850 & 21.241781 & 0.0010234137349254 & Bugspots \\ 
0.800053 & 0.077810 & 2.378133 & 0.963851 & 21.241781 & 0.0010234137349254 & Bugspots with tracking \\ 
0.793323 & 0.075278 & 2.430972 & 1.029569 & 57.588829 & 0.0018874433635918 & Average \\ 
