Name & AUCEC & AUCEC20 &  AUHDC & AUHDC20 & Max. HD & Max. HD Index \\ 
0.458263 & 0.021124 & 0.989543 & 0.214390 & 1.510860 & 0.0540305956384941 & Average \\ 
0.446841 & 0.020334 & 0.951048 & 0.195788 & 1.426817 & 0.0081733029546852 & Top ten percent \\ 
0.455745 & 0.016289 & 0.950580 & 0.164062 & 1.218185 & 0.2441141369209070 & Bugspots with tracking \\ 
0.431245 & 0.016191 & 0.897619 & 0.160794 & 1.218185 & 0.2441141369209070 & Bugspots \\ 
