Name & AUCEC & AUCEC20 &  AUHDC & AUHDC20 & Max. HD & Max. HD Index \\ 
0.510672 & 0.074216 & 2.106608 & 0.943159 & 11.881727 & 0.0209190897839521 & Bugspots \\ 
0.510672 & 0.074216 & 2.106608 & 0.943159 & 11.881727 & 0.0209190897839521 & Bugspots with tracking \\ 
0.506567 & 0.069385 & 2.239082 & 1.071966 & 22.134221 & 0.0084873676635113 & Average \\ 
0.499547 & 0.063399 & 1.934807 & 0.772767 & 9.904324 & 0.0172167463109247 & Top ten percent \\ 
