Name & AUCEC & AUCEC20 &  AUHDC & AUHDC20 & Max. HD & Max. HD Index \\ 
0.341548 & 0.016965 & 0.750023 & 0.195633 & 3.999676 & 0.0032283819904884 & Average \\ 
0.342431 & 0.013987 & 0.688287 & 0.123572 & 0.843469 & 0.1071614538133093 & Bugspots with tracking \\ 
0.334012 & 0.013773 & 0.671456 & 0.128353 & 0.909824 & 0.1017113895928073 & Top ten percent \\ 
0.341467 & 0.013586 & 0.686454 & 0.121473 & 0.843469 & 0.1071614538133093 & Bugspots \\ 
