Name & AUCEC & AUCEC20 &  AUHDC & AUHDC20 & Max. HD & Max. HD Index \\ 
0.491621 & 0.027140 & 1.077162 & 0.259307 & 1.727468 & 0.0253155401251311 & Bugspots \\ 
0.502604 & 0.027032 & 1.102989 & 0.262440 & 2.129092 & 0.0301254927489060 & Average \\ 
0.482445 & 0.022725 & 1.002590 & 0.200010 & 1.311349 & 0.1778597519077068 & Bugspots with tracking \\ 
0.471995 & 0.017632 & 0.962749 & 0.166158 & 1.230357 & 0.2180029655347004 & Top ten percent \\ 
