Name & AUCEC & AUCEC20 &  AUHDC & AUHDC20 & Max. HD & Max. HD Index \\ 
0.388176 & 0.016014 & 0.795172 & 0.183828 & 1.933072 & 0.0258655614073358 & Bugspots \\ 
0.400942 & 0.016014 & 0.811823 & 0.183828 & 1.933072 & 0.0258655614073358 & Bugspots with tracking \\ 
0.389335 & 0.012457 & 0.709018 & 0.094692 & 1.060443 & 0.0943002274922871 & Top ten percent \\ 
0.393045 & 0.012084 & 0.714406 & 0.098886 & 1.061495 & 0.0942067375112967 & Average \\ 
