Name & AUCEC & AUCEC20 &  AUHDC & AUHDC20 & Max. HD & Max. HD Index \\ 
0.831542 & 0.078346 & 5.443110 & 1.759742 & 76.346537 & 0.0006549085486428 & Top ten percent \\ 
0.829889 & 0.076693 & 5.326706 & 1.643338 & 27.474099 & 0.0036397918322080 & Average \\ 
0.829515 & 0.076319 & 5.289690 & 1.606321 & 25.970639 & 0.0173272595554362 & Bugspots with tracking \\ 
0.829514 & 0.076318 & 5.289669 & 1.606300 & 25.970639 & 0.0173272595554362 & Bugspots \\ 
