Name & AUCEC & AUCEC20 &  AUHDC & AUHDC20 & Max. HD & Max. HD Index \\ 
0.871718 & 0.140323 & 3.398341 & 1.978183 & 29.753464 & 0.0126035743236817 & Average \\ 
0.869791 & 0.134993 & 3.177294 & 1.742935 & 22.303840 & 0.0196154560289351 & Top ten percent \\ 
0.865417 & 0.131981 & 3.250219 & 1.826191 & 27.654810 & 0.0135600281984823 & Bugspots \\ 
0.866926 & 0.130137 & 3.253191 & 1.817057 & 27.654810 & 0.0135600281984823 & Bugspots with tracking \\ 
