Name & AUCEC & AUCEC20 &  AUHDC & AUHDC20 & Max. HD & Max. HD Index \\ 
0.540931 & 0.063078 & 1.927269 & 1.012844 & 120.703510 & 0.0004970857951166 & Bugspots with tracking \\ 
0.541002 & 0.063066 & 1.927537 & 1.012818 & 120.703510 & 0.0004970857951166 & Bugspots \\ 
0.532638 & 0.059154 & 1.737004 & 0.840560 & 34.434717 & 0.0017424275862649 & Average \\ 
0.517896 & 0.051343 & 1.513699 & 0.641071 & 8.194405 & 0.0284747137815723 & Top ten percent \\ 
