Name & AUCEC & AUCEC20 &  AUHDC & AUHDC20 & Max. HD & Max. HD Index \\ 
0.690976 & 0.088655 & 2.636403 & 1.475268 & 131.244033 & 0.0004990869458099 & Bugspots \\ 
0.691153 & 0.088477 & 2.636780 & 1.474248 & 131.244033 & 0.0004990869458099 & Bugspots with tracking \\ 
0.686690 & 0.087971 & 2.365568 & 1.213689 & 27.195377 & 0.0011240030156694 & Average \\ 
0.655145 & 0.080130 & 2.270704 & 1.185919 & 24.636782 & 0.0076216497995722 & Top ten percent \\ 
