Name & AUCEC & AUCEC20 &  AUHDC & AUHDC20 & Max. HD & Max. HD Index \\ 
0.357630 & 0.053596 & 1.591210 & 0.680521 & 16.237955 & 0.0001458187256064 & Average \\ 
0.357332 & 0.053298 & 1.581106 & 0.670417 & 8.375460 & 0.0039578925160866 & Bugspots with tracking \\ 
0.357332 & 0.053298 & 1.581104 & 0.670415 & 8.375460 & 0.0039578925160866 & Bugspots \\ 
0.353999 & 0.049915 & 1.521003 & 0.610055 & 5.305931 & 0.0334691205579583 & Top ten percent \\ 
