Name & AUCEC & AUCEC20 &  AUHDC & AUHDC20 & Max. HD & Max. HD Index \\ 
0.307880 & 0.047089 & 1.248449 & 0.643980 & 7.241998 & 0.0028917997020944 & Average \\ 
0.308631 & 0.047072 & 1.232211 & 0.624073 & 6.828059 & 0.0044473098307932 & Bugspots with tracking \\ 
0.308610 & 0.047051 & 1.231859 & 0.623721 & 6.828059 & 0.0044473098307932 & Bugspots \\ 
0.299941 & 0.040035 & 1.139479 & 0.538000 & 5.584057 & 0.0071257471921423 & Top ten percent \\ 
