Name & AUCEC & AUCEC20 &  AUHDC & AUHDC20 & Max. HD & Max. HD Index \\ 
0.513961 & 0.057711 & 1.933520 & 0.795788 & 17.488442 & 0.0058862406109689 & Bugspots \\ 
0.513961 & 0.057711 & 1.933520 & 0.795788 & 17.488442 & 0.0058862406109689 & Bugspots with tracking \\ 
0.511152 & 0.055855 & 2.021609 & 0.888646 & 87.069784 & 0.0005066929629474 & Average \\ 
0.501854 & 0.046336 & 1.736517 & 0.602461 & 26.374855 & 0.0022302882799715 & Top ten percent \\ 
