Name & AUCEC & AUCEC20 &  AUHDC & AUHDC20 & Max. HD & Max. HD Index \\ 
0.820869 & 0.103615 & 3.274635 & 1.856666 & 259.597551 & 0.0005136155283794 & Bugspots \\ 
0.820869 & 0.103615 & 3.274635 & 1.856666 & 259.597551 & 0.0005136155283794 & Bugspots with tracking \\ 
0.790417 & 0.097843 & 2.815082 & 1.471331 & 108.906507 & 0.0003060729271159 & Top ten percent \\ 
0.810841 & 0.094813 & 11.277828 & 9.863627 & 31800.700000 & 0.0000010481949559 & Average \\ 
