Name & AUCEC & AUCEC20 &  AUHDC & AUHDC20 & Max. HD & Max. HD Index \\ 
0.900494 & 0.139303 & 3.648626 & 2.146118 & 68.361554 & 0.0014628105070794 & Top ten percent \\ 
0.898032 & 0.137376 & 3.405689 & 1.901912 & 25.283756 & 0.0138428800011611 & Average \\ 
0.894260 & 0.131553 & 3.355392 & 1.847990 & 27.427229 & 0.0127610412259791 & Bugspots \\ 
0.895435 & 0.131467 & 3.357921 & 1.847570 & 27.427229 & 0.0127610412259791 & Bugspots with tracking \\ 
