Name & AUCEC & AUCEC20 &  AUHDC & AUHDC20 & Max. HD & Max. HD Index \\ 
0.400887 & 0.014578 & 0.813992 & 0.176063 & 1.933072 & 0.0258655614073358 & Bugspots \\ 
0.408851 & 0.014404 & 0.823595 & 0.175114 & 1.933072 & 0.0258655614073358 & Bugspots with tracking \\ 
0.392863 & 0.013231 & 0.706384 & 0.095114 & 0.998413 & 0.1502383994515255 & Top ten percent \\ 
0.373314 & 0.012331 & 0.667201 & 0.091679 & 0.969847 & 0.1546635918850696 & Average \\ 
