Name & AUCEC & AUCEC20 &  AUHDC & AUHDC20 & Max. HD & Max. HD Index \\ 
0.500148 & 0.021449 & 1.039956 & 0.220103 & 1.743782 & 0.0220563956943802 & Top ten percent \\ 
0.474115 & 0.021099 & 0.962810 & 0.198766 & 1.293997 & 0.1545598626428052 & Bugspots with tracking \\ 
0.467083 & 0.020548 & 0.944445 & 0.190217 & 1.293997 & 0.1545598626428052 & Bugspots \\ 
0.475380 & 0.020066 & 0.962361 & 0.199706 & 1.551060 & 0.0247969358779634 & Average \\ 
