Name & AUCEC & AUCEC20 &  AUHDC & AUHDC20 & Max. HD & Max. HD Index \\ 
0.823117 & 0.146778 & 3.494589 & 2.109596 & 29.272317 & 0.0147517596651155 & Average \\ 
0.819374 & 0.144120 & 3.418435 & 2.038974 & 25.393819 & 0.0035799692298666 & Top ten percent \\ 
0.811827 & 0.136623 & 3.146836 & 1.767627 & 27.128758 & 0.0016755114922244 & Bugspots \\ 
0.811830 & 0.136621 & 3.146908 & 1.767669 & 27.128758 & 0.0016755114922244 & Bugspots with tracking \\ 
