Name & AUCEC & AUCEC20 &  AUHDC & AUHDC20 & Max. HD & Max. HD Index \\ 
0.277960 & 0.017808 & 0.677024 & 0.213682 & 2.412478 & 0.0057471264367816 & Bugspots \\ 
0.277807 & 0.017629 & 0.677757 & 0.213564 & 2.412478 & 0.0057471264367816 & Bugspots with tracking \\ 
0.279002 & 0.015250 & 0.639545 & 0.170154 & 2.707530 & 0.0051208370173887 & Average \\ 
0.275584 & 0.014244 & 0.614157 & 0.142982 & 1.094909 & 0.0459033303860890 & Top ten percent \\ 
