Name & AUCEC & AUCEC20 &  AUHDC & AUHDC20 & Max. HD & Max. HD Index \\ 
0.555804 & 0.069932 & 1.728428 & 0.728476 & 8.793358 & 0.0006388887521112 & Average \\ 
0.558404 & 0.068190 & 1.703488 & 0.685676 & 4.197659 & 0.1251366409469833 & Bugspots \\ 
0.558440 & 0.068175 & 1.703804 & 0.685738 & 4.202123 & 0.1250036929985671 & Bugspots with tracking \\ 
0.526634 & 0.055385 & 1.563255 & 0.611511 & 26.380074 & 0.0000532407293426 & Top ten percent \\ 
