Name & AUCEC & AUCEC20 &  AUHDC & AUHDC20 & Max. HD & Max. HD Index \\ 
0.494171 & 0.025134 & 1.070186 & 0.257279 & 2.154565 & 0.0239037363777893 & Bugspots with tracking \\ 
0.485381 & 0.025126 & 1.056970 & 0.257234 & 2.154565 & 0.0239037363777893 & Bugspots \\ 
0.495265 & 0.020737 & 1.038342 & 0.207428 & 1.515185 & 0.0424883238194084 & Top ten percent \\ 
0.486130 & 0.019883 & 0.983854 & 0.178517 & 1.229797 & 0.1221458225220550 & Average \\ 
