Name & AUCEC & AUCEC20 &  AUHDC & AUHDC20 & Max. HD & Max. HD Index \\ 
0.316759 & 0.045808 & 1.246475 & 0.568012 & 7.691886 & 0.0001617003969374 & Average \\ 
0.312987 & 0.041633 & 1.202704 & 0.522464 & 5.227333 & 0.0045208221662854 & Bugspots with tracking \\ 
0.312987 & 0.041632 & 1.202685 & 0.522445 & 5.227333 & 0.0045208221662854 & Bugspots \\ 
0.312673 & 0.041255 & 1.176763 & 0.495525 & 4.321408 & 0.0431727716281224 & Top ten percent \\ 
