Name & AUCEC & AUCEC20 &  AUHDC & AUHDC20 & Max. HD & Max. HD Index \\ 
0.473427 & 0.024444 & 1.114699 & 0.340815 & 5.673347 & 0.0083367543499542 & Bugspots \\ 
0.481379 & 0.024371 & 1.126020 & 0.340389 & 5.673347 & 0.0083367543499542 & Bugspots with tracking \\ 
0.472013 & 0.020120 & 1.032500 & 0.269912 & 4.566352 & 0.0103577857075189 & Average \\ 
0.455998 & 0.018779 & 0.984743 & 0.250261 & 5.673347 & 0.0083367543499542 & Top ten percent \\ 
