Name & AUCEC & AUCEC20 &  AUHDC & AUHDC20 & Max. HD & Max. HD Index \\ 
0.530956 & 0.025596 & 1.162049 & 0.225325 & 1.938186 & 0.0892984157775622 & Top ten percent \\ 
0.528665 & 0.024359 & 1.204457 & 0.263434 & 2.236119 & 0.0258001939864210 & Bugspots \\ 
0.528665 & 0.024359 & 1.204457 & 0.263434 & 2.236119 & 0.0258001939864210 & Bugspots with tracking \\ 
0.511709 & 0.022746 & 1.123054 & 0.227796 & 1.685008 & 0.0228257355318461 & Average \\ 
