Name & AUCEC & AUCEC20 &  AUHDC & AUHDC20 & Max. HD & Max. HD Index \\ 
0.917543 & 0.133327 & 4.336353 & 2.546121 & 192.008853 & 0.0005208093188191 & Average \\ 
0.913293 & 0.129796 & 3.868275 & 2.081256 & 64.218304 & 0.0015571884260870 & Bugspots \\ 
0.913293 & 0.129796 & 3.868275 & 2.081256 & 64.218304 & 0.0015571884260870 & Bugspots with tracking \\ 
0.910129 & 0.113969 & 3.798833 & 1.956647 & 64.218304 & 0.0015571884260870 & Top ten percent \\ 
