Name & AUCEC & AUCEC20 &  AUHDC & AUHDC20 & Max. HD & Max. HD Index \\ 
0.491607 & 0.059370 & 1.570272 & 0.715970 & 7.314251 & 0.0275214372352948 & Bugspots \\ 
0.491607 & 0.059370 & 1.570272 & 0.715970 & 7.314251 & 0.0275214372352948 & Bugspots with tracking \\ 
0.490781 & 0.057017 & 1.679524 & 0.817409 & 25.814422 & 0.0025154568341495 & Average \\ 
0.462643 & 0.040237 & 1.309215 & 0.488465 & 5.871508 & 0.0265424429332735 & Top ten percent \\ 
