Name & AUCEC & AUCEC20 &  AUHDC & AUHDC20 & Max. HD & Max. HD Index \\ 
0.602490 & 0.068064 & 1.953867 & 0.931394 & 39.853554 & 0.0015441147931862 & Bugspots \\ 
0.602409 & 0.068064 & 1.953520 & 0.931394 & 39.853554 & 0.0015441147931862 & Bugspots with tracking \\ 
0.601408 & 0.066820 & 1.906646 & 0.885139 & 27.847040 & 0.0016574058242080 & Average \\ 
0.575745 & 0.059191 & 1.735230 & 0.771276 & 15.175324 & 0.0045620619806839 & Top ten percent \\ 
