Name & AUCEC & AUCEC20 &  AUHDC & AUHDC20 & Max. HD & Max. HD Index \\ 
0.608464 & 0.080314 & 2.196757 & 1.174364 & 21.577791 & 0.0061988720085362 & Average \\ 
0.606868 & 0.076994 & 2.309996 & 1.282727 & 132.535705 & 0.0004805819487492 & Bugspots with tracking \\ 
0.606950 & 0.076789 & 2.310324 & 1.281735 & 132.535705 & 0.0004805819487492 & Bugspots \\ 
0.591160 & 0.076396 & 2.111559 & 1.132768 & 36.487503 & 0.0019202106939011 & Top ten percent \\ 
