Name & AUCEC & AUCEC20 &  AUHDC & AUHDC20 & Max. HD & Max. HD Index \\ 
0.623757 & 0.083086 & 2.397451 & 1.348860 & 126.912487 & 0.0005010051947445 & Bugspots with tracking \\ 
0.623049 & 0.083058 & 2.395559 & 1.348777 & 126.912487 & 0.0005010051947445 & Bugspots \\ 
0.616010 & 0.081992 & 2.212731 & 1.182659 & 20.426708 & 0.0094798249878464 & Average \\ 
0.593761 & 0.074383 & 2.155953 & 1.171026 & 29.225578 & 0.0047468119298678 & Top ten percent \\ 
