Name & AUCEC & AUCEC20 &  AUHDC & AUHDC20 & Max. HD & Max. HD Index \\ 
0.502288 & 0.058096 & 1.594989 & 0.712345 & 7.314251 & 0.0275214372352948 & Bugspots \\ 
0.502288 & 0.058096 & 1.594989 & 0.712345 & 7.314251 & 0.0275214372352948 & Bugspots with tracking \\ 
0.493597 & 0.056456 & 1.663901 & 0.810177 & 25.814422 & 0.0025154568341495 & Average \\ 
0.471591 & 0.046525 & 1.440135 & 0.628127 & 9.012097 & 0.0136901130006017 & Top ten percent \\ 
