Name & AUCEC & AUCEC20 &  AUHDC & AUHDC20 & Max. HD & Max. HD Index \\ 
0.430555 & 0.024413 & 1.008598 & 0.236159 & 1.654077 & 0.0363258951738454 & Top ten percent \\ 
0.428810 & 0.023445 & 0.980009 & 0.209668 & 1.380921 & 0.1771536066424494 & Bugspots \\ 
0.428810 & 0.023445 & 0.980009 & 0.209668 & 1.380921 & 0.1771536066424494 & Bugspots with tracking \\ 
0.421482 & 0.022402 & 0.943624 & 0.192024 & 1.330567 & 0.1645044110015568 & Average \\ 
