Name & AUCEC & AUCEC20 &  AUHDC & AUHDC20 & Max. HD & Max. HD Index \\ 
0.502302 & 0.067887 & 1.643490 & 0.736049 & 4.896083 & 0.0213970834129379 & Bugspots \\ 
0.502468 & 0.067868 & 1.644112 & 0.736067 & 4.896083 & 0.0213970834129379 & Bugspots with tracking \\ 
0.500454 & 0.066058 & 1.669217 & 0.759267 & 6.971684 & 0.0005854586590197 & Average \\ 
0.479077 & 0.053917 & 1.517125 & 0.642488 & 5.324347 & 0.0176317505029314 & Top ten percent \\ 
