Name & AUCEC & AUCEC20 &  AUHDC & AUHDC20 & Max. HD & Max. HD Index \\ 
0.769053 & 0.138072 & 3.431443 & 2.105541 & 63.665396 & 0.0009519466522806 & Average \\ 
0.766943 & 0.135052 & 3.418852 & 2.088368 & 63.665396 & 0.0009519466522806 & Top ten percent \\ 
0.767120 & 0.134133 & 3.465956 & 2.129904 & 63.665396 & 0.0009519466522806 & Bugspots \\ 
0.767121 & 0.134128 & 3.465982 & 2.129902 & 63.665396 & 0.0009519466522806 & Bugspots with tracking \\ 
