Name & AUCEC & AUCEC20 &  AUHDC & AUHDC20 & Max. HD & Max. HD Index \\ 
0.631569 & 0.070558 & 2.090430 & 1.025645 & 90.531529 & 0.0005098096395982 & Bugspots with tracking \\ 
0.631334 & 0.070449 & 2.089887 & 1.025112 & 90.531529 & 0.0005098096395982 & Bugspots \\ 
0.625866 & 0.069561 & 1.974427 & 0.925194 & 27.847040 & 0.0016574058242080 & Average \\ 
0.618067 & 0.066917 & 1.863195 & 0.832369 & 15.175324 & 0.0045620619806839 & Top ten percent \\ 
