Name & AUCEC & AUCEC20 &  AUHDC & AUHDC20 & Max. HD & Max. HD Index \\ 
0.563176 & 0.077814 & 2.344161 & 1.395837 & 141.079411 & 0.0004680891081053 & Bugspots with tracking \\ 
0.563142 & 0.077691 & 2.344026 & 1.395215 & 141.079411 & 0.0004680891081053 & Bugspots \\ 
0.564643 & 0.074586 & 2.018996 & 1.057647 & 20.011456 & 0.0058928509162607 & Average \\ 
0.553645 & 0.068349 & 2.164856 & 1.221679 & 85.757526 & 0.0009900665785433 & Top ten percent \\ 
