Name & AUCEC & AUCEC20 &  AUHDC & AUHDC20 & Max. HD & Max. HD Index \\ 
0.678897 & 0.068907 & 2.346321 & 0.774449 & 13.709698 & 0.0093514189643296 & Top ten percent \\ 
0.671047 & 0.062275 & 2.802642 & 1.234809 & 248.025953 & 0.0005169020685519 & Average \\ 
0.665784 & 0.056600 & 2.148449 & 0.579055 & 6.570195 & 0.0234157685536912 & Bugspots \\ 
0.665784 & 0.056600 & 2.148449 & 0.579055 & 6.570195 & 0.0234157685536912 & Bugspots with tracking \\ 
