Name & AUCEC & AUCEC20 &  AUHDC & AUHDC20 & Max. HD & Max. HD Index \\ 
0.576425 & 0.043245 & 1.482793 & 0.514406 & 3.903001 & 0.0537221045772927 & Bugspots \\ 
0.579251 & 0.043245 & 1.487012 & 0.514406 & 3.903001 & 0.0537221045772927 & Bugspots with tracking \\ 
0.523019 & 0.031081 & 1.222421 & 0.346864 & 3.257110 & 0.0049519465711028 & Top ten percent \\ 
0.549745 & 0.030915 & 1.280957 & 0.351587 & 3.877916 & 0.0124776022153445 & Average \\ 
