Name & AUCEC & AUCEC20 &  AUHDC & AUHDC20 & Max. HD & Max. HD Index \\ 
0.586302 & 0.073350 & 1.834955 & 0.779535 & 5.167536 & 0.0072144064294041 & Average \\ 
0.583990 & 0.073107 & 1.803116 & 0.756517 & 6.407237 & 0.0130061253418723 & Bugspots \\ 
0.584013 & 0.073101 & 1.803330 & 0.756581 & 6.407237 & 0.0130061253418723 & Bugspots with tracking \\ 
0.560153 & 0.064442 & 1.722998 & 0.728684 & 13.699350 & 0.0017608723221587 & Top ten percent \\ 
