Name & AUCEC & AUCEC20 &  AUHDC & AUHDC20 & Max. HD & Max. HD Index \\ 
0.197065 & 0.031399 & 0.798533 & 0.416001 & 6.228922 & 0.0002516323313080 & Bugspots \\ 
0.197065 & 0.031399 & 0.798533 & 0.416001 & 6.228922 & 0.0002516323313080 & Bugspots with tracking \\ 
0.197310 & 0.030577 & 0.808638 & 0.420857 & 7.195451 & 0.0023961498118248 & Average \\ 
0.192699 & 0.027388 & 0.755885 & 0.374836 & 6.228922 & 0.0002516323313080 & Top ten percent \\ 
