Name & AUCEC & AUCEC20 &  AUHDC & AUHDC20 & Max. HD & Max. HD Index \\ 
0.857240 & 0.132200 & 3.372148 & 1.926519 & 29.756655 & 0.0126022228274950 & Average \\ 
0.857363 & 0.131664 & 3.219800 & 1.774279 & 24.513842 & 0.0178470593706196 & Top ten percent \\ 
0.852338 & 0.129141 & 3.356115 & 1.915876 & 33.974160 & 0.0091981671909792 & Bugspots \\ 
0.852339 & 0.129137 & 3.356140 & 1.915872 & 33.974160 & 0.0091981671909792 & Bugspots with tracking \\ 
