Name & AUCEC & AUCEC20 &  AUHDC & AUHDC20 & Max. HD & Max. HD Index \\ 
0.454545 & 0.018891 & 0.926847 & 0.197015 & 1.454101 & 0.0543951676998887 & Bugspots \\ 
0.466579 & 0.018888 & 0.945747 & 0.196981 & 1.454101 & 0.0543951676998887 & Bugspots with tracking \\ 
0.462270 & 0.015066 & 0.918205 & 0.180634 & 3.384988 & 0.0033381020505484 & Top ten percent \\ 
0.460091 & 0.010286 & 0.863847 & 0.110776 & 1.269370 & 0.0044508027340645 & Average \\ 
