Name & AUCEC & AUCEC20 &  AUHDC & AUHDC20 & Max. HD & Max. HD Index \\ 
0.486618 & 0.022703 & 1.025839 & 0.254048 & 2.285515 & 0.0486153451208164 & Bugspots \\ 
0.492294 & 0.022703 & 1.033971 & 0.254048 & 2.285515 & 0.0486153451208164 & Bugspots with tracking \\ 
0.500862 & 0.022343 & 1.041260 & 0.246691 & 1.961788 & 0.0566376792991689 & Top ten percent \\ 
0.458891 & 0.019973 & 0.885208 & 0.179662 & 1.448162 & 0.0255752013605879 & Average \\ 
