Name & AUCEC & AUCEC20 &  AUHDC & AUHDC20 & Max. HD & Max. HD Index \\ 
0.501261 & 0.014567 & 0.998069 & 0.141047 & 1.375355 & 0.2544797282557886 & Top ten percent \\ 
0.434397 & 0.009362 & 0.760703 & 0.060886 & 1.197827 & 0.6261335660195082 & Average \\ 
0.454272 & 0.007326 & 0.792528 & 0.048170 & 1.216721 & 0.6164106079965097 & Bugspots \\ 
0.454696 & 0.007326 & 0.793244 & 0.048170 & 1.220919 & 0.6142915017607280 & Bugspots with tracking \\ 
