Name & AUCEC & AUCEC20 &  AUHDC & AUHDC20 & Max. HD & Max. HD Index \\ 
0.367969 & 0.053400 & 1.441229 & 0.623659 & 5.548895 & 0.0086503708207477 & Bugspots with tracking \\ 
0.367932 & 0.053374 & 1.440440 & 0.622929 & 5.548895 & 0.0086503708207477 & Bugspots \\ 
0.365410 & 0.050647 & 1.383368 & 0.564672 & 7.853073 & 0.0003395698102027 & Average \\ 
0.359122 & 0.044894 & 1.340946 & 0.524658 & 3.998934 & 0.0255623699746065 & Top ten percent \\ 
