Name & AUCEC & AUCEC20 &  AUHDC & AUHDC20 & Max. HD & Max. HD Index \\ 
0.481458 & 0.028251 & 1.088428 & 0.320561 & 3.660200 & 0.0066636377404210 & Bugspots \\ 
0.483770 & 0.028028 & 1.092335 & 0.319945 & 3.660200 & 0.0066636377404210 & Bugspots with tracking \\ 
0.468496 & 0.020716 & 0.956656 & 0.220199 & 1.844774 & 0.0352567014993185 & Average \\ 
0.460034 & 0.018753 & 0.967948 & 0.227313 & 2.088830 & 0.0077843404513100 & Top ten percent \\ 
