Name & AUCEC & AUCEC20 &  AUHDC & AUHDC20 & Max. HD & Max. HD Index \\ 
0.474282 & 0.021076 & 0.953554 & 0.193179 & 1.212434 & 0.1268903123555438 & Top ten percent \\ 
0.484954 & 0.020327 & 0.969664 & 0.188211 & 1.293997 & 0.1545598626428052 & Bugspots with tracking \\ 
0.469806 & 0.020310 & 0.945121 & 0.188126 & 1.293997 & 0.1545598626428052 & Bugspots \\ 
0.471415 & 0.018770 & 0.947490 & 0.190476 & 1.551060 & 0.0247969358779634 & Average \\ 
