Name & AUCEC & AUCEC20 &  AUHDC & AUHDC20 & Max. HD & Max. HD Index \\ 
0.759095 & 0.137691 & 3.430605 & 2.081373 & 29.272317 & 0.0147517596651155 & Average \\ 
0.751512 & 0.130831 & 3.074695 & 1.729138 & 18.888980 & 0.0036096082418229 & Bugspots \\ 
0.751515 & 0.125833 & 3.074776 & 1.703368 & 18.888980 & 0.0036096082418229 & Bugspots with tracking \\ 
0.742052 & 0.122510 & 3.144129 & 1.800378 & 27.128758 & 0.0016755114922244 & Top ten percent \\ 
