Name & AUCEC & AUCEC20 &  AUHDC & AUHDC20 & Max. HD & Max. HD Index \\ 
0.870316 & 0.117096 & 3.030530 & 1.549082 & 108.906507 & 0.0003060729271159 & Top ten percent \\ 
0.873800 & 0.106243 & 3.377767 & 1.866640 & 259.597551 & 0.0005136155283794 & Bugspots \\ 
0.873696 & 0.106243 & 3.377404 & 1.866640 & 259.597551 & 0.0005136155283794 & Bugspots with tracking \\ 
0.865191 & 0.098670 & 4.113493 & 2.606937 & 31800.700000 & 0.0000010481949559 & Average \\ 
