Name & AUCEC & AUCEC20 &  AUHDC & AUHDC20 & Max. HD & Max. HD Index \\ 
0.559948 & 0.072800 & 1.823638 & 0.801322 & 7.381957 & 0.0001684893449005 & Average \\ 
0.560507 & 0.070089 & 1.790576 & 0.753886 & 5.227333 & 0.0045208221662854 & Bugspots \\ 
0.560487 & 0.070066 & 1.790803 & 0.753945 & 5.227333 & 0.0045208221662854 & Bugspots with tracking \\ 
0.535557 & 0.058445 & 1.634556 & 0.645711 & 4.338216 & 0.0539002351753292 & Top ten percent \\ 
