Name & AUCEC & AUCEC20 &  AUHDC & AUHDC20 & Max. HD & Max. HD Index \\ 
0.280854 & 0.017637 & 0.644029 & 0.173059 & 1.483348 & 0.0245358090185676 & Top ten percent \\ 
0.290901 & 0.016725 & 0.666111 & 0.172102 & 1.680119 & 0.0082522841143531 & Average \\ 
0.261422 & 0.013387 & 0.568338 & 0.128929 & 0.860763 & 0.0986590038314176 & Bugspots with tracking \\ 
0.259749 & 0.012803 & 0.561257 & 0.122007 & 0.841286 & 0.1009431181844975 & Bugspots \\ 
