Name & AUCEC & AUCEC20 &  AUHDC & AUHDC20 & Max. HD & Max. HD Index \\ 
0.171672 & 0.010118 & 1.135179 & 0.232676 & 5.664252 & 0.0011034114538913 & Average \\ 
0.171473 & 0.009919 & 1.118426 & 0.215923 & 3.434662 & 0.0212296485350229 & Bugspots \\ 
0.171473 & 0.009919 & 1.118426 & 0.215923 & 3.434662 & 0.0212296485350229 & Bugspots with tracking \\ 
0.170565 & 0.009011 & 1.095532 & 0.193029 & 3.431457 & 0.0054641518980106 & Top ten percent \\ 
