Name & AUCEC & AUCEC20 &  AUHDC & AUHDC20 & Max. HD & Max. HD Index \\ 
0.447376 & 0.019043 & 0.922324 & 0.205132 & 1.597120 & 0.0695696819946732 & Bugspots with tracking \\ 
0.433547 & 0.019043 & 0.903836 & 0.205131 & 1.597120 & 0.0695696819946732 & Bugspots \\ 
0.435131 & 0.016922 & 0.868998 & 0.189433 & 2.801420 & 0.0132208067259250 & Top ten percent \\ 
0.424739 & 0.012884 & 0.779616 & 0.117847 & 1.187433 & 0.0311908352854347 & Average \\ 
