Name & AUCEC & AUCEC20 &  AUHDC & AUHDC20 & Max. HD & Max. HD Index \\ 
0.632337 & 0.082363 & 2.451228 & 1.394671 & 139.416590 & 0.0004593385103071 & Bugspots with tracking \\ 
0.632371 & 0.082322 & 2.451429 & 1.394507 & 139.416590 & 0.0004593385103071 & Bugspots \\ 
0.626164 & 0.077475 & 2.089420 & 1.032480 & 20.957294 & 0.0011752730160272 & Average \\ 
0.596097 & 0.071425 & 2.026742 & 1.044877 & 19.464925 & 0.0030369139210191 & Top ten percent \\ 
