Name & AUCEC & AUCEC20 &  AUHDC & AUHDC20 & Max. HD & Max. HD Index \\ 
0.317862 & 0.022118 & 0.789550 & 0.262383 & 2.478403 & 0.0048249412346901 & Top ten percent \\ 
0.306612 & 0.019925 & 0.735371 & 0.226814 & 1.972606 & 0.0015155264134603 & Bugspots \\ 
0.308116 & 0.019448 & 0.729102 & 0.215745 & 1.972606 & 0.0015155264134603 & Bugspots with tracking \\ 
0.299711 & 0.012284 & 0.644105 & 0.144183 & 10.174495 & 0.0005876530990969 & Average \\ 
