Name & AUCEC & AUCEC20 &  AUHDC & AUHDC20 & Max. HD & Max. HD Index \\ 
0.514469 & 0.067772 & 1.826496 & 0.940543 & 11.087812 & 0.0164217189997728 & Bugspots \\ 
0.514469 & 0.067772 & 1.826496 & 0.940543 & 11.087812 & 0.0164217189997728 & Bugspots with tracking \\ 
0.508439 & 0.065256 & 1.926263 & 1.051679 & 24.922073 & 0.0063782631678389 & Average \\ 
0.475265 & 0.046408 & 1.448945 & 0.629429 & 9.904324 & 0.0172167463109247 & Top ten percent \\ 
