Name & AUCEC & AUCEC20 &  AUHDC & AUHDC20 & Max. HD & Max. HD Index \\ 
0.515545 & 0.058894 & 1.680727 & 0.806491 & 14.874349 & 0.0010343051535880 & Bugspots \\ 
0.515545 & 0.058894 & 1.680727 & 0.806491 & 14.874349 & 0.0010343051535880 & Bugspots with tracking \\ 
0.508271 & 0.055809 & 1.638055 & 0.776876 & 27.988755 & 0.0016490138959841 & Average \\ 
0.480571 & 0.044122 & 1.482078 & 0.672264 & 15.175324 & 0.0045620619806839 & Top ten percent \\ 
