Name & AUCEC & AUCEC20 &  AUHDC & AUHDC20 & Max. HD & Max. HD Index \\ 
0.220506 & 0.022802 & 1.185142 & 0.383582 & 4.983893 & 0.0260520309693358 & Average \\ 
0.220351 & 0.022647 & 1.191846 & 0.390286 & 5.780149 & 0.0003940909503439 & Bugspots \\ 
0.220351 & 0.022647 & 1.191846 & 0.390286 & 5.780149 & 0.0003940909503439 & Bugspots with tracking \\ 
0.216086 & 0.018382 & 1.096942 & 0.295381 & 3.295330 & 0.0179725573822615 & Top ten percent \\ 
