Name & AUCEC & AUCEC20 &  AUHDC & AUHDC20 & Max. HD & Max. HD Index \\ 
0.134111 & 0.023056 & 0.546689 & 0.291357 & 3.023563 & 0.0410401857274406 & Bugspots \\ 
0.134111 & 0.023056 & 0.546689 & 0.291357 & 3.023563 & 0.0410401857274406 & Bugspots with tracking \\ 
0.116471 & 0.008726 & 0.362599 & 0.120415 & 2.452399 & 0.0104173264408250 & Average \\ 
0.114931 & 0.007734 & 0.323838 & 0.084452 & 2.025216 & 0.0018020969855832 & Top ten percent \\ 
