Name & AUCEC & AUCEC20 &  AUHDC & AUHDC20 & Max. HD & Max. HD Index \\ 
0.571590 & 0.070226 & 2.207566 & 1.251487 & 132.830931 & 0.0004786822951867 & Bugspots \\ 
0.571694 & 0.070197 & 2.208078 & 1.251367 & 132.830931 & 0.0004786822951867 & Bugspots with tracking \\ 
0.574559 & 0.068475 & 2.085624 & 1.112291 & 61.473234 & 0.0010343333294673 & Average \\ 
0.541955 & 0.057898 & 1.850758 & 0.945746 & 36.186764 & 0.0019168379133248 & Top ten percent \\ 
