Name & AUCEC & AUCEC20 &  AUHDC & AUHDC20 & Max. HD & Max. HD Index \\ 
0.541555 & 0.074396 & 2.082083 & 1.147271 & 37.390066 & 0.0022057791413503 & Bugspots with tracking \\ 
0.541583 & 0.074322 & 2.082193 & 1.146914 & 37.390066 & 0.0022057791413503 & Bugspots \\ 
0.531804 & 0.068462 & 1.859967 & 0.939103 & 13.894957 & 0.0022258316789990 & Average \\ 
0.500657 & 0.047659 & 1.638419 & 0.755210 & 14.737711 & 0.0017487923623050 & Top ten percent \\ 
