Name & AUCEC & AUCEC20 &  AUHDC & AUHDC20 & Max. HD & Max. HD Index \\ 
0.478316 & 0.027222 & 1.070785 & 0.306161 & 3.660200 & 0.0066636377404210 & Bugspots \\ 
0.479007 & 0.027222 & 1.071351 & 0.306161 & 3.660200 & 0.0066636377404210 & Bugspots with tracking \\ 
0.464183 & 0.019520 & 0.957661 & 0.212859 & 1.717854 & 0.0378615780705740 & Average \\ 
0.454185 & 0.018073 & 0.960467 & 0.216563 & 2.556330 & 0.0063607451158564 & Top ten percent \\ 
