Name & AUCEC & AUCEC20 &  AUHDC & AUHDC20 & Max. HD & Max. HD Index \\ 
0.274814 & 0.013758 & 0.694530 & 0.101508 & 1.095547 & 0.2316716485070549 & Top ten percent \\ 
0.274881 & 0.012671 & 0.768574 & 0.169522 & 5.691316 & 0.0035676405361103 & Average \\ 
0.273973 & 0.010637 & 0.732296 & 0.127150 & 1.823718 & 0.0139170121814033 & Bugspots \\ 
0.274528 & 0.010614 & 0.735635 & 0.127420 & 1.823718 & 0.0139170121814033 & Bugspots with tracking \\ 
