Name & AUCEC & AUCEC20 &  AUHDC & AUHDC20 & Max. HD & Max. HD Index \\ 
0.830663 & 0.107218 & 2.558273 & 1.175539 & 10.946113 & 0.0519478884630999 & Top ten percent \\ 
0.810984 & 0.089572 & 2.501897 & 1.119022 & 28.192204 & 0.0048685410007522 & Average \\ 
0.819440 & 0.088687 & 2.502416 & 1.093365 & 19.151057 & 0.0010238517596928 & Bugspots \\ 
0.819611 & 0.088687 & 2.502865 & 1.093365 & 19.151057 & 0.0010238517596928 & Bugspots with tracking \\ 
