Name & AUCEC & AUCEC20 &  AUHDC & AUHDC20 & Max. HD & Max. HD Index \\ 
0.860197 & 0.138122 & 3.353761 & 1.945242 & 29.753464 & 0.0126035743236817 & Average \\ 
0.858637 & 0.133660 & 3.144288 & 1.723811 & 23.540064 & 0.0185853358834745 & Top ten percent \\ 
0.851724 & 0.130946 & 3.222661 & 1.817761 & 27.654810 & 0.0135600281984823 & Bugspots \\ 
0.853233 & 0.130844 & 3.225140 & 1.817278 & 27.654810 & 0.0135600281984823 & Bugspots with tracking \\ 
