Name & AUCEC & AUCEC20 &  AUHDC & AUHDC20 & Max. HD & Max. HD Index \\ 
0.317194 & 0.020738 & 0.776400 & 0.248863 & 2.122973 & 0.0239391315105778 & Top ten percent \\ 
0.299964 & 0.018768 & 0.694442 & 0.201446 & 2.491178 & 0.0030001237164419 & Bugspots \\ 
0.301205 & 0.018183 & 0.683096 & 0.185364 & 1.972606 & 0.0015155264134603 & Bugspots with tracking \\ 
0.299540 & 0.012201 & 0.628497 & 0.127435 & 1.597648 & 0.0037424223679327 & Average \\ 
