Name & AUCEC & AUCEC20 &  AUHDC & AUHDC20 & Max. HD & Max. HD Index \\ 
0.557609 & 0.039399 & 1.417419 & 0.472498 & 4.074738 & 0.0395829939729598 & Bugspots \\ 
0.560097 & 0.039399 & 1.421663 & 0.472498 & 4.074738 & 0.0395829939729598 & Bugspots with tracking \\ 
0.502653 & 0.032638 & 1.169184 & 0.326655 & 2.583029 & 0.0187326926209480 & Top ten percent \\ 
0.534339 & 0.029793 & 1.219125 & 0.312360 & 3.257110 & 0.0049519465711028 & Average \\ 
