Name & AUCEC & AUCEC20 &  AUHDC & AUHDC20 & Max. HD & Max. HD Index \\ 
0.142839 & 0.020581 & 0.808137 & 0.383065 & 9.313524 & 0.0008764959114804 & Average \\ 
0.142801 & 0.020543 & 0.793202 & 0.368129 & 6.053897 & 0.0017979087773574 & Bugspots \\ 
0.142801 & 0.020543 & 0.793202 & 0.368129 & 6.053897 & 0.0017979087773574 & Bugspots with tracking \\ 
0.140064 & 0.017806 & 0.730377 & 0.305304 & 6.053897 & 0.0017979087773574 & Top ten percent \\ 
