Name & AUCEC & AUCEC20 &  AUHDC & AUHDC20 & Max. HD & Max. HD Index \\ 
0.852633 & 0.116179 & 2.839587 & 1.418145 & 46.628592 & 0.0007148689599076 & Top ten percent \\ 
0.854975 & 0.106146 & 3.332382 & 1.867056 & 259.597551 & 0.0005136155283794 & Bugspots \\ 
0.854962 & 0.106146 & 3.332359 & 1.867056 & 259.597551 & 0.0005136155283794 & Bugspots with tracking \\ 
0.837083 & 0.100104 & 4.075351 & 2.643410 & 31800.700000 & 0.0000010481949559 & Average \\ 
