Name & AUCEC & AUCEC20 &  AUHDC & AUHDC20 & Max. HD & Max. HD Index \\ 
0.565682 & 0.040074 & 1.396859 & 0.453540 & 4.420363 & 0.0072976054732041 & Bugspots \\ 
0.570066 & 0.040074 & 1.404769 & 0.453540 & 4.420363 & 0.0072976054732041 & Bugspots with tracking \\ 
0.529336 & 0.030569 & 1.189295 & 0.317871 & 3.257110 & 0.0049519465711028 & Top ten percent \\ 
0.522142 & 0.014855 & 1.023838 & 0.144978 & 1.628555 & 0.0099038931422056 & Average \\ 
