Name & AUCEC & AUCEC20 &  AUHDC & AUHDC20 & Max. HD & Max. HD Index \\ 
0.642519 & 0.082156 & 2.361203 & 1.282908 & 50.699765 & 0.0015250482580149 & Bugspots with tracking \\ 
0.642181 & 0.082036 & 2.360177 & 1.282313 & 50.699765 & 0.0015250482580149 & Bugspots \\ 
0.636609 & 0.078447 & 2.100986 & 1.029281 & 19.242425 & 0.0029466676376316 & Average \\ 
0.606908 & 0.071898 & 2.026982 & 1.028513 & 14.546768 & 0.0028347955854866 & Top ten percent \\ 
