Name & AUCEC & AUCEC20 &  AUHDC & AUHDC20 & Max. HD & Max. HD Index \\ 
0.298952 & 0.041146 & 1.475068 & 0.592198 & 7.582552 & 0.0060372054927122 & Bugspots \\ 
0.298952 & 0.041146 & 1.475068 & 0.592198 & 7.582552 & 0.0060372054927122 & Bugspots with tracking \\ 
0.298350 & 0.040545 & 1.479914 & 0.597044 & 16.237955 & 0.0001458187256064 & Average \\ 
0.294410 & 0.036605 & 1.384669 & 0.501800 & 5.192310 & 0.0304013427732860 & Top ten percent \\ 
