Name & AUCEC & AUCEC20 &  AUHDC & AUHDC20 & Max. HD & Max. HD Index \\ 
0.553174 & 0.067046 & 1.687594 & 0.700142 & 5.612775 & 0.0015582942892341 & Average \\ 
0.555470 & 0.066520 & 1.661120 & 0.666505 & 4.115689 & 0.1257365925461488 & Bugspots \\ 
0.555507 & 0.066504 & 1.661420 & 0.666554 & 4.120023 & 0.1256043365278877 & Bugspots with tracking \\ 
0.518926 & 0.053715 & 1.508157 & 0.588871 & 10.879294 & 0.0004019725740205 & Top ten percent \\ 
