Name & AUCEC & AUCEC20 &  AUHDC & AUHDC20 & Max. HD & Max. HD Index \\ 
0.787968 & 0.101540 & 2.673438 & 1.270027 & 18.963523 & 0.0067606177241840 & Top ten percent \\ 
0.762251 & 0.078019 & 2.183720 & 0.789209 & 7.513552 & 0.0204758225086211 & Bugspots \\ 
0.762251 & 0.078019 & 2.183720 & 0.789209 & 7.513552 & 0.0204758225086211 & Bugspots with tracking \\ 
0.755745 & 0.073514 & 2.696413 & 1.310019 & 248.025953 & 0.0005169020685519 & Average \\ 
