Name & AUCEC & AUCEC20 &  AUHDC & AUHDC20 & Max. HD & Max. HD Index \\ 
0.506754 & 0.024040 & 1.061310 & 0.229045 & 1.548107 & 0.0919236610975368 & Bugspots \\ 
0.502045 & 0.020985 & 1.022955 & 0.198949 & 1.323689 & 0.0261506966915406 & Bugspots with tracking \\ 
0.509084 & 0.020107 & 1.046817 & 0.203167 & 1.551060 & 0.0247969358779634 & Average \\ 
0.477592 & 0.019259 & 0.984194 & 0.203985 & 1.488621 & 0.0310044244865614 & Top ten percent \\ 
