Name & AUCEC & AUCEC20 &  AUHDC & AUHDC20 & Max. HD & Max. HD Index \\ 
0.422430 & 0.021243 & 0.969284 & 0.250920 & 3.196749 & 0.0124134039685276 & Bugspots \\ 
0.423311 & 0.021243 & 0.971290 & 0.250920 & 3.196749 & 0.0124134039685276 & Bugspots with tracking \\ 
0.417598 & 0.019035 & 0.880036 & 0.173752 & 1.183096 & 0.0737907902573587 & Top ten percent \\ 
0.409919 & 0.017553 & 0.903182 & 0.210269 & 1.830235 & 0.0130089965831792 & Average \\ 
