Name & AUCEC & AUCEC20 &  AUHDC & AUHDC20 & Max. HD & Max. HD Index \\ 
0.519429 & 0.076664 & 2.202079 & 1.224455 & 39.747630 & 0.0018987722963099 & Bugspots with tracking \\ 
0.519458 & 0.076606 & 2.202239 & 1.224193 & 39.747630 & 0.0018987722963099 & Bugspots \\ 
0.513590 & 0.072625 & 2.072643 & 1.102134 & 25.566275 & 0.0033210024080702 & Average \\ 
0.501556 & 0.064092 & 2.177880 & 1.221016 & 141.079411 & 0.0004680891081053 & Top ten percent \\ 
