Name & AUCEC & AUCEC20 &  AUHDC & AUHDC20 & Max. HD & Max. HD Index \\ 
0.422166 & 0.038400 & 1.940736 & 0.533237 & 8.306739 & 0.0121908034105161 & Average \\ 
0.421685 & 0.037920 & 1.918257 & 0.510758 & 7.018352 & 0.0180358968413731 & Bugspots \\ 
0.421685 & 0.037920 & 1.918257 & 0.510758 & 7.018352 & 0.0180358968413731 & Bugspots with tracking \\ 
0.418394 & 0.034628 & 1.821331 & 0.413832 & 3.546350 & 0.0838801471285689 & Top ten percent \\ 
