Name & AUCEC & AUCEC20 &  AUHDC & AUHDC20 & Max. HD & Max. HD Index \\ 
0.849129 & 0.145850 & 3.951462 & 1.939345 & 26.795045 & 0.0163276458343083 & Top ten percent \\ 
0.846974 & 0.143857 & 3.891082 & 1.879787 & 23.975494 & 0.0182477994465972 & Bugspots with tracking \\ 
0.846972 & 0.143856 & 3.891064 & 1.879769 & 23.975494 & 0.0182477994465972 & Bugspots \\ 
0.846878 & 0.143761 & 3.885345 & 1.874051 & 25.402653 & 0.0147622375827802 & Average \\ 
