Name & AUCEC & AUCEC20 &  AUHDC & AUHDC20 & Max. HD & Max. HD Index \\ 
0.568719 & 0.046418 & 2.727464 & 0.610649 & 8.288883 & 0.0023655591374049 & Top ten percent \\ 
0.551916 & 0.029616 & 2.518724 & 0.401909 & 8.715308 & 0.0067494489978107 & Average \\ 
0.549639 & 0.027339 & 2.438299 & 0.321484 & 4.865913 & 0.1208889886631496 & Bugspots \\ 
0.549639 & 0.027339 & 2.438299 & 0.321484 & 4.865913 & 0.1208889886631496 & Bugspots with tracking \\ 
