Name & AUCEC & AUCEC20 &  AUHDC & AUHDC20 & Max. HD & Max. HD Index \\ 
0.577543 & 0.072604 & 1.830874 & 0.769551 & 5.227333 & 0.0045208221662854 & Bugspots \\ 
0.577244 & 0.072514 & 1.829832 & 0.769177 & 5.227333 & 0.0045208221662854 & Bugspots with tracking \\ 
0.574975 & 0.071827 & 1.862241 & 0.805069 & 7.381957 & 0.0001684893449005 & Average \\ 
0.547431 & 0.060550 & 1.648350 & 0.652772 & 4.323729 & 0.0552314861531692 & Top ten percent \\ 
