Name & AUCEC & AUCEC20 &  AUHDC & AUHDC20 & Max. HD & Max. HD Index \\ 
0.247793 & 0.017798 & 0.656667 & 0.207846 & 2.412478 & 0.0057471264367816 & Bugspots \\ 
0.247802 & 0.017798 & 0.656688 & 0.207846 & 2.412478 & 0.0057471264367816 & Bugspots with tracking \\ 
0.248878 & 0.016488 & 0.637833 & 0.183824 & 2.707530 & 0.0051208370173887 & Average \\ 
0.245197 & 0.015851 & 0.627417 & 0.183615 & 2.707530 & 0.0051208370173887 & Top ten percent \\ 
