Name & AUCEC & AUCEC20 &  AUHDC & AUHDC20 & Max. HD & Max. HD Index \\ 
0.355687 & 0.025020 & 0.893786 & 0.217598 & 1.443171 & 0.1429831498266318 & Top ten percent \\ 
0.346479 & 0.020117 & 0.914687 & 0.249968 & 3.558225 & 0.0066914045866537 & Bugspots \\ 
0.346596 & 0.020117 & 0.914874 & 0.249968 & 3.558225 & 0.0066914045866537 & Bugspots with tracking \\ 
0.342594 & 0.018389 & 0.865355 & 0.213889 & 2.095876 & 0.0075734533730762 & Average \\ 
