Name & AUCEC & AUCEC20 &  AUHDC & AUHDC20 & Max. HD & Max. HD Index \\ 
0.350713 & 0.025095 & 0.814333 & 0.251937 & 2.053485 & 0.0304360658156866 & Bugspots \\ 
0.363224 & 0.025095 & 0.832002 & 0.251937 & 2.053485 & 0.0304360658156866 & Bugspots with tracking \\ 
0.356540 & 0.012886 & 0.660230 & 0.081600 & 1.263565 & 0.1978528739024570 & Top ten percent \\ 
0.372404 & 0.009618 & 0.681054 & 0.060657 & 1.162151 & 0.2151184239651737 & Average \\ 
