Name & AUCEC & AUCEC20 &  AUHDC & AUHDC20 & Max. HD & Max. HD Index \\ 
0.487367 & 0.029391 & 1.030646 & 0.234847 & 2.085868 & 0.1198541556296550 & Top ten percent \\ 
0.424004 & 0.009362 & 0.745226 & 0.060886 & 1.149155 & 0.6526535572937767 & Average \\ 
0.419601 & 0.005974 & 0.720868 & 0.040857 & 1.152677 & 0.6506591043659821 & Bugspots \\ 
0.418970 & 0.005974 & 0.719775 & 0.040857 & 1.152677 & 0.6506591043659821 & Bugspots with tracking \\ 
