Name & AUCEC & AUCEC20 &  AUHDC & AUHDC20 & Max. HD & Max. HD Index \\ 
0.453037 & 0.024182 & 1.012001 & 0.279478 & 2.727218 & 0.0085939215255779 & Bugspots with tracking \\ 
0.454068 & 0.024069 & 1.012352 & 0.278138 & 2.727218 & 0.0085939215255779 & Bugspots \\ 
0.436404 & 0.015559 & 0.924227 & 0.201644 & 2.727218 & 0.0085939215255779 & Top ten percent \\ 
0.448276 & 0.013649 & 0.898181 & 0.164404 & 2.210822 & 0.0106012608600194 & Average \\ 
