Name & AUCEC & AUCEC20 &  AUHDC & AUHDC20 & Max. HD & Max. HD Index \\ 
0.525892 & 0.033141 & 1.244149 & 0.363570 & 3.913209 & 0.0049143226640802 & Top ten percent \\ 
0.520942 & 0.026475 & 1.151122 & 0.287787 & 2.344070 & 0.0328160362107986 & Bugspots \\ 
0.525352 & 0.026475 & 1.156922 & 0.287787 & 2.344070 & 0.0328160362107986 & Bugspots with tracking \\ 
0.497253 & 0.013753 & 0.948756 & 0.122372 & 1.247438 & 0.2620756547041707 & Average \\ 
