Name & AUCEC & AUCEC20 &  AUHDC & AUHDC20 & Max. HD & Max. HD Index \\ 
0.453609 & 0.024182 & 1.013057 & 0.279478 & 2.727218 & 0.0085939215255779 & Bugspots with tracking \\ 
0.453388 & 0.024069 & 1.012083 & 0.278138 & 2.727218 & 0.0085939215255779 & Bugspots \\ 
0.435482 & 0.018774 & 0.919170 & 0.215324 & 2.727218 & 0.0085939215255779 & Top ten percent \\ 
0.444263 & 0.013387 & 0.887779 & 0.163110 & 2.210822 & 0.0106012608600194 & Average \\ 
