Name & AUCEC & AUCEC20 &  AUHDC & AUHDC20 & Max. HD & Max. HD Index \\ 
0.350348 & 0.051446 & 1.418864 & 0.603523 & 5.251324 & 0.0005078084046930 & Bugspots with tracking \\ 
0.350307 & 0.051405 & 1.417631 & 0.602290 & 5.251324 & 0.0005078084046930 & Bugspots \\ 
0.348216 & 0.050064 & 1.383961 & 0.572494 & 6.876136 & 0.0003878147012698 & Average \\ 
0.342532 & 0.044667 & 1.333088 & 0.523002 & 3.986945 & 0.0245244862924203 & Top ten percent \\ 
