Name & AUCEC & AUCEC20 &  AUHDC & AUHDC20 & Max. HD & Max. HD Index \\ 
0.434287 & 0.021214 & 0.869977 & 0.195534 & 1.823239 & 0.0822711832715261 & Top ten percent \\ 
0.400689 & 0.008127 & 0.695217 & 0.052856 & 1.045698 & 0.7172239708311259 & Average \\ 
0.444156 & 0.007769 & 0.779207 & 0.061392 & 1.200659 & 0.5413693165882389 & Bugspots \\ 
0.444156 & 0.007769 & 0.779207 & 0.061392 & 1.200659 & 0.5413693165882389 & Bugspots with tracking \\ 
