Name & AUCEC & AUCEC20 &  AUHDC & AUHDC20 & Max. HD & Max. HD Index \\ 
0.434811 & 0.025975 & 1.017459 & 0.286529 & 2.727218 & 0.0085939215255779 & Top ten percent \\ 
0.427330 & 0.023355 & 0.992066 & 0.271483 & 3.201619 & 0.0122008593921526 & Bugspots \\ 
0.428364 & 0.023355 & 0.994317 & 0.271483 & 3.201619 & 0.0122008593921526 & Bugspots with tracking \\ 
0.422383 & 0.018773 & 0.941919 & 0.221184 & 1.992688 & 0.0196029231879058 & Average \\ 
