Name & AUCEC & AUCEC20 &  AUHDC & AUHDC20 & Max. HD & Max. HD Index \\ 
0.425786 & 0.022531 & 0.850481 & 0.205124 & 1.520666 & 0.0487116131309566 & Average \\ 
0.464800 & 0.021776 & 0.981675 & 0.238764 & 1.858591 & 0.0398549561980554 & Bugspots \\ 
0.468361 & 0.021776 & 0.986237 & 0.238764 & 1.858591 & 0.0398549561980554 & Bugspots with tracking \\ 
0.465018 & 0.021700 & 0.984392 & 0.253161 & 2.801420 & 0.0132208067259250 & Top ten percent \\ 
