Name & AUCEC & AUCEC20 &  AUHDC & AUHDC20 & Max. HD & Max. HD Index \\ 
0.511470 & 0.029331 & 1.167553 & 0.330795 & 2.703110 & 0.0386287133566456 & Bugspots with tracking \\ 
0.503029 & 0.028881 & 1.152599 & 0.327831 & 2.703110 & 0.0386287133566456 & Bugspots \\ 
0.496628 & 0.025312 & 1.100546 & 0.277227 & 2.147229 & 0.0243145200823556 & Top ten percent \\ 
0.497912 & 0.021333 & 1.011537 & 0.193597 & 1.283421 & 0.1251674891336318 & Average \\ 
