Name & AUCEC & AUCEC20 &  AUHDC & AUHDC20 & Max. HD & Max. HD Index \\ 
0.468371 & 0.019417 & 0.950986 & 0.201113 & 1.432335 & 0.0552217453505007 & Bugspots with tracking \\ 
0.455547 & 0.019279 & 0.931312 & 0.200479 & 1.432335 & 0.0552217453505007 & Bugspots \\ 
0.457155 & 0.015263 & 0.909889 & 0.182827 & 3.384988 & 0.0033381020505484 & Top ten percent \\ 
0.455624 & 0.012757 & 0.860835 & 0.128756 & 1.269370 & 0.0044508027340645 & Average \\ 
