Name & AUCEC & AUCEC20 &  AUHDC & AUHDC20 & Max. HD & Max. HD Index \\ 
0.281016 & 0.017715 & 0.650546 & 0.183027 & 1.629206 & 0.0170203359858532 & Top ten percent \\ 
0.288983 & 0.016207 & 0.662288 & 0.168820 & 1.680119 & 0.0082522841143531 & Average \\ 
0.263475 & 0.012697 & 0.571218 & 0.123185 & 0.860763 & 0.0986590038314176 & Bugspots with tracking \\ 
0.261966 & 0.012133 & 0.564806 & 0.116490 & 0.841286 & 0.1009431181844975 & Bugspots \\ 
