Name & AUCEC & AUCEC20 &  AUHDC & AUHDC20 & Max. HD & Max. HD Index \\ 
0.461459 & 0.026869 & 1.034341 & 0.300849 & 3.201619 & 0.0122008593921526 & Bugspots with tracking \\ 
0.454773 & 0.026848 & 1.024741 & 0.300736 & 3.201619 & 0.0122008593921526 & Bugspots \\ 
0.455587 & 0.020651 & 0.960016 & 0.237734 & 2.210822 & 0.0106012608600194 & Average \\ 
0.457702 & 0.018490 & 0.982207 & 0.236257 & 2.727218 & 0.0085939215255779 & Top ten percent \\ 
