Name & AUCEC & AUCEC20 &  AUHDC & AUHDC20 & Max. HD & Max. HD Index \\ 
0.869061 & 0.134608 & 3.168441 & 1.735394 & 22.726927 & 0.0192502924534626 & Top ten percent \\ 
0.870804 & 0.133866 & 3.369885 & 1.920958 & 29.756655 & 0.0126022228274950 & Average \\ 
0.862567 & 0.128103 & 3.274108 & 1.833644 & 29.355023 & 0.0127746450548037 & Bugspots \\ 
0.862592 & 0.127891 & 3.274341 & 1.832674 & 29.355023 & 0.0127746450548037 & Bugspots with tracking \\ 
