Name & AUCEC & AUCEC20 &  AUHDC & AUHDC20 & Max. HD & Max. HD Index \\ 
0.158609 & 0.026961 & 0.686184 & 0.371539 & 4.701353 & 0.0006219436273722 & Bugspots \\ 
0.158609 & 0.026961 & 0.686184 & 0.371539 & 4.701353 & 0.0006219436273722 & Bugspots with tracking \\ 
0.158635 & 0.026624 & 0.696029 & 0.379461 & 7.100929 & 0.0002058868968133 & Average \\ 
0.151776 & 0.020579 & 0.626997 & 0.313377 & 7.134056 & 0.0016394470728420 & Top ten percent \\ 
