Name & AUCEC & AUCEC20 &  AUHDC & AUHDC20 & Max. HD & Max. HD Index \\ 
0.454100 & 0.018158 & 0.905832 & 0.167785 & 1.156333 & 0.0808226649982353 & Bugspots \\ 
0.466083 & 0.018158 & 0.924098 & 0.167785 & 1.156333 & 0.0808226649982353 & Bugspots with tracking \\ 
0.461724 & 0.016707 & 0.963066 & 0.209558 & 2.511038 & 0.0093047133185741 & Top ten percent \\ 
0.453955 & 0.014088 & 0.867449 & 0.130847 & 1.009723 & 0.5646035871274104 & Average \\ 
