Name & AUCEC & AUCEC20 &  AUHDC & AUHDC20 & Max. HD & Max. HD Index \\ 
0.470861 & 0.031449 & 1.119521 & 0.329784 & 2.535301 & 0.0269289846073401 & Bugspots \\ 
0.470861 & 0.031449 & 1.119521 & 0.329784 & 2.535301 & 0.0269289846073401 & Bugspots with tracking \\ 
0.475193 & 0.029449 & 1.101362 & 0.301562 & 2.370516 & 0.0423543253047485 & Top ten percent \\ 
0.460283 & 0.020249 & 0.989781 & 0.191384 & 1.394275 & 0.1469002254975653 & Average \\ 
