Name & AUCEC & AUCEC20 &  AUHDC & AUHDC20 & Max. HD & Max. HD Index \\ 
0.409046 & 0.060106 & 1.693685 & 0.727398 & 16.237955 & 0.0001458187256064 & Average \\ 
0.410232 & 0.058354 & 1.694898 & 0.713670 & 8.375460 & 0.0039578925160866 & Bugspots with tracking \\ 
0.410232 & 0.058354 & 1.694897 & 0.713669 & 8.375460 & 0.0039578925160866 & Bugspots \\ 
0.402976 & 0.054211 & 1.609017 & 0.643552 & 5.256194 & 0.0459487214490038 & Top ten percent \\ 
