Name & AUCEC & AUCEC20 &  AUHDC & AUHDC20 & Max. HD & Max. HD Index \\ 
0.448890 & 0.058074 & 1.462414 & 0.619205 & 3.984572 & 0.0782512543885133 & Bugspots \\ 
0.448914 & 0.058045 & 1.462617 & 0.619145 & 3.988368 & 0.0781767789174098 & Bugspots with tracking \\ 
0.447502 & 0.058001 & 1.493420 & 0.654269 & 26.380074 & 0.0000532407293426 & Average \\ 
0.431553 & 0.049110 & 1.362095 & 0.552261 & 26.380074 & 0.0000532407293426 & Top ten percent \\ 
