Name & AUCEC & AUCEC20 &  AUHDC & AUHDC20 & Max. HD & Max. HD Index \\ 
0.337026 & 0.016364 & 0.748805 & 0.198533 & 3.999676 & 0.0032283819904884 & Average \\ 
0.344767 & 0.016007 & 0.717339 & 0.152871 & 1.015791 & 0.0225986739334190 & Bugspots with tracking \\ 
0.341567 & 0.015859 & 0.712525 & 0.152171 & 1.015791 & 0.0225986739334190 & Bugspots \\ 
0.331133 & 0.013740 & 0.715742 & 0.179737 & 12.398996 & 0.0005207067726594 & Top ten percent \\ 
