Name & AUCEC & AUCEC20 &  AUHDC & AUHDC20 & Max. HD & Max. HD Index \\ 
0.823948 & 0.142559 & 3.565659 & 2.182296 & 63.665396 & 0.0009519466522806 & Top ten percent \\ 
0.820594 & 0.141277 & 3.457419 & 2.084520 & 63.665396 & 0.0009519466522806 & Average \\ 
0.816238 & 0.132855 & 3.463597 & 2.070050 & 63.665396 & 0.0009519466522806 & Bugspots \\ 
0.816257 & 0.132618 & 3.463816 & 2.068947 & 63.665396 & 0.0009519466522806 & Bugspots with tracking \\ 
