Name & AUCEC & AUCEC20 &  AUHDC & AUHDC20 & Max. HD & Max. HD Index \\ 
0.315513 & 0.043675 & 1.147367 & 0.527975 & 5.567816 & 0.0007567569563783 & Average \\ 
0.315369 & 0.042275 & 1.127587 & 0.502221 & 3.867236 & 0.0101689793044360 & Bugspots with tracking \\ 
0.315369 & 0.042274 & 1.127579 & 0.502212 & 3.867236 & 0.0101689793044360 & Bugspots \\ 
0.306260 & 0.036092 & 1.050229 & 0.437872 & 26.380074 & 0.0000532407293426 & Top ten percent \\ 
