Name & AUCEC & AUCEC20 &  AUHDC & AUHDC20 & Max. HD & Max. HD Index \\ 
0.519022 & 0.029477 & 1.133822 & 0.272082 & 2.845970 & 0.0067571936631102 & Average \\ 
0.503782 & 0.026583 & 1.065223 & 0.234579 & 1.879329 & 0.1227934044616877 & Top ten percent \\ 
0.524706 & 0.025822 & 1.149464 & 0.275113 & 2.236119 & 0.0258001939864210 & Bugspots \\ 
0.525353 & 0.025822 & 1.150393 & 0.275113 & 2.236119 & 0.0258001939864210 & Bugspots with tracking \\ 
