Name & AUCEC & AUCEC20 &  AUHDC & AUHDC20 & Max. HD & Max. HD Index \\ 
0.546303 & 0.074279 & 2.206567 & 1.019376 & 20.514940 & 0.0035704909980861 & Average \\ 
0.543979 & 0.071941 & 2.011318 & 0.824014 & 7.819911 & 0.0105886811307014 & Bugspots \\ 
0.543979 & 0.071941 & 2.011318 & 0.824014 & 7.819911 & 0.0105886811307014 & Bugspots with tracking \\ 
0.540733 & 0.067366 & 2.153659 & 0.959420 & 14.628333 & 0.0052250055044628 & Top ten percent \\ 
