Name & AUCEC & AUCEC20 &  AUHDC & AUHDC20 & Max. HD & Max. HD Index \\ 
0.261821 & 0.023498 & 0.901465 & 0.230390 & 1.654077 & 0.0363258951738454 & Top ten percent \\ 
0.261027 & 0.023388 & 0.877081 & 0.209516 & 1.503707 & 0.1712506486766995 & Bugspots \\ 
0.261027 & 0.023388 & 0.877081 & 0.209516 & 1.503707 & 0.1712506486766995 & Bugspots with tracking \\ 
0.259005 & 0.021204 & 0.859746 & 0.191358 & 1.405966 & 0.2075765438505449 & Average \\ 
