Name & AUCEC & AUCEC20 &  AUHDC & AUHDC20 & Max. HD & Max. HD Index \\ 
0.613075 & 0.076813 & 2.387296 & 1.361258 & 145.501211 & 0.0004659522066165 & Bugspots \\ 
0.612407 & 0.076792 & 2.386070 & 1.361150 & 145.501211 & 0.0004659522066165 & Bugspots with tracking \\ 
0.604992 & 0.073526 & 2.116605 & 1.103031 & 37.500776 & 0.0025611522649398 & Average \\ 
0.587752 & 0.069224 & 2.200867 & 1.233191 & 145.501211 & 0.0004659522066165 & Top ten percent \\ 
