Name & AUCEC & AUCEC20 &  AUHDC & AUHDC20 & Max. HD & Max. HD Index \\ 
0.846807 & 0.124101 & 3.752478 & 2.358386 & 225.870754 & 0.0005208600793761 & Bugspots \\ 
0.846831 & 0.124101 & 3.752522 & 2.358386 & 225.870754 & 0.0005208600793761 & Bugspots with tracking \\ 
0.843980 & 0.120678 & 3.099500 & 1.717250 & 47.850710 & 0.0036879408839530 & Top ten percent \\ 
0.818254 & 0.105887 & 3.143366 & 1.786916 & 225.870754 & 0.0005208600793761 & Average \\ 
