Name & AUCEC & AUCEC20 &  AUHDC & AUHDC20 & Max. HD & Max. HD Index \\ 
0.532682 & 0.072397 & 2.054291 & 1.131626 & 37.390066 & 0.0022057791413503 & Bugspots with tracking \\ 
0.532733 & 0.072388 & 2.054507 & 1.131616 & 37.390066 & 0.0022057791413503 & Bugspots \\ 
0.523323 & 0.065468 & 1.843777 & 0.928847 & 15.838110 & 0.0026036637041681 & Average \\ 
0.499614 & 0.051944 & 1.727357 & 0.849601 & 17.297119 & 0.0032780622071934 & Top ten percent \\ 
