Name & AUCEC & AUCEC20 &  AUHDC & AUHDC20 & Max. HD & Max. HD Index \\ 
0.533317 & 0.062505 & 1.678569 & 0.769786 & 7.439384 & 0.0279313713402316 & Bugspots with tracking \\ 
0.533331 & 0.062393 & 1.678690 & 0.769257 & 7.439384 & 0.0279313713402316 & Bugspots \\ 
0.523682 & 0.058685 & 1.700285 & 0.813605 & 16.409860 & 0.0039570760000970 & Average \\ 
0.511659 & 0.051042 & 1.569819 & 0.697144 & 9.193127 & 0.0233093379616896 & Top ten percent \\ 
