Name & AUCEC & AUCEC20 &  AUHDC & AUHDC20 & Max. HD & Max. HD Index \\ 
0.540689 & 0.029903 & 1.189965 & 0.290109 & 1.946349 & 0.0190289766710522 & Top ten percent \\ 
0.493257 & 0.020972 & 1.060746 & 0.266948 & 3.369884 & 0.0219811956486859 & Bugspots \\ 
0.492625 & 0.020972 & 1.059583 & 0.266948 & 3.369884 & 0.0219811956486859 & Bugspots with tracking \\ 
0.478333 & 0.016809 & 0.926296 & 0.161203 & 1.487352 & 0.0249013252896063 & Average \\ 
