Name & AUCEC & AUCEC20 &  AUHDC & AUHDC20 & Max. HD & Max. HD Index \\ 
0.543534 & 0.068510 & 1.686069 & 0.713927 & 4.295438 & 0.1052473310912402 & Average \\ 
0.545539 & 0.066746 & 1.669410 & 0.681370 & 4.192401 & 0.1202572538889249 & Bugspots \\ 
0.545566 & 0.066696 & 1.669610 & 0.681192 & 4.196985 & 0.1201259026218868 & Bugspots with tracking \\ 
0.515144 & 0.053990 & 1.518519 & 0.592631 & 9.538547 & 0.0006552360658958 & Top ten percent \\ 
