Name & AUCEC & AUCEC20 &  AUHDC & AUHDC20 & Max. HD & Max. HD Index \\ 
0.559966 & 0.070297 & 2.193771 & 1.253690 & 132.830931 & 0.0004786822951867 & Bugspots with tracking \\ 
0.559851 & 0.070224 & 2.193208 & 1.253283 & 132.830931 & 0.0004786822951867 & Bugspots \\ 
0.558589 & 0.067709 & 1.946745 & 0.998997 & 28.054387 & 0.0024724889476054 & Average \\ 
0.528377 & 0.058583 & 1.974789 & 1.093807 & 132.830931 & 0.0004786822951867 & Top ten percent \\ 
