Name & AUCEC & AUCEC20 &  AUHDC & AUHDC20 & Max. HD & Max. HD Index \\ 
0.423481 & 0.060145 & 1.603732 & 0.690473 & 7.794895 & 0.0046754247637933 & Bugspots with tracking \\ 
0.423436 & 0.060112 & 1.602825 & 0.689626 & 7.794895 & 0.0046754247637933 & Bugspots \\ 
0.421033 & 0.057975 & 1.535112 & 0.623128 & 7.853073 & 0.0003395698102027 & Average \\ 
0.411797 & 0.050450 & 1.473983 & 0.569539 & 4.254708 & 0.0681075601290613 & Top ten percent \\ 
