Name & AUCEC & AUCEC20 &  AUHDC & AUHDC20 & Max. HD & Max. HD Index \\ 
0.629239 & 0.071389 & 2.098963 & 1.040157 & 90.531529 & 0.0005098096395982 & Bugspots \\ 
0.629262 & 0.071383 & 2.098918 & 1.040108 & 90.531529 & 0.0005098096395982 & Bugspots with tracking \\ 
0.623420 & 0.070311 & 1.949958 & 0.904332 & 27.847040 & 0.0016574058242080 & Average \\ 
0.611301 & 0.068405 & 1.869288 & 0.856534 & 15.175324 & 0.0045620619806839 & Top ten percent \\ 
