Name & AUCEC & AUCEC20 &  AUHDC & AUHDC20 & Max. HD & Max. HD Index \\ 
0.512566 & 0.066266 & 1.664065 & 0.688714 & 6.725955 & 0.0003964740406921 & Average \\ 
0.513764 & 0.065209 & 1.706423 & 0.720968 & 8.104819 & 0.0041676163591003 & Bugspots with tracking \\ 
0.513709 & 0.065185 & 1.705511 & 0.720215 & 8.104819 & 0.0041676163591003 & Bugspots \\ 
0.499203 & 0.056713 & 1.574108 & 0.612548 & 4.345650 & 0.0756823172887113 & Top ten percent \\ 
