Name & AUCEC & AUCEC20 &  AUHDC & AUHDC20 & Max. HD & Max. HD Index \\ 
0.206017 & 0.030650 & 0.825981 & 0.404846 & 7.075044 & 0.0002060377321522 & Average \\ 
0.206056 & 0.030150 & 0.810402 & 0.386576 & 3.890515 & 0.0059949938647903 & Bugspots \\ 
0.206056 & 0.030150 & 0.810402 & 0.386576 & 3.890515 & 0.0059949938647903 & Bugspots with tracking \\ 
0.201284 & 0.026049 & 0.781635 & 0.360840 & 8.589605 & 0.0010182488813345 & Top ten percent \\ 
