Name & AUCEC & AUCEC20 &  AUHDC & AUHDC20 & Max. HD & Max. HD Index \\ 
0.522406 & 0.071743 & 1.779561 & 0.828833 & 6.411835 & 0.0053892490663085 & Average \\ 
0.522926 & 0.067934 & 1.771827 & 0.800722 & 7.717369 & 0.0063771290370421 & Bugspots \\ 
0.522957 & 0.067920 & 1.772159 & 0.800817 & 7.717369 & 0.0063771290370421 & Bugspots with tracking \\ 
0.502526 & 0.059929 & 1.650918 & 0.728550 & 10.499902 & 0.0008975401357071 & Top ten percent \\ 
