Name & AUCEC & AUCEC20 &  AUHDC & AUHDC20 & Max. HD & Max. HD Index \\ 
0.430488 & 0.019697 & 1.002696 & 0.239184 & 2.381319 & 0.0164037261236396 & Average \\ 
0.429579 & 0.019613 & 1.013877 & 0.248729 & 3.201619 & 0.0122008593921526 & Bugspots \\ 
0.429910 & 0.019613 & 1.014840 & 0.248729 & 3.201619 & 0.0122008593921526 & Bugspots with tracking \\ 
0.441290 & 0.017148 & 0.980697 & 0.177949 & 1.358898 & 0.0574914531254901 & Top ten percent \\ 
