Name & AUCEC & AUCEC20 &  AUHDC & AUHDC20 & Max. HD & Max. HD Index \\ 
0.659432 & 0.077290 & 2.380265 & 1.269148 & 132.566295 & 0.0004774300981208 & Bugspots with tracking \\ 
0.659480 & 0.077179 & 2.380482 & 1.268619 & 132.566295 & 0.0004774300981208 & Bugspots \\ 
0.655686 & 0.075255 & 2.048283 & 0.943080 & 12.114344 & 0.0036571356301972 & Average \\ 
0.629075 & 0.070539 & 1.911862 & 0.873055 & 9.751426 & 0.0116828093546789 & Top ten percent \\ 
