Name & AUCEC & AUCEC20 &  AUHDC & AUHDC20 & Max. HD & Max. HD Index \\ 
0.814231 & 0.113537 & 2.799246 & 1.428591 & 108.906507 & 0.0003060729271159 & Top ten percent \\ 
0.804344 & 0.105847 & 3.220950 & 1.843830 & 259.597551 & 0.0005136155283794 & Bugspots \\ 
0.804280 & 0.105505 & 3.220836 & 1.842118 & 259.597551 & 0.0005136155283794 & Bugspots with tracking \\ 
0.810801 & 0.095087 & 12.273318 & 10.864817 & 31800.700000 & 0.0000010481949559 & Average \\ 
