Name & AUCEC & AUCEC20 &  AUHDC & AUHDC20 & Max. HD & Max. HD Index \\ 
0.418077 & 0.040400 & 1.295507 & 0.443161 & 4.661040 & 0.0009198045415349 & Average \\ 
0.340231 & 0.032817 & 1.191047 & 0.424176 & 5.326902 & 0.0010060362173038 & Top ten percent \\ 
0.383966 & 0.032044 & 1.126216 & 0.356595 & 7.609861 & 0.0007042253521127 & Bugspots with tracking \\ 
0.382668 & 0.032041 & 1.125531 & 0.356676 & 7.609861 & 0.0007042253521127 & Bugspots \\ 
