Name & AUCEC & AUCEC20 &  AUHDC & AUHDC20 & Max. HD & Max. HD Index \\ 
0.453952 & 0.057587 & 1.437804 & 0.605437 & 3.819980 & 0.1087576139054957 & Bugspots \\ 
0.453976 & 0.057558 & 1.438007 & 0.605379 & 3.824631 & 0.1086253578872346 & Bugspots with tracking \\ 
0.451143 & 0.057070 & 1.453736 & 0.628473 & 7.075044 & 0.0002060377321522 & Average \\ 
0.428241 & 0.046475 & 1.320114 & 0.544118 & 9.693616 & 0.0015037999113395 & Top ten percent \\ 
