Name & AUCEC & AUCEC20 &  AUHDC & AUHDC20 & Max. HD & Max. HD Index \\ 
0.493804 & 0.063234 & 1.914529 & 0.768367 & 10.101480 & 0.0070710998563650 & Average \\ 
0.493872 & 0.061845 & 1.869595 & 0.716020 & 7.314251 & 0.0275214372352948 & Bugspots \\ 
0.493872 & 0.061845 & 1.869595 & 0.716020 & 7.314251 & 0.0275214372352948 & Bugspots with tracking \\ 
0.483084 & 0.052455 & 1.716428 & 0.569972 & 5.203577 & 0.0149747137047610 & Top ten percent \\ 
